#!/usr/local/bin/gnuplot -persist
set title ' From 22-06-2015 00:00 to   UTC'
set xlabel 'Time in UTC'
set xdata time
set timefmt '%Y-%m-%d-%H-%M-%S'
set format x   '%H:%M:%S'
 plot 'plot_db_1.dat' using 2:1 title '', 'second_plot_db_1.dat' using 2:1 title 'LI_S01_A_M1_HV_IMeas' with linespoints ,\
 'plot_db_2.dat' using 2:1 title '', 'second_plot_db_2.dat' using 2:1 title 'LI_S01_A_M2_HV_IMeas' with linespoints ,\
 'plot_db_3.dat' using 2:1 title '', 'second_plot_db_3.dat' using 2:1 title 'LI_S01_A_M3_HV_IMeas' with linespoints ,\
 'plot_db_4.dat' using 2:1 title '', 'second_plot_db_4.dat' using 2:1 title 'LI_S01_A_M4_HV_IMeas' with linespoints ,\
 'plot_db_5.dat' using 2:1 title '', 'second_plot_db_5.dat' using 2:1 title 'LI_S01_C_M1_HV_IMeas' with linespoints ,\
 'plot_db_6.dat' using 2:1 title '', 'second_plot_db_6.dat' using 2:1 title 'LI_S01_C_M2_HV_IMeas' with linespoints ,\
 'plot_db_7.dat' using 2:1 title '', 'second_plot_db_7.dat' using 2:1 title 'LI_S01_C_M3_HV_IMeas' with linespoints ,\
 'plot_db_8.dat' using 2:1 title '', 'second_plot_db_8.dat' using 2:1 title 'LI_S01_C_M4_HV_IMeas' with linespoints ,\
 'plot_db_9.dat' using 2:1 title '', 'second_plot_db_9.dat' using 2:1 title 'LI_S02_A_M1_HV_IMeas' with linespoints ,\
 'plot_db_10.dat' using 2:1 title '', 'second_plot_db_10.dat' using 2:1 title 'LI_S02_A_M2_HV_IMeas' with linespoints ,\
 'plot_db_11.dat' using 2:1 title '', 'second_plot_db_11.dat' using 2:1 title 'LI_S02_A_M3_HV_IMeas' with linespoints ,\
 'plot_db_12.dat' using 2:1 title '', 'second_plot_db_12.dat' using 2:1 title 'LI_S02_A_M4_HV_IMeas' with linespoints ,\
 'plot_db_13.dat' using 2:1 title '', 'second_plot_db_13.dat' using 2:1 title 'LI_S02_C_M1_HV_IMeas' with linespoints ,\
 'plot_db_14.dat' using 2:1 title '', 'second_plot_db_14.dat' using 2:1 title 'LI_S02_C_M2_HV_IMeas' with linespoints ,\
 'plot_db_15.dat' using 2:1 title '', 'second_plot_db_15.dat' using 2:1 title 'LI_S02_C_M3_HV_IMeas' with linespoints ,\
 'plot_db_16.dat' using 2:1 title '', 'second_plot_db_16.dat' using 2:1 title 'LI_S02_C_M4_HV_IMeas' with linespoints ,\
 'plot_db_17.dat' using 2:1 title '', 'second_plot_db_17.dat' using 2:1 title 'LI_S03_A_M1_HV_IMeas' with linespoints ,\
 'plot_db_18.dat' using 2:1 title '', 'second_plot_db_18.dat' using 2:1 title 'LI_S03_A_M2_HV_IMeas' with linespoints ,\
 'plot_db_19.dat' using 2:1 title '', 'second_plot_db_19.dat' using 2:1 title 'LI_S03_A_M3_HV_IMeas' with linespoints ,\
 'plot_db_20.dat' using 2:1 title '', 'second_plot_db_20.dat' using 2:1 title 'LI_S03_A_M4_HV_IMeas' with linespoints ,\
 'plot_db_21.dat' using 2:1 title '', 'second_plot_db_21.dat' using 2:1 title 'LI_S03_C_M1_HV_IMeas' with linespoints ,\
 'plot_db_22.dat' using 2:1 title '', 'second_plot_db_22.dat' using 2:1 title 'LI_S03_C_M2_HV_IMeas' with linespoints ,\
 'plot_db_23.dat' using 2:1 title '', 'second_plot_db_23.dat' using 2:1 title 'LI_S03_C_M3_HV_IMeas' with linespoints ,\
 'plot_db_24.dat' using 2:1 title '', 'second_plot_db_24.dat' using 2:1 title 'LI_S03_C_M4_HV_IMeas' with linespoints ,\
 'plot_db_25.dat' using 2:1 title '', 'second_plot_db_25.dat' using 2:1 title 'LI_S04_A_M1_HV_IMeas' with linespoints ,\
 'plot_db_26.dat' using 2:1 title '', 'second_plot_db_26.dat' using 2:1 title 'LI_S04_A_M2_HV_IMeas' with linespoints ,\
 'plot_db_27.dat' using 2:1 title '', 'second_plot_db_27.dat' using 2:1 title 'LI_S04_A_M3_HV_IMeas' with linespoints ,\
 'plot_db_28.dat' using 2:1 title '', 'second_plot_db_28.dat' using 2:1 title 'LI_S04_A_M4_HV_IMeas' with linespoints ,\
 'plot_db_29.dat' using 2:1 title '', 'second_plot_db_29.dat' using 2:1 title 'LI_S04_C_M1_HV_IMeas' with linespoints ,\
 'plot_db_30.dat' using 2:1 title '', 'second_plot_db_30.dat' using 2:1 title 'LI_S04_C_M2_HV_IMeas' with linespoints ,\
 'plot_db_31.dat' using 2:1 title '', 'second_plot_db_31.dat' using 2:1 title 'LI_S04_C_M3_HV_IMeas' with linespoints ,\
 'plot_db_32.dat' using 2:1 title '', 'second_plot_db_32.dat' using 2:1 title 'LI_S04_C_M4_HV_IMeas' with linespoints ,\
 'plot_db_33.dat' using 2:1 title '', 'second_plot_db_33.dat' using 2:1 title 'LI_S05_A_M1_HV_IMeas' with linespoints ,\
 'plot_db_34.dat' using 2:1 title '', 'second_plot_db_34.dat' using 2:1 title 'LI_S05_A_M2_HV_IMeas' with linespoints ,\
 'plot_db_35.dat' using 2:1 title '', 'second_plot_db_35.dat' using 2:1 title 'LI_S05_A_M3_HV_IMeas' with linespoints ,\
 'plot_db_36.dat' using 2:1 title '', 'second_plot_db_36.dat' using 2:1 title 'LI_S05_A_M4_HV_IMeas' with linespoints ,\
 'plot_db_37.dat' using 2:1 title '', 'second_plot_db_37.dat' using 2:1 title 'LI_S05_C_M1_HV_IMeas' with linespoints ,\
 'plot_db_38.dat' using 2:1 title '', 'second_plot_db_38.dat' using 2:1 title 'LI_S05_C_M2_HV_IMeas' with linespoints ,\
 'plot_db_39.dat' using 2:1 title '', 'second_plot_db_39.dat' using 2:1 title 'LI_S05_C_M3_HV_IMeas' with linespoints ,\
 'plot_db_40.dat' using 2:1 title '', 'second_plot_db_40.dat' using 2:1 title 'LI_S05_C_M4_HV_IMeas' with linespoints ,\
 'plot_db_41.dat' using 2:1 title '', 'second_plot_db_41.dat' using 2:1 title 'LI_S06_A_M1_HV_IMeas' with linespoints ,\
 'plot_db_42.dat' using 2:1 title '', 'second_plot_db_42.dat' using 2:1 title 'LI_S06_A_M2_HV_IMeas' with linespoints ,\
 'plot_db_43.dat' using 2:1 title '', 'second_plot_db_43.dat' using 2:1 title 'LI_S06_A_M3_HV_IMeas' with linespoints ,\
 'plot_db_44.dat' using 2:1 title '', 'second_plot_db_44.dat' using 2:1 title 'LI_S06_A_M4_HV_IMeas' with linespoints ,\
 'plot_db_45.dat' using 2:1 title '', 'second_plot_db_45.dat' using 2:1 title 'LI_S06_C_M1_HV_IMeas' with linespoints ,\
 'plot_db_46.dat' using 2:1 title '', 'second_plot_db_46.dat' using 2:1 title 'LI_S06_C_M2_HV_IMeas' with linespoints ,\
 'plot_db_47.dat' using 2:1 title '', 'second_plot_db_47.dat' using 2:1 title 'LI_S06_C_M3_HV_IMeas' with linespoints ,\
 'plot_db_48.dat' using 2:1 title '', 'second_plot_db_48.dat' using 2:1 title 'LI_S06_C_M4_HV_IMeas' with linespoints ,\
 'plot_db_49.dat' using 2:1 title '', 'second_plot_db_49.dat' using 2:1 title 'LI_S07_A_M1_HV_IMeas' with linespoints ,\
 'plot_db_50.dat' using 2:1 title '', 'second_plot_db_50.dat' using 2:1 title 'LI_S07_A_M2_HV_IMeas' with linespoints ,\
 'plot_db_51.dat' using 2:1 title '', 'second_plot_db_51.dat' using 2:1 title 'LI_S07_A_M3_HV_IMeas' with linespoints ,\
 'plot_db_52.dat' using 2:1 title '', 'second_plot_db_52.dat' using 2:1 title 'LI_S07_A_M4_HV_IMeas' with linespoints ,\
 'plot_db_53.dat' using 2:1 title '', 'second_plot_db_53.dat' using 2:1 title 'LI_S07_C_M1_HV_IMeas' with linespoints ,\
 'plot_db_54.dat' using 2:1 title '', 'second_plot_db_54.dat' using 2:1 title 'LI_S07_C_M2_HV_IMeas' with linespoints ,\
 'plot_db_55.dat' using 2:1 title '', 'second_plot_db_55.dat' using 2:1 title 'LI_S07_C_M3_HV_IMeas' with linespoints ,\
 'plot_db_56.dat' using 2:1 title '', 'second_plot_db_56.dat' using 2:1 title 'LI_S07_C_M4_HV_IMeas' with linespoints ,\
 'plot_db_57.dat' using 2:1 title '', 'second_plot_db_57.dat' using 2:1 title 'LI_S08_A_M1_HV_IMeas' with linespoints ,\
 'plot_db_58.dat' using 2:1 title '', 'second_plot_db_58.dat' using 2:1 title 'LI_S08_A_M2_HV_IMeas' with linespoints ,\
 'plot_db_59.dat' using 2:1 title '', 'second_plot_db_59.dat' using 2:1 title 'LI_S08_A_M3_HV_IMeas' with linespoints ,\
 'plot_db_60.dat' using 2:1 title '', 'second_plot_db_60.dat' using 2:1 title 'LI_S08_A_M4_HV_IMeas' with linespoints ,\
 'plot_db_61.dat' using 2:1 title '', 'second_plot_db_61.dat' using 2:1 title 'LI_S08_C_M1_HV_IMeas' with linespoints ,\
 'plot_db_62.dat' using 2:1 title '', 'second_plot_db_62.dat' using 2:1 title 'LI_S08_C_M2_HV_IMeas' with linespoints ,\
 'plot_db_63.dat' using 2:1 title '', 'second_plot_db_63.dat' using 2:1 title 'LI_S08_C_M3_HV_IMeas' with linespoints ,\
 'plot_db_64.dat' using 2:1 title '', 'second_plot_db_64.dat' using 2:1 title 'LI_S08_C_M4_HV_IMeas' with linespoints ,\
 'plot_db_65.dat' using 2:1 title '', 'second_plot_db_65.dat' using 2:1 title 'LI_S09_A_M1_HV_IMeas' with linespoints ,\
 'plot_db_66.dat' using 2:1 title '', 'second_plot_db_66.dat' using 2:1 title 'LI_S09_A_M2_HV_IMeas' with linespoints ,\
 'plot_db_67.dat' using 2:1 title '', 'second_plot_db_67.dat' using 2:1 title 'LI_S09_A_M3_HV_IMeas' with linespoints ,\
 'plot_db_68.dat' using 2:1 title '', 'second_plot_db_68.dat' using 2:1 title 'LI_S09_A_M4_HV_IMeas' with linespoints ,\
 'plot_db_69.dat' using 2:1 title '', 'second_plot_db_69.dat' using 2:1 title 'LI_S09_C_M1_HV_IMeas' with linespoints ,\
 'plot_db_70.dat' using 2:1 title '', 'second_plot_db_70.dat' using 2:1 title 'LI_S09_C_M2_HV_IMeas' with linespoints ,\
 'plot_db_71.dat' using 2:1 title '', 'second_plot_db_71.dat' using 2:1 title 'LI_S09_C_M3_HV_IMeas' with linespoints ,\
 'plot_db_72.dat' using 2:1 title '', 'second_plot_db_72.dat' using 2:1 title 'LI_S09_C_M4_HV_IMeas' with linespoints ,\
 'plot_db_73.dat' using 2:1 title '', 'second_plot_db_73.dat' using 2:1 title 'LI_S10_A_M1_HV_IMeas' with linespoints ,\
 'plot_db_74.dat' using 2:1 title '', 'second_plot_db_74.dat' using 2:1 title 'LI_S10_A_M2_HV_IMeas' with linespoints ,\
 'plot_db_75.dat' using 2:1 title '', 'second_plot_db_75.dat' using 2:1 title 'LI_S10_A_M3_HV_IMeas' with linespoints ,\
 'plot_db_76.dat' using 2:1 title '', 'second_plot_db_76.dat' using 2:1 title 'LI_S10_A_M4_HV_IMeas' with linespoints ,\
 'plot_db_77.dat' using 2:1 title '', 'second_plot_db_77.dat' using 2:1 title 'LI_S10_C_M1_HV_IMeas' with linespoints ,\
 'plot_db_78.dat' using 2:1 title '', 'second_plot_db_78.dat' using 2:1 title 'LI_S10_C_M2_HV_IMeas' with linespoints ,\
 'plot_db_79.dat' using 2:1 title '', 'second_plot_db_79.dat' using 2:1 title 'LI_S10_C_M3_HV_IMeas' with linespoints ,\
 'plot_db_80.dat' using 2:1 title '', 'second_plot_db_80.dat' using 2:1 title 'LI_S10_C_M4_HV_IMeas' with linespoints ,\
 'plot_db_81.dat' using 2:1 title '', 'second_plot_db_81.dat' using 2:1 title 'LI_S11_A_M1_HV_IMeas' with linespoints ,\
 'plot_db_82.dat' using 2:1 title '', 'second_plot_db_82.dat' using 2:1 title 'LI_S11_A_M2_HV_IMeas' with linespoints ,\
 'plot_db_83.dat' using 2:1 title '', 'second_plot_db_83.dat' using 2:1 title 'LI_S11_A_M3_HV_IMeas' with linespoints ,\
 'plot_db_84.dat' using 2:1 title '', 'second_plot_db_84.dat' using 2:1 title 'LI_S11_A_M4_HV_IMeas' with linespoints ,\
 'plot_db_85.dat' using 2:1 title '', 'second_plot_db_85.dat' using 2:1 title 'LI_S11_C_M1_HV_IMeas' with linespoints ,\
 'plot_db_86.dat' using 2:1 title '', 'second_plot_db_86.dat' using 2:1 title 'LI_S11_C_M2_HV_IMeas' with linespoints ,\
 'plot_db_87.dat' using 2:1 title '', 'second_plot_db_87.dat' using 2:1 title 'LI_S11_C_M3_HV_IMeas' with linespoints ,\
 'plot_db_88.dat' using 2:1 title '', 'second_plot_db_88.dat' using 2:1 title 'LI_S11_C_M4_HV_IMeas' with linespoints ,\
 'plot_db_89.dat' using 2:1 title '', 'second_plot_db_89.dat' using 2:1 title 'LI_S12_A_M1_HV_IMeas' with linespoints ,\
 'plot_db_90.dat' using 2:1 title '', 'second_plot_db_90.dat' using 2:1 title 'LI_S12_A_M2_HV_IMeas' with linespoints ,\
 'plot_db_91.dat' using 2:1 title '', 'second_plot_db_91.dat' using 2:1 title 'LI_S12_A_M3_HV_IMeas' with linespoints ,\
 'plot_db_92.dat' using 2:1 title '', 'second_plot_db_92.dat' using 2:1 title 'LI_S12_A_M4_HV_IMeas' with linespoints ,\
 'plot_db_93.dat' using 2:1 title '', 'second_plot_db_93.dat' using 2:1 title 'LI_S12_C_M1_HV_IMeas' with linespoints ,\
 'plot_db_94.dat' using 2:1 title '', 'second_plot_db_94.dat' using 2:1 title 'LI_S12_C_M2_HV_IMeas' with linespoints ,\
 'plot_db_95.dat' using 2:1 title '', 'second_plot_db_95.dat' using 2:1 title 'LI_S12_C_M3_HV_IMeas' with linespoints ,\
 'plot_db_96.dat' using 2:1 title '', 'second_plot_db_96.dat' using 2:1 title 'LI_S12_C_M4_HV_IMeas' with linespoints ,\
 'plot_db_97.dat' using 2:1 title '', 'second_plot_db_97.dat' using 2:1 title 'LI_S13_A_M1_HV_IMeas' with linespoints ,\
 'plot_db_98.dat' using 2:1 title '', 'second_plot_db_98.dat' using 2:1 title 'LI_S13_A_M2_HV_IMeas' with linespoints ,\
 'plot_db_99.dat' using 2:1 title '', 'second_plot_db_99.dat' using 2:1 title 'LI_S13_A_M3_HV_IMeas' with linespoints ,\
 'plot_db_100.dat' using 2:1 title '', 'second_plot_db_100.dat' using 2:1 title 'LI_S13_A_M4_HV_IMeas' with linespoints ,\
 'plot_db_101.dat' using 2:1 title '', 'second_plot_db_101.dat' using 2:1 title 'LI_S13_C_M1_HV_IMeas' with linespoints ,\
 'plot_db_102.dat' using 2:1 title '', 'second_plot_db_102.dat' using 2:1 title 'LI_S13_C_M2_HV_IMeas' with linespoints ,\
 'plot_db_103.dat' using 2:1 title '', 'second_plot_db_103.dat' using 2:1 title 'LI_S13_C_M3_HV_IMeas' with linespoints ,\
 'plot_db_104.dat' using 2:1 title '', 'second_plot_db_104.dat' using 2:1 title 'LI_S13_C_M4_HV_IMeas' with linespoints ,\
 'plot_db_105.dat' using 2:1 title '', 'second_plot_db_105.dat' using 2:1 title 'LI_S14_A_M1_HV_IMeas' with linespoints ,\
 'plot_db_106.dat' using 2:1 title '', 'second_plot_db_106.dat' using 2:1 title 'LI_S14_A_M2_HV_IMeas' with linespoints ,\
 'plot_db_107.dat' using 2:1 title '', 'second_plot_db_107.dat' using 2:1 title 'LI_S14_A_M3_HV_IMeas' with linespoints ,\
 'plot_db_108.dat' using 2:1 title '', 'second_plot_db_108.dat' using 2:1 title 'LI_S14_A_M4_HV_IMeas' with linespoints ,\
 'plot_db_109.dat' using 2:1 title '', 'second_plot_db_109.dat' using 2:1 title 'LI_S14_C_M1_HV_IMeas' with linespoints ,\
 'plot_db_110.dat' using 2:1 title '', 'second_plot_db_110.dat' using 2:1 title 'LI_S14_C_M2_HV_IMeas' with linespoints ,\
 'plot_db_111.dat' using 2:1 title '', 'second_plot_db_111.dat' using 2:1 title 'LI_S14_C_M3_HV_IMeas' with linespoints ,\
 'plot_db_112.dat' using 2:1 title '', 'second_plot_db_112.dat' using 2:1 title 'LI_S14_C_M4_HV_IMeas' with linespoints ,\
 'plot_db_113.dat' using 2:1 title '', 'second_plot_db_113.dat' using 2:1 title 'LI_S15_A_12_M1_HV_IMeas' with linespoints ,\
 'plot_db_114.dat' using 2:1 title '', 'second_plot_db_114.dat' using 2:1 title 'LI_S15_A_12_M2_HV_IMeas' with linespoints ,\
 'plot_db_115.dat' using 2:1 title '', 'second_plot_db_115.dat' using 2:1 title 'LI_S15_A_34_M3_HV_IMeas' with linespoints ,\
 'plot_db_116.dat' using 2:1 title '', 'second_plot_db_116.dat' using 2:1 title 'LI_S15_A_34_M4_HV_IMeas' with linespoints ,\
 'plot_db_117.dat' using 2:1 title '', 'second_plot_db_117.dat' using 2:1 title 'LI_S15_C_12_M1_HV_IMeas' with linespoints ,\
 'plot_db_118.dat' using 2:1 title '', 'second_plot_db_118.dat' using 2:1 title 'LI_S15_C_12_M2_HV_IMeas' with linespoints ,\
 'plot_db_119.dat' using 2:1 title '', 'second_plot_db_119.dat' using 2:1 title 'LI_S15_C_34_M3_HV_IMeas' with linespoints ,\
 'plot_db_120.dat' using 2:1 title '', 'second_plot_db_120.dat' using 2:1 title 'LI_S15_C_34_M4_HV_IMeas' with linespoints
