%!PS-Adobe-2.0 EPSF-2.0
%%BoundingBox:  0 0 567 271
%%Title: AvgRMScool.eps: c3
%%Creator: ROOT Version 5.34/30
%%CreationDate: Sat Jun  6 18:10:57 2015
%%EndComments
%%BeginProlog
80 dict begin
/s {stroke} def /l {lineto} def /m {moveto} def /t {translate} def
/r {rotate} def /rl {roll}  def /R {repeat} def
/d {rlineto} def /rm {rmoveto} def /gr {grestore} def /f {eofill} def
/c {setrgbcolor} def /black {0 setgray} def /sd {setdash} def
/cl {closepath} def /sf {scalefont setfont} def /lw {setlinewidth} def
/box {m dup 0 exch d exch 0 d 0 exch neg d cl} def
/NC{systemdict begin initclip end}def/C{NC box clip newpath}def
/bl {box s} def /bf {gsave box gsave f grestore 1 lw [] 0 sd s grestore} def /Y { 0 exch d} def /X { 0 d} def 
/K {{pop pop 0 moveto} exch kshow} bind def
/ita {/ang 15 def gsave [1 0 ang dup sin exch cos div 1 0 0] concat} def 
/mp {newpath /y exch def /x exch def} def
/side {[w .77 mul w .23 mul] .385 w mul sd w 0 l currentpoint t -144 r} def
/mr {mp x y w2 0 360 arc} def /m24 {mr s} def /m20 {mr f} def
/mb {mp x y w2 add m w2 neg 0 d 0 w neg d w 0 d 0 w d cl} def
/mt {mp x y w2 add m w2 neg w neg d w 0 d cl} def
/m21 {mb f} def /m25 {mb s} def /m22 {mt f} def /m26{mt s} def
/m23 {mp x y w2 sub m w2 w d w neg 0 d cl f} def
/m27 {mp x y w2 add m w3 neg w2 neg d w3 w2 neg d w3 w2 d cl s} def
/m28 {mp x w2 sub y w2 sub w3 add m w3 0 d  0 w3 neg d w3 0 d 0 w3 d w3 0 d  0 w3 d w3 neg 0 d 0 w3 d w3 neg 0 d 0 w3 neg d w3 neg 0 d cl s } def
/m29 {mp gsave x w2 sub y w2 add w3 sub m currentpoint t 4 {side} repeat cl fill gr} def
/m30 {mp gsave x w2 sub y w2 add w3 sub m currentpoint t 4 {side} repeat cl s gr} def
/m31 {mp x y w2 sub m 0 w d x w2 sub y m w 0 d x w2 sub y w2 add m w w neg d x w2 sub y w2 sub m w w d s} def
/m32 {mp x y w2 sub m w2 w d w neg 0 d cl s} def
/m33 {mp x y w2 add m w3 neg w2 neg d w3 w2 neg d w3 w2 d cl f} def
/m34 {mp x w2 sub y w2 sub w3 add m w3 0 d  0 w3 neg d w3 0 d 0 w3 d w3 0 d  0 w3 d w3 neg 0 d 0 w3 d w3 neg 0 d 0 w3 neg d w3 neg 0 d cl f } def
/m2 {mp x y w2 sub m 0 w d x w2 sub y m w 0 d s} def
/m5 {mp x w2 sub y w2 sub m w w d x w2 sub y w2 add m w w neg d s} def
/reEncode {exch findfont dup length dict begin {1 index /FID eq  {pop pop} {def} ifelse } forall /Encoding exch def currentdict end dup /FontName get exch definefont pop } def [/Times-Bold /Times-Italic /Times-BoldItalic /Helvetica /Helvetica-Oblique
 /Helvetica-Bold /Helvetica-BoldOblique /Courier /Courier-Oblique /Courier-Bold /Courier-BoldOblique /Times-Roman /AvantGarde-Book /AvantGarde-BookOblique /AvantGarde-Demi /AvantGarde-DemiOblique /Bookman-Demi /Bookman-DemiItalic /Bookman-Light
 /Bookman-LightItalic /Helvetica-Narrow /Helvetica-Narrow-Bold /Helvetica-Narrow-BoldOblique /Helvetica-Narrow-Oblique /NewCenturySchlbk-Roman /NewCenturySchlbk-Bold /NewCenturySchlbk-BoldItalic /NewCenturySchlbk-Italic /Palatino-Bold
 /Palatino-BoldItalic /Palatino-Italic /Palatino-Roman ] {ISOLatin1Encoding reEncode } forall
%%EndProlog
%%BeginSetup
%%EndSetup
newpath  gsave  .25 .25 scale  gsave  0 0 t black[  ] 0 sd 3 lw 1 1 1 c 2268 1085 0 0 bf black 1 1 1 c 2086 868 159 108 bf black 2086 868 159 108 bl 159 108 m 2086 X s[ 4 8] 0 sd 180 976 m -868 Y s 381 976 m -868 Y s 582 976 m -868 Y s 782 976 m -868
 Y s 983 976 m -868 Y s 1184 976 m -868 Y s 1385 976 m -868 Y s 1586 976 m -868 Y s 1787 976 m -868 Y s 1988 976 m -868 Y s 2189 976 m -868 Y s 180 976 m -868 Y s 2189 976 m -868 Y s[  ] 0 sd 159 108 m 868 Y s 159 108 m 2086 X s
 gsave  2268 1085 0 0 C 2150.16 15.1687 t 0 r /Helvetica findfont 45.506 sf 0 0 m (Date) show NC gr  180 138 m -30 Y s 213 123 m -15 Y s 247 123 m -15 Y s 280 123 m -15 Y s 314 123 m -15 Y s 347 123 m -15 Y s 381 138 m -30 Y s 414 123 m -15 Y s 448
 123 m -15 Y s 481 123 m -15 Y s 515 123 m -15 Y s 548 123 m -15 Y s 582 138 m -30 Y s 615 123 m -15 Y s 649 123 m -15 Y s 682 123 m -15 Y s 715 123 m -15 Y s 749 123 m -15 Y s 782 138 m -30 Y s 816 123 m -15 Y s 849 123 m -15 Y s 883 123 m -15 Y s
 916 123 m -15 Y s 950 123 m -15 Y s 983 138 m -30 Y s 1017 123 m -15 Y s 1050 123 m -15 Y s 1084 123 m -15 Y s 1117 123 m -15 Y s 1151 123 m -15 Y s 1184 138 m -30 Y s 1218 123 m -15 Y s 1251 123 m -15 Y s 1285 123 m -15 Y s 1318 123 m -15 Y s 1352
 123 m -15 Y s 1385 138 m -30 Y s 1419 123 m -15 Y s 1452 123 m -15 Y s 1485 123 m -15 Y s 1519 123 m -15 Y s 1552 123 m -15 Y s 1586 138 m -30 Y s 1619 123 m -15 Y s 1653 123 m -15 Y s 1686 123 m -15 Y s 1720 123 m -15 Y s 1753 123 m -15 Y s 1787
 138 m -30 Y s 1820 123 m -15 Y s 1854 123 m -15 Y s 1887 123 m -15 Y s 1921 123 m -15 Y s 1954 123 m -15 Y s 1988 138 m -30 Y s 2021 123 m -15 Y s 2055 123 m -15 Y s 2088 123 m -15 Y s 2122 123 m -15 Y s 2155 123 m -15 Y s 2189 138 m -30 Y s 180 138
 m -30 Y s 2189 138 m -30 Y s 2222 123 m -15 Y s
 gsave  2268 1085 0 0 C 113.765 73.9473 t 0 r /Helvetica findfont 36.0256 sf 0 0 m (May\25531 ) show NC gr 
 gsave  2268 1085 0 0 C 318.542 73.9473 t 0 r /Helvetica findfont 36.0256 sf 0 0 m (Jun\25501 ) show NC gr 
 gsave  2268 1085 0 0 C 519.527 73.9473 t 0 r /Helvetica findfont 36.0256 sf 0 0 m (Jun\25501 ) show NC gr 
 gsave  2268 1085 0 0 C 720.512 73.9473 t 0 r /Helvetica findfont 36.0256 sf 0 0 m (Jun\25502 ) show NC gr 
 gsave  2268 1085 0 0 C 921.497 73.9473 t 0 r /Helvetica findfont 36.0256 sf 0 0 m (Jun\25502 ) show NC gr 
 gsave  2268 1085 0 0 C 1122.48 73.9473 t 0 r /Helvetica findfont 36.0256 sf 0 0 m (Jun\25503 ) show NC gr 
 gsave  2268 1085 0 0 C 1323.47 73.9473 t 0 r /Helvetica findfont 36.0256 sf 0 0 m (Jun\25503 ) show NC gr 
 gsave  2268 1085 0 0 C 1524.45 73.9473 t 0 r /Helvetica findfont 36.0256 sf 0 0 m (Jun\25504 ) show NC gr 
 gsave  2268 1085 0 0 C 1725.44 73.9473 t 0 r /Helvetica findfont 36.0256 sf 0 0 m (Jun\25504 ) show NC gr 
 gsave  2268 1085 0 0 C 1926.42 73.9473 t 0 r /Helvetica findfont 36.0256 sf 0 0 m (Jun\25505 ) show NC gr 
 gsave  2268 1085 0 0 C 2127.41 73.9473 t 0 r /Helvetica findfont 36.0256 sf 0 0 m (Jun\25505 ) show NC gr  159 108 m 868 Y s
 gsave  2268 1085 0 0 C 56.8825 466.437 t 90 r /Helvetica findfont 45.506 sf 0 0 m 
 501 470 458 445 420 394 384 372 346 336 321 295 268 256 230 215 190 177 152 137 111 86 48 22
(Temperature Variation [K]) K NC gr  177 108 m -18 X s 168 137 m -9 X s 168 166 m -9 X s 168 195 m -9 X s 168 224 m -9 X s 177 253 m -18 X s 168 282 m -9 X s 168 311 m -9 X s 168 340 m -9 X s 168 369 m -9 X s 177 398 m -18 X s 168 427 m -9 X s 168
 456 m -9 X s 168 484 m -9 X s 168 513 m -9 X s 177 542 m -18 X s 168 571 m -9 X s 168 600 m -9 X s 168 629 m -9 X s 168 658 m -9 X s 177 687 m -18 X s 168 716 m -9 X s 168 745 m -9 X s 168 774 m -9 X s 168 803 m -9 X s 177 831 m -18 X s 168 860 m -9
 X s 168 889 m -9 X s 168 918 m -9 X s 168 947 m -9 X s 177 976 m -18 X s 177 976 m -18 X s
 gsave  2268 1085 0 0 C 127.038 96.7003 t 0 r /Helvetica findfont 36.0256 sf 0 0 m (0) show NC gr 
 gsave  2268 1085 0 0 C 75.8434 240.803 t 0 r /Helvetica findfont 36.0256 sf 0 0 m (0.05) show NC gr 
 gsave  2268 1085 0 0 C 96.7003 384.905 t 0 r /Helvetica findfont 36.0256 sf 0 0 m (0.1) show NC gr 
 gsave  2268 1085 0 0 C 75.8434 529.007 t 0 r /Helvetica findfont 36.0256 sf 0 0 m (0.15) show NC gr 
 gsave  2268 1085 0 0 C 96.7003 675.006 t 0 r /Helvetica findfont 36.0256 sf 0 0 m (0.2) show NC gr 
 gsave  2268 1085 0 0 C 75.8434 819.108 t 0 r /Helvetica findfont 36.0256 sf 0 0 m (0.25) show NC gr 
 gsave  2268 1085 0 0 C 96.7003 963.211 t 0 r /Helvetica findfont 36.0256 sf 0 0 m (0.3) show NC gr  0.2 0.8 1 c black 0.2 0.8 1 c 220 122 1851 246 bf black 0.2 0.8 1 c 169 35 333 170 bf black 0.2 0.8 1 c 156 27 769 178 bf black 0.2 0.8 1 c 116 119
 1468 240 bf black 0.2 0.8 1 c 133 32 1117 167 bf black 0.2 0.8 1 c 182 116 1264 261 bf black 0.2 0.8 1 c 220 122 1851 246 bf black 0.2 0.8 1 c 169 35 333 170 bf black 0.2 0.8 1 c 156 27 769 178 bf black 0.2 0.8 1 c 116 119 1468 240 bf black 0.2 0.8
 1 c 133 32 1117 167 bf black 0.2 0.8 1 c 182 116 1264 261 bf black 0.2 0.8 1 c black 0.4 0.4 0.6 c 220 266 1851 710 bf black 0.4 0.4 0.6 c 169 259 333 221 bf black 0.4 0.4 0.6 c 156 200 769 335 bf black 0.4 0.4 0.6 c 116 385 1468 591 bf black 0.4
 0.4 0.6 c 133 142 1117 306 bf black 0.4 0.4 0.6 c 182 438 1264 538 bf black 0.4 0.4 0.6 c black 0.2 0.8 1 c 220 122 1851 246 bf black 0.2 0.8 1 c 169 35 333 170 bf black 0.2 0.8 1 c 156 27 769 178 bf black 0.2 0.8 1 c 116 119 1468 240 bf black 0.2
 0.8 1 c 133 32 1117 167 bf black 0.2 0.8 1 c 182 116 1264 261 bf black 0.2 0.8 1 c black
 gsave  2268 1085 0 0 C 1977.57 315.765 t 90 r /Helvetica-Bold findfont 39.8178 sf 0 0 m (267073) show NC gr 
 gsave  2268 1085 0 0 C 434.083 196.389 t 90 r /Helvetica-Bold findfont 39.8178 sf 0 0 m (266663) show NC gr 
 gsave  2268 1085 0 0 C 863.578 199.906 t 90 r /Helvetica-Bold findfont 39.8178 sf 0 0 m (266762) show NC gr 
 gsave  2268 1085 0 0 C 1542.63 308.277 t 90 r /Helvetica-Bold findfont 39.8178 sf 0 0 m (266919) show NC gr 
 gsave  2268 1085 0 0 C 1200.18 191.965 t 90 r /Helvetica-Bold findfont 39.8178 sf 0 0 m (266902) show NC gr 
 gsave  2268 1085 0 0 C 1371.58 327.709 t 90 r /Helvetica-Bold findfont 39.8178 sf 0 0 m (266904) show NC gr 
 gsave  2268 1085 0 0 C 1371.58 327.709 t 90 r /Helvetica-Bold findfont 39.8178 sf 0 0 m (266904) show NC gr 
 gsave  2268 1085 0 0 C 453.164 858.926 t 0 r /Helvetica findfont 32.2334 sf 0 0 m 
 580 562 554 545 527 508 501 490 481 464 457 439 430 407 380 356 347 328 317 299 290 271 260 242 224 196 178 161 153 134 116 108 86 77 68 61 42 24
(Cool. Pipe Temperature RMS distribution) K NC gr  0.2 0.8 1 c 261 830 m 159 X 76 Y -159 X f black 261 906 m 159 X s 261 830 m 159 X s 420 830 m 76 Y s 261 830 m 76 Y s
 gsave  2268 1085 0 0 C 453.164 750.849 t 0 r /Helvetica findfont 32.2334 sf 0 0 m (Cool. Pipe Peak to Peak excursion) show NC gr  0.4 0.4 0.6 c 261 721 m 159 X 76 Y -159 X f black 261 797 m 159 X s 261 721 m 159 X s 420 721 m 76 Y s 261 721 m 76 Y s
 gsave  2268 1085 0 0 C 1518.76 868.406 t 0 r /Helvetica-BoldOblique findfont 70.1551 sf 0 0 m 
 183 132 89 46
(ATLAS) K NC gr 
 gsave  2268 1085 0 0 C 1755.77 868.406 t 0 r /Helvetica findfont 70.1551 sf 0 0 m (Internal) show NC gr 
 gr  gr showpage
end
%%EOF
