%!PS-Adobe-2.0 EPSF-2.0
%%BoundingBox:  0 0 567 271
%%Title: AvgRMS.eps: c2
%%Creator: ROOT Version 5.34/30
%%CreationDate: Sat Jun  6 18:10:53 2015
%%EndComments
%%BeginProlog
80 dict begin
/s {stroke} def /l {lineto} def /m {moveto} def /t {translate} def
/r {rotate} def /rl {roll}  def /R {repeat} def
/d {rlineto} def /rm {rmoveto} def /gr {grestore} def /f {eofill} def
/c {setrgbcolor} def /black {0 setgray} def /sd {setdash} def
/cl {closepath} def /sf {scalefont setfont} def /lw {setlinewidth} def
/box {m dup 0 exch d exch 0 d 0 exch neg d cl} def
/NC{systemdict begin initclip end}def/C{NC box clip newpath}def
/bl {box s} def /bf {gsave box gsave f grestore 1 lw [] 0 sd s grestore} def /Y { 0 exch d} def /X { 0 d} def 
/K {{pop pop 0 moveto} exch kshow} bind def
/ita {/ang 15 def gsave [1 0 ang dup sin exch cos div 1 0 0] concat} def 
/mp {newpath /y exch def /x exch def} def
/side {[w .77 mul w .23 mul] .385 w mul sd w 0 l currentpoint t -144 r} def
/mr {mp x y w2 0 360 arc} def /m24 {mr s} def /m20 {mr f} def
/mb {mp x y w2 add m w2 neg 0 d 0 w neg d w 0 d 0 w d cl} def
/mt {mp x y w2 add m w2 neg w neg d w 0 d cl} def
/m21 {mb f} def /m25 {mb s} def /m22 {mt f} def /m26{mt s} def
/m23 {mp x y w2 sub m w2 w d w neg 0 d cl f} def
/m27 {mp x y w2 add m w3 neg w2 neg d w3 w2 neg d w3 w2 d cl s} def
/m28 {mp x w2 sub y w2 sub w3 add m w3 0 d  0 w3 neg d w3 0 d 0 w3 d w3 0 d  0 w3 d w3 neg 0 d 0 w3 d w3 neg 0 d 0 w3 neg d w3 neg 0 d cl s } def
/m29 {mp gsave x w2 sub y w2 add w3 sub m currentpoint t 4 {side} repeat cl fill gr} def
/m30 {mp gsave x w2 sub y w2 add w3 sub m currentpoint t 4 {side} repeat cl s gr} def
/m31 {mp x y w2 sub m 0 w d x w2 sub y m w 0 d x w2 sub y w2 add m w w neg d x w2 sub y w2 sub m w w d s} def
/m32 {mp x y w2 sub m w2 w d w neg 0 d cl s} def
/m33 {mp x y w2 add m w3 neg w2 neg d w3 w2 neg d w3 w2 d cl f} def
/m34 {mp x w2 sub y w2 sub w3 add m w3 0 d  0 w3 neg d w3 0 d 0 w3 d w3 0 d  0 w3 d w3 neg 0 d 0 w3 d w3 neg 0 d 0 w3 neg d w3 neg 0 d cl f } def
/m2 {mp x y w2 sub m 0 w d x w2 sub y m w 0 d s} def
/m5 {mp x w2 sub y w2 sub m w w d x w2 sub y w2 add m w w neg d s} def
/reEncode {exch findfont dup length dict begin {1 index /FID eq  {pop pop} {def} ifelse } forall /Encoding exch def currentdict end dup /FontName get exch definefont pop } def [/Times-Bold /Times-Italic /Times-BoldItalic /Helvetica /Helvetica-Oblique
 /Helvetica-Bold /Helvetica-BoldOblique /Courier /Courier-Oblique /Courier-Bold /Courier-BoldOblique /Times-Roman /AvantGarde-Book /AvantGarde-BookOblique /AvantGarde-Demi /AvantGarde-DemiOblique /Bookman-Demi /Bookman-DemiItalic /Bookman-Light
 /Bookman-LightItalic /Helvetica-Narrow /Helvetica-Narrow-Bold /Helvetica-Narrow-BoldOblique /Helvetica-Narrow-Oblique /NewCenturySchlbk-Roman /NewCenturySchlbk-Bold /NewCenturySchlbk-BoldItalic /NewCenturySchlbk-Italic /Palatino-Bold
 /Palatino-BoldItalic /Palatino-Italic /Palatino-Roman ] {ISOLatin1Encoding reEncode } forall
%%EndProlog
%%BeginSetup
%%EndSetup
newpath  gsave  .25 .25 scale  gsave  0 0 t black[  ] 0 sd 3 lw 1 1 1 c 2268 1085 0 0 bf black 1 1 1 c 2086 868 159 108 bf black 2086 868 159 108 bl 159 108 m 2086 X s[ 4 8] 0 sd 180 976 m -868 Y s 381 976 m -868 Y s 582 976 m -868 Y s 782 976 m -868
 Y s 983 976 m -868 Y s 1184 976 m -868 Y s 1385 976 m -868 Y s 1586 976 m -868 Y s 1787 976 m -868 Y s 1988 976 m -868 Y s 2189 976 m -868 Y s 180 976 m -868 Y s 2189 976 m -868 Y s[  ] 0 sd 159 108 m 868 Y s 159 108 m 2086 X s
 gsave  2268 1085 0 0 C 2150.16 15.1687 t 0 r /Helvetica findfont 45.506 sf 0 0 m (Date) show NC gr  180 138 m -30 Y s 213 123 m -15 Y s 247 123 m -15 Y s 280 123 m -15 Y s 314 123 m -15 Y s 347 123 m -15 Y s 381 138 m -30 Y s 414 123 m -15 Y s 448
 123 m -15 Y s 481 123 m -15 Y s 515 123 m -15 Y s 548 123 m -15 Y s 582 138 m -30 Y s 615 123 m -15 Y s 649 123 m -15 Y s 682 123 m -15 Y s 715 123 m -15 Y s 749 123 m -15 Y s 782 138 m -30 Y s 816 123 m -15 Y s 849 123 m -15 Y s 883 123 m -15 Y s
 916 123 m -15 Y s 950 123 m -15 Y s 983 138 m -30 Y s 1017 123 m -15 Y s 1050 123 m -15 Y s 1084 123 m -15 Y s 1117 123 m -15 Y s 1151 123 m -15 Y s 1184 138 m -30 Y s 1218 123 m -15 Y s 1251 123 m -15 Y s 1285 123 m -15 Y s 1318 123 m -15 Y s 1352
 123 m -15 Y s 1385 138 m -30 Y s 1419 123 m -15 Y s 1452 123 m -15 Y s 1485 123 m -15 Y s 1519 123 m -15 Y s 1552 123 m -15 Y s 1586 138 m -30 Y s 1619 123 m -15 Y s 1653 123 m -15 Y s 1686 123 m -15 Y s 1720 123 m -15 Y s 1753 123 m -15 Y s 1787
 138 m -30 Y s 1820 123 m -15 Y s 1854 123 m -15 Y s 1887 123 m -15 Y s 1921 123 m -15 Y s 1954 123 m -15 Y s 1988 138 m -30 Y s 2021 123 m -15 Y s 2055 123 m -15 Y s 2088 123 m -15 Y s 2122 123 m -15 Y s 2155 123 m -15 Y s 2189 138 m -30 Y s 180 138
 m -30 Y s 2189 138 m -30 Y s 2222 123 m -15 Y s
 gsave  2268 1085 0 0 C 113.765 73.9473 t 0 r /Helvetica findfont 36.0256 sf 0 0 m (May\25531 ) show NC gr 
 gsave  2268 1085 0 0 C 318.542 73.9473 t 0 r /Helvetica findfont 36.0256 sf 0 0 m (Jun\25501 ) show NC gr 
 gsave  2268 1085 0 0 C 519.527 73.9473 t 0 r /Helvetica findfont 36.0256 sf 0 0 m (Jun\25501 ) show NC gr 
 gsave  2268 1085 0 0 C 720.512 73.9473 t 0 r /Helvetica findfont 36.0256 sf 0 0 m (Jun\25502 ) show NC gr 
 gsave  2268 1085 0 0 C 921.497 73.9473 t 0 r /Helvetica findfont 36.0256 sf 0 0 m (Jun\25502 ) show NC gr 
 gsave  2268 1085 0 0 C 1122.48 73.9473 t 0 r /Helvetica findfont 36.0256 sf 0 0 m (Jun\25503 ) show NC gr 
 gsave  2268 1085 0 0 C 1323.47 73.9473 t 0 r /Helvetica findfont 36.0256 sf 0 0 m (Jun\25503 ) show NC gr 
 gsave  2268 1085 0 0 C 1524.45 73.9473 t 0 r /Helvetica findfont 36.0256 sf 0 0 m (Jun\25504 ) show NC gr 
 gsave  2268 1085 0 0 C 1725.44 73.9473 t 0 r /Helvetica findfont 36.0256 sf 0 0 m (Jun\25504 ) show NC gr 
 gsave  2268 1085 0 0 C 1926.42 73.9473 t 0 r /Helvetica findfont 36.0256 sf 0 0 m (Jun\25505 ) show NC gr 
 gsave  2268 1085 0 0 C 2127.41 73.9473 t 0 r /Helvetica findfont 36.0256 sf 0 0 m (Jun\25505 ) show NC gr  159 108 m 868 Y s
 gsave  2268 1085 0 0 C 56.8825 466.437 t 90 r /Helvetica findfont 45.506 sf 0 0 m 
 501 470 458 445 420 394 384 372 346 336 321 295 268 256 230 215 190 177 152 137 111 86 48 22
(Temperature Variation [K]) K NC gr  177 108 m -18 X s 168 126 m -9 X s 168 143 m -9 X s 168 161 m -9 X s 168 178 m -9 X s 177 195 m -18 X s 168 213 m -9 X s 168 230 m -9 X s 168 247 m -9 X s 168 265 m -9 X s 177 282 m -18 X s 168 299 m -9 X s 168
 317 m -9 X s 168 334 m -9 X s 168 351 m -9 X s 177 369 m -18 X s 168 386 m -9 X s 168 403 m -9 X s 168 421 m -9 X s 168 438 m -9 X s 177 456 m -18 X s 168 473 m -9 X s 168 490 m -9 X s 168 508 m -9 X s 168 525 m -9 X s 177 542 m -18 X s 168 560 m -9
 X s 168 577 m -9 X s 168 594 m -9 X s 168 612 m -9 X s 177 629 m -18 X s 168 646 m -9 X s 168 664 m -9 X s 168 681 m -9 X s 168 698 m -9 X s 177 716 m -18 X s 168 733 m -9 X s 168 751 m -9 X s 168 768 m -9 X s 168 785 m -9 X s 177 803 m -18 X s 168
 820 m -9 X s 168 837 m -9 X s 168 855 m -9 X s 168 872 m -9 X s 177 889 m -18 X s 168 907 m -9 X s 168 924 m -9 X s 168 941 m -9 X s 168 959 m -9 X s 177 976 m -18 X s
 gsave  2268 1085 0 0 C 127.038 96.7003 t 0 r /Helvetica findfont 36.0256 sf 0 0 m (0) show NC gr 
 gsave  2268 1085 0 0 C 75.8434 182.024 t 0 r /Helvetica findfont 36.0256 sf 0 0 m (0.05) show NC gr 
 gsave  2268 1085 0 0 C 96.7003 269.244 t 0 r /Helvetica findfont 36.0256 sf 0 0 m (0.1) show NC gr 
 gsave  2268 1085 0 0 C 75.8434 356.464 t 0 r /Helvetica findfont 36.0256 sf 0 0 m (0.15) show NC gr 
 gsave  2268 1085 0 0 C 96.7003 443.684 t 0 r /Helvetica findfont 36.0256 sf 0 0 m (0.2) show NC gr 
 gsave  2268 1085 0 0 C 75.8434 529.007 t 0 r /Helvetica findfont 36.0256 sf 0 0 m (0.25) show NC gr 
 gsave  2268 1085 0 0 C 96.7003 616.227 t 0 r /Helvetica findfont 36.0256 sf 0 0 m (0.3) show NC gr 
 gsave  2268 1085 0 0 C 75.8434 703.447 t 0 r /Helvetica findfont 36.0256 sf 0 0 m (0.35) show NC gr 
 gsave  2268 1085 0 0 C 96.7003 790.667 t 0 r /Helvetica findfont 36.0256 sf 0 0 m (0.4) show NC gr 
 gsave  2268 1085 0 0 C 75.8434 877.887 t 0 r /Helvetica findfont 36.0256 sf 0 0 m (0.45) show NC gr 
 gsave  2268 1085 0 0 C 96.7003 963.211 t 0 r /Helvetica findfont 36.0256 sf 0 0 m (0.5) show NC gr  0.6 0 0 c black 0.6 0 0 c 220 195 1851 425 bf black 0.6 0 0 c 169 11 333 142 bf black 0.6 0 0 c 156 13 769 151 bf black 0.6 0 0 c 116 179 1468 404 bf
 black 0.6 0 0 c 133 14 1117 146 bf black 0.6 0 0 c 182 191 1264 418 bf black 0.6 0 0 c 220 195 1851 425 bf black 0.6 0 0 c 169 11 333 142 bf black 0.6 0 0 c 156 13 769 151 bf black 0.6 0 0 c 116 179 1468 404 bf black 0.6 0 0 c 133 14 1117 146 bf
 black 0.6 0 0 c 182 191 1264 418 bf black 0.6 0 0 c black 1 0.8 0.8 c 169 120 333 185 bf black 1 0.8 0.8 c 156 156 769 215 bf black 1 0.8 0.8 c 133 137 1117 200 bf black 1 0.8 0.8 c black 0.6 0 0 c 220 195 1851 425 bf black 0.6 0 0 c 169 11 333 142
 bf black 0.6 0 0 c 156 13 769 151 bf black 0.6 0 0 c 116 179 1468 404 bf black 0.6 0 0 c 133 14 1117 146 bf black 0.6 0 0 c 182 191 1264 418 bf black 0.6 0 0 c black
 gsave  2268 1085 0 0 C 1977.57 527.43 t 90 r /Helvetica-Bold findfont 39.8178 sf 0 0 m (267073) show NC gr 
 gsave  2268 1085 0 0 C 434.083 153.019 t 90 r /Helvetica-Bold findfont 39.8178 sf 0 0 m (266663) show NC gr 
 gsave  2268 1085 0 0 C 863.578 162.35 t 90 r /Helvetica-Bold findfont 39.8178 sf 0 0 m (266762) show NC gr 
 gsave  2268 1085 0 0 C 1542.63 498.549 t 90 r /Helvetica-Bold findfont 39.8178 sf 0 0 m (266919) show NC gr 
 gsave  2268 1085 0 0 C 1200.18 158.298 t 90 r /Helvetica-Bold findfont 39.8178 sf 0 0 m (266902) show NC gr 
 gsave  2268 1085 0 0 C 1371.58 519.141 t 90 r /Helvetica-Bold findfont 39.8178 sf 0 0 m (266904) show NC gr 
 gsave  2268 1085 0 0 C 1371.58 519.141 t 90 r /Helvetica-Bold findfont 39.8178 sf 0 0 m (266904) show NC gr 
 gsave  2268 1085 0 0 C 1518.76 868.406 t 0 r /Helvetica-BoldOblique findfont 70.1551 sf 0 0 m 
 183 132 89 46
(ATLAS) K NC gr 
 gsave  2268 1085 0 0 C 1755.77 868.406 t 0 r /Helvetica findfont 70.1551 sf 0 0 m (Internal) show NC gr 
 gsave  2268 1085 0 0 C 1518.76 868.406 t 0 r /Helvetica-BoldOblique findfont 70.1551 sf 0 0 m 
 183 132 89 46
(ATLAS) K NC gr 
 gsave  2268 1085 0 0 C 1755.77 868.406 t 0 r /Helvetica findfont 70.1551 sf 0 0 m (Internal) show NC gr 
 gsave  2268 1085 0 0 C 453.164 858.926 t 0 r /Helvetica findfont 30.3373 sf 0 0 m 
 492 475 468 460 443 426 419 409 401 385 379 362 353 333 308 286 278 261 251 234 225 208 198 181 165 139 122 107 99 82 76 59 42 25
(Module Temperature RMS distribution) K NC gr  0.6 0 0 c 261 830 m 159 X 76 Y -159 X f black 261 906 m 159 X s 261 830 m 159 X s 420 830 m 76 Y s 261 830 m 76 Y s
 gsave  2268 1085 0 0 C 453.164 750.849 t 0 r /Helvetica findfont 30.3373 sf 0 0 m 
 580 563 556 541 531 514 499 484 467 458 443 426 409 389 381 364 355 347 332 315 298 278 261 251 234 226 209 199 182 165 140 123 108 100 83 76 59 42 25
(Module TemperaturePeak to Peak excursion) K NC gr  1 0.8 0.8 c 261 721 m 159 X 76 Y -159 X f black 261 797 m 159 X s 261 721 m 159 X s 420 721 m 76 Y s 261 721 m 76 Y s
 gr  gr showpage
end
%%EOF
