%!PS-Adobe-2.0 EPSF-2.0
%%BoundingBox:  0 0 567 271
%%Title: ./c1.eps: c1
%%Creator: ROOT Version 5.34/20
%%CreationDate: Mon Mar 23 18:27:05 2015
%%EndComments
%%BeginProlog
80 dict begin
/s {stroke} def /l {lineto} def /m {moveto} def /t {translate} def
/r {rotate} def /rl {roll}  def /R {repeat} def
/d {rlineto} def /rm {rmoveto} def /gr {grestore} def /f {eofill} def
/c {setrgbcolor} def /black {0 setgray} def /sd {setdash} def
/cl {closepath} def /sf {scalefont setfont} def /lw {setlinewidth} def
/box {m dup 0 exch d exch 0 d 0 exch neg d cl} def
/NC{systemdict begin initclip end}def/C{NC box clip newpath}def
/bl {box s} def /bf {box f} def /Y { 0 exch d} def /X { 0 d} def 
/K {{pop pop 0 moveto} exch kshow} bind def
/ita {/ang 15 def gsave [1 0 ang dup sin exch cos div 1 0 0] concat} def 
/mp {newpath /y exch def /x exch def} def
/side {[w .77 mul w .23 mul] .385 w mul sd w 0 l currentpoint t -144 r} def
/mr {mp x y w2 0 360 arc} def /m24 {mr s} def /m20 {mr f} def
/mb {mp x y w2 add m w2 neg 0 d 0 w neg d w 0 d 0 w d cl} def
/mt {mp x y w2 add m w2 neg w neg d w 0 d cl} def
/m21 {mb f} def /m25 {mb s} def /m22 {mt f} def /m26{mt s} def
/m23 {mp x y w2 sub m w2 w d w neg 0 d cl f} def
/m27 {mp x y w2 add m w3 neg w2 neg d w3 w2 neg d w3 w2 d cl s} def
/m28 {mp x w2 sub y w2 sub w3 add m w3 0 d  0 w3 neg d w3 0 d 0 w3 d w3 0 d  0 w3 d w3 neg 0 d 0 w3 d w3 neg 0 d 0 w3 neg d w3 neg 0 d cl s } def
/m29 {mp gsave x w2 sub y w2 add w3 sub m currentpoint t 4 {side} repeat cl fill gr} def
/m30 {mp gsave x w2 sub y w2 add w3 sub m currentpoint t 4 {side} repeat cl s gr} def
/m31 {mp x y w2 sub m 0 w d x w2 sub y m w 0 d x w2 sub y w2 add m w w neg d x w2 sub y w2 sub m w w d s} def
/m32 {mp x y w2 sub m w2 w d w neg 0 d cl s} def
/m33 {mp x y w2 add m w3 neg w2 neg d w3 w2 neg d w3 w2 d cl f} def
/m34 {mp x w2 sub y w2 sub w3 add m w3 0 d  0 w3 neg d w3 0 d 0 w3 d w3 0 d  0 w3 d w3 neg 0 d 0 w3 d w3 neg 0 d 0 w3 neg d w3 neg 0 d cl f } def
/m2 {mp x y w2 sub m 0 w d x w2 sub y m w 0 d s} def
/m5 {mp x w2 sub y w2 sub m w w d x w2 sub y w2 add m w w neg d s} def
/reEncode {exch findfont dup length dict begin {1 index /FID eq  {pop pop} {def} ifelse } forall /Encoding exch def currentdict end dup /FontName get exch definefont pop } def [/Times-Bold /Times-Italic /Times-BoldItalic /Helvetica /Helvetica-Oblique
 /Helvetica-Bold /Helvetica-BoldOblique /Courier /Courier-Oblique /Courier-Bold /Courier-BoldOblique /Times-Roman /AvantGarde-Book /AvantGarde-BookOblique /AvantGarde-Demi /AvantGarde-DemiOblique /Bookman-Demi /Bookman-DemiItalic /Bookman-Light
 /Bookman-LightItalic /Helvetica-Narrow /Helvetica-Narrow-Bold /Helvetica-Narrow-BoldOblique /Helvetica-Narrow-Oblique /NewCenturySchlbk-Roman /NewCenturySchlbk-Bold /NewCenturySchlbk-BoldItalic /NewCenturySchlbk-Italic /Palatino-Bold
 /Palatino-BoldItalic /Palatino-Italic /Palatino-Roman ] {ISOLatin1Encoding reEncode } forall
%%EndProlog
%%BeginSetup
%%EndSetup
newpath  gsave  .25 .25 scale  gsave  0 0 t black[  ] 0 sd 3 lw 1 1 1 c 2268 1085 0 0 bf black 1 1 1 c 2222 521 23 553 bf black 1 1 1 c 1778 417 245 605 bf black 1778 417 245 605 bl 1 1 1 c 1778 417 245 605 bf black 1778 417 245 605 bl 245 605 m 1778
 X s[ 4 8] 0 sd 293 1022 m -417 Y s 412 1022 m -417 Y s 531 1022 m -417 Y s 650 1022 m -417 Y s 769 1022 m -417 Y s 888 1022 m -417 Y s 1007 1022 m -417 Y s 1126 1022 m -417 Y s 1244 1022 m -417 Y s 1363 1022 m -417 Y s 1482 1022 m -417 Y s 1601 1022
 m -417 Y s 1720 1022 m -417 Y s 1839 1022 m -417 Y s 1958 1022 m -417 Y s 293 1022 m -417 Y s 1958 1022 m -417 Y s[  ] 0 sd 245 605 m 417 Y s 245 605 m 1778 X s
 gsave  2222 521 23 553 C 1924.53 559.345 t 0 r /Helvetica findfont 22.7995 sf 0 0 m (UTC time) show NC gr  293 618 m -13 Y s 322 611 m -6 Y s 352 611 m -6 Y s 382 611 m -6 Y s 412 618 m -13 Y s 441 611 m -6 Y s 471 611 m -6 Y s 501 611 m -6 Y s 531
 618 m -13 Y s 560 611 m -6 Y s 590 611 m -6 Y s 620 611 m -6 Y s 650 618 m -13 Y s 679 611 m -6 Y s 709 611 m -6 Y s 739 611 m -6 Y s 769 618 m -13 Y s 798 611 m -6 Y s 828 611 m -6 Y s 858 611 m -6 Y s 888 618 m -13 Y s 917 611 m -6 Y s 947 611 m
 -6 Y s 977 611 m -6 Y s 1007 618 m -13 Y s 1036 611 m -6 Y s 1066 611 m -6 Y s 1096 611 m -6 Y s 1126 618 m -13 Y s 1155 611 m -6 Y s 1185 611 m -6 Y s 1215 611 m -6 Y s 1244 618 m -13 Y s 1274 611 m -6 Y s 1304 611 m -6 Y s 1334 611 m -6 Y s 1363
 618 m -13 Y s 1393 611 m -6 Y s 1423 611 m -6 Y s 1453 611 m -6 Y s 1482 618 m -13 Y s 1512 611 m -6 Y s 1542 611 m -6 Y s 1572 611 m -6 Y s 1601 618 m -13 Y s 1631 611 m -6 Y s 1661 611 m -6 Y s 1691 611 m -6 Y s 1720 618 m -13 Y s 1750 611 m -6 Y
 s 1780 611 m -6 Y s 1810 611 m -6 Y s 1839 618 m -13 Y s 1869 611 m -6 Y s 1899 611 m -6 Y s 1929 611 m -6 Y s 1958 618 m -13 Y s 293 618 m -13 Y s 263 611 m -6 Y s 1958 618 m -13 Y s 1988 611 m -6 Y s 2018 611 m -6 Y s
 gsave  2222 521 23 553 C 259.764 580.202 t 0 r /Helvetica findfont 26.5994 sf 0 0 m 
 50 37 29 15
(25/11) K NC gr 
 gsave  2222 521 23 553 C 379.217 580.202 t 0 r /Helvetica findfont 26.5994 sf 0 0 m 
 50 37 29 15
(26/11) K NC gr 
 gsave  2222 521 23 553 C 496.774 580.202 t 0 r /Helvetica findfont 26.5994 sf 0 0 m 
 50 37 29 15
(27/11) K NC gr 
 gsave  2222 521 23 553 C 616.227 580.202 t 0 r /Helvetica findfont 26.5994 sf 0 0 m 
 50 37 29 15
(28/11) K NC gr 
 gsave  2222 521 23 553 C 735.681 580.202 t 0 r /Helvetica findfont 26.5994 sf 0 0 m 
 50 37 29 15
(29/11) K NC gr 
 gsave  2222 521 23 553 C 855.134 580.202 t 0 r /Helvetica findfont 26.5994 sf 0 0 m 
 50 37 29 15
(30/11) K NC gr 
 gsave  2222 521 23 553 C 970.795 580.202 t 0 r /Helvetica findfont 26.5994 sf 0 0 m (01/12) show NC gr 
 gsave  2222 521 23 553 C 1090.25 580.202 t 0 r /Helvetica findfont 26.5994 sf 0 0 m (02/12) show NC gr 
 gsave  2222 521 23 553 C 1209.7 580.202 t 0 r /Helvetica findfont 26.5994 sf 0 0 m (03/12) show NC gr 
 gsave  2222 521 23 553 C 1329.15 580.202 t 0 r /Helvetica findfont 26.5994 sf 0 0 m (04/12) show NC gr 
 gsave  2222 521 23 553 C 1446.71 580.202 t 0 r /Helvetica findfont 26.5994 sf 0 0 m (05/12) show NC gr 
 gsave  2222 521 23 553 C 1566.17 580.202 t 0 r /Helvetica findfont 26.5994 sf 0 0 m (06/12) show NC gr 
 gsave  2222 521 23 553 C 1685.62 580.202 t 0 r /Helvetica findfont 26.5994 sf 0 0 m (07/12) show NC gr 
 gsave  2222 521 23 553 C 1805.07 580.202 t 0 r /Helvetica findfont 26.5994 sf 0 0 m (08/12) show NC gr 
 gsave  2222 521 23 553 C 1922.63 580.202 t 0 r /Helvetica findfont 26.5994 sf 0 0 m (09/12) show NC gr  245 605 m 417 Y s
 gsave  2222 521 23 553 C 155.479 857.03 t 90 r /Helvetica findfont 22.7995 sf 0 0 m 
 151 135 128 122 110 103 91 85 73 65 53 41 23 11
(Temperature \(C\)) K NC gr  263 661 m -18 X s 254 676 m -9 X s 254 691 m -9 X s 254 706 m -9 X s 254 721 m -9 X s 263 737 m -18 X s 254 752 m -9 X s 254 767 m -9 X s 254 782 m -9 X s 254 797 m -9 X s 263 813 m -18 X s 254 828 m -9 X s 254 843 m -9 X
 s 254 858 m -9 X s 254 873 m -9 X s 263 889 m -18 X s 254 904 m -9 X s 254 919 m -9 X s 254 934 m -9 X s 254 949 m -9 X s 263 965 m -18 X s 263 661 m -18 X s 254 645 m -9 X s 254 630 m -9 X s 254 615 m -9 X s 263 965 m -18 X s 254 980 m -9 X s 254
 995 m -9 X s 254 1010 m -9 X s
 gsave  2222 521 23 553 C 195.297 652.253 t 0 r /Helvetica findfont 26.5994 sf 0 0 m (\25520) show NC gr 
 gsave  2222 521 23 553 C 195.297 728.096 t 0 r /Helvetica findfont 26.5994 sf 0 0 m (\25515) show NC gr 
 gsave  2222 521 23 553 C 195.297 803.94 t 0 r /Helvetica findfont 26.5994 sf 0 0 m (\25510) show NC gr 
 gsave  2222 521 23 553 C 210.465 879.783 t 0 r /Helvetica findfont 26.5994 sf 0 0 m (\2555) show NC gr 
 gsave  2222 521 23 553 C 218.05 955.626 t 0 r /Helvetica findfont 26.5994 sf 0 0 m (0) show NC gr  1 0.8 0 c black 1 0.8 0 c 33 21 393 707 bf black 1 0.8 0 c 16 23 437 704 bf black 1 0.8 0 c 34 24 509 640 bf black 1 0.8 0 c 26 24 549 640 bf black 1
 0.8 0 c 69 23 628 705 bf black 1 0.8 0 c 6 22 733 703 bf black 1 0.8 0 c 98 22 741 702 bf black 1 0.8 0 c 88 22 846 702 bf black 1 0.8 0 c 8 22 938 702 bf black 1 0.8 0 c 105 23 948 701 bf black 1 0.8 0 c 6 22 1100 701 bf black 1 0.8 0 c 66 22 1107
 701 bf black 1 0.8 0 c 53 21 1233 701 bf black 1 0.8 0 c 7 20 1336 770 bf black 1 0.8 0 c 60 21 1347 701 bf black 1 0.8 0 c 68 26 1463 697 bf black 1 0.8 0 c 18 17 1582 970 bf black 1 0.8 0 c 46 17 1601 970 bf black 1 0.8 0 c 14 18 1659 969 bf black
 1 0.8 0 c 34 18 1680 969 bf black 1 0.8 0 c 44 18 1715 969 bf black 1 0.8 0 c 10 17 1767 967 bf black 1 0.8 0 c 16 17 1778 966 bf black 1 0.8 0 c 14 17 1817 967 bf black 1 0.8 0 c 34 17 1832 967 bf black 1 0.8 0 c 7 18 1868 966 bf black 402 718 m -9
 X s 393 714 m 8 Y s 417 718 m 9 X s 426 714 m 8 Y s 410 725 m 3 Y s 406 728 m 7 X s 410 710 m -3 Y s 406 707 m 7 X s 437 716 m s 437 712 m 8 Y s 452 716 m 1 X s 453 712 m 8 Y s 445 723 m 4 Y s 441 727 m 7 X s 445 708 m -4 Y s 441 704 m 7 X s 519 652
 m -10 X s 509 648 m 8 Y s 534 652 m 9 X s 543 648 m 8 Y s 526 660 m 4 Y s 523 664 m 7 X s 526 645 m -5 Y s 523 640 m 7 X s 554 652 m -5 X s 549 648 m 8 Y s 570 652 m 5 X s 575 648 m 8 Y s 562 659 m 5 Y s 558 664 m 8 X s 562 644 m -4 Y s 558 640 m 8
 X s 655 717 m -27 X s 628 713 m 7 Y s 670 717 m 27 X s 697 713 m 7 Y s 662 724 m 4 Y s 658 728 m 8 X s 662 709 m -4 Y s 658 705 m 8 X s 736 722 m 3 Y s 732 725 m 8 X s 736 706 m -3 Y s 732 703 m 8 X s 782 713 m -41 X s 741 710 m 7 Y s 798 713 m 41 X
 s 839 710 m 7 Y s 790 721 m 3 Y s 786 724 m 8 X s 790 706 m -4 Y s 786 702 m 8 X s 882 713 m -36 X s 846 709 m 8 Y s 897 713 m 37 X s 934 709 m 8 Y s 890 720 m 4 Y s 886 724 m 8 X s 890 705 m -3 Y s 886 702 m 8 X s 942 721 m 3 Y s 938 724 m 8 X s
 942 705 m -3 Y s 938 702 m 8 X s 993 712 m -45 X s 948 709 m 7 Y s 1008 712 m 45 X s 1053 709 m 7 Y s 1000 720 m 4 Y s 996 724 m 8 X s 1000 705 m -4 Y s 996 701 m 8 X s 1103 720 m 3 Y s 1099 723 m 8 X s 1103 705 m -4 Y s 1099 701 m 8 X s 1133 712 m
 -26 X s 1107 708 m 8 Y s 1148 712 m 25 X s 1173 708 m 8 Y s 1140 720 m 3 Y s 1136 723 m 8 X s 1140 705 m -4 Y s 1136 701 m 8 X s 1252 712 m -19 X s 1233 708 m 8 Y s 1267 712 m 19 X s 1286 708 m 8 Y s 1259 719 m 3 Y s 1255 722 m 8 X s 1259 704 m -3 Y
 s 1255 701 m 8 X s 1340 787 m 3 Y s 1336 790 m 7 X s 1340 772 m -2 Y s 1336 770 m 7 X s 1369 712 m -22 X s 1347 708 m 7 Y s 1385 712 m 22 X s 1407 708 m 7 Y s 1377 719 m 3 Y s 1373 722 m 8 X s 1377 704 m -3 Y s 1373 701 m 8 X s 1490 710 m -27 X s
 1463 706 m 7 Y s 1505 710 m 26 X s 1531 706 m 7 Y s 1497 717 m 6 Y s 1493 723 m 8 X s 1497 702 m -5 Y s 1493 697 m 8 X s 1583 978 m -1 X s 1582 975 m 7 Y s 1598 978 m 2 X s 1600 975 m 7 Y s 1591 986 m 1 Y s 1587 987 m 8 X s 1591 971 m -1 Y s 1587
 970 m 8 X s 1616 978 m -15 X s 1601 974 m 8 Y s 1632 978 m 15 X s 1647 974 m 8 Y s 1624 986 m 1 Y s 1620 987 m 8 X s 1624 971 m -1 Y s 1620 970 m 8 X s 1666 986 m 1 Y s 1662 987 m 8 X s 1666 971 m -2 Y s 1662 969 m 8 X s 1690 978 m -10 X s 1680 974
 m 8 Y s 1705 978 m 9 X s 1714 974 m 8 Y s 1697 986 m 1 Y s 1693 987 m 8 X s 1697 970 m -1 Y s 1693 969 m 8 X s 1729 978 m -14 X s 1715 974 m 8 Y s 1745 978 m 14 X s 1759 974 m 8 Y s 1737 986 m 1 Y s 1733 987 m 8 X s 1737 970 m -1 Y s 1733 969 m 8 X
 s 1772 983 m 1 Y s 1768 984 m 8 X s 1772 968 m -1 Y s 1768 967 m 8 X s 1779 975 m -1 X s 1778 971 m 7 Y s 1794 975 m s 1794 971 m 7 Y s 1786 982 m 1 Y s 1782 983 m 8 X s 1786 967 m -1 Y s 1782 966 m 8 X s 1824 983 m 1 Y s 1820 984 m 8 X s 1824 968 m
 -1 Y s 1820 967 m 8 X s 1841 975 m -9 X s 1832 971 m 8 Y s 1857 975 m 9 X s 1866 971 m 8 Y s 1849 983 m 1 Y s 1845 984 m 8 X s 1849 968 m -1 Y s 1845 967 m 8 X s 1871 983 m 1 Y s 1867 984 m 8 X s 1871 968 m -2 Y s 1867 966 m 8 X s 1 0.8 0 c black /w
 15 def /w2 {w 2 div} def /w3 {w 3 div} def 410 718 445 716 526 652 562 652 662 717 736 714 790 713 890 713 942 713 1000 712 1103 712 1140 712 1259 712 1340 780 1377 712 1497 710 1591 978 1624 978 1666 978 1697 978 1737 978 1772 975 1786 975 1824 975
 1849 975 1871 975 26 { m20} R
 gsave  2222 521 23 553 C 418.703 812.539 t 90 r /Helvetica-Bold findfont 22.7995 sf 0 0 m (246892) show NC gr 
 gsave  2222 521 23 553 C 453.632 812.539 t 90 r /Helvetica-Bold findfont 22.7995 sf 0 0 m (246913) show NC gr 
 gsave  2222 521 23 553 C 535.513 812.539 t 90 r /Helvetica-Bold findfont 22.7995 sf 0 0 m (247078) show NC gr 
 gsave  2222 521 23 553 C 571.154 812.539 t 90 r /Helvetica-Bold findfont 22.7995 sf 0 0 m (247080) show NC gr 
 gsave  2222 521 23 553 C 671.271 812.539 t 90 r /Helvetica-Bold findfont 22.7995 sf 0 0 m (247236) show NC gr 
 gsave  2222 521 23 553 C 745.249 812.539 t 90 r /Helvetica-Bold findfont 22.7995 sf 0 0 m (247359) show NC gr 
 gsave  2222 521 23 553 C 799.019 812.539 t 90 r /Helvetica-Bold findfont 22.7995 sf 0 0 m (247368) show NC gr 
 gsave  2222 521 23 553 C 898.904 812.539 t 90 r /Helvetica-Bold findfont 22.7995 sf 0 0 m (247390) show NC gr 
 gsave  2222 521 23 553 C 950.86 812.539 t 90 r /Helvetica-Bold findfont 22.7995 sf 0 0 m (247393) show NC gr 
 gsave  2222 521 23 553 C 1009.25 812.539 t 90 r /Helvetica-Bold findfont 22.7995 sf 0 0 m (247396) show NC gr 
 gsave  2222 521 23 553 C 1111.82 812.539 t 90 r /Helvetica-Bold findfont 22.7995 sf 0 0 m (247547) show NC gr 
 gsave  2222 521 23 553 C 1149.39 812.539 t 90 r /Helvetica-Bold findfont 22.7995 sf 0 0 m (247548) show NC gr 
 gsave  2222 521 23 553 C 1268.31 812.539 t 90 r /Helvetica-Bold findfont 22.7995 sf 0 0 m (247688) show NC gr 
 gsave  2222 521 23 553 C 1348.68 812.539 t 90 r /Helvetica-Bold findfont 22.7995 sf 0 0 m (247894) show NC gr 
 gsave  2222 521 23 553 C 1386.12 812.539 t 90 r /Helvetica-Bold findfont 22.7995 sf 0 0 m (247906) show NC gr 
 gsave  2222 521 23 553 C 1506.29 812.539 t 90 r /Helvetica-Bold findfont 22.7995 sf 0 0 m 
 59 47 36 24 12
(248115) K NC gr 
 gsave  2222 521 23 553 C 1599.85 812.539 t 90 r /Helvetica-Bold findfont 22.7995 sf 0 0 m (248273) show NC gr 
 gsave  2222 521 23 553 C 1633.16 812.539 t 90 r /Helvetica-Bold findfont 22.7995 sf 0 0 m (248276) show NC gr 
 gsave  2222 521 23 553 C 1675.15 812.539 t 90 r /Helvetica-Bold findfont 22.7995 sf 0 0 m (248296) show NC gr 
 gsave  2222 521 23 553 C 1706.25 812.539 t 90 r /Helvetica-Bold findfont 22.7995 sf 0 0 m (248324) show NC gr 
 gsave  2222 521 23 553 C 1746.04 812.539 t 90 r /Helvetica-Bold findfont 22.7995 sf 0 0 m (248326) show NC gr 
 gsave  2222 521 23 553 C 1781 812.539 t 90 r /Helvetica-Bold findfont 22.7995 sf 0 0 m (248337) show NC gr 
 gsave  2222 521 23 553 C 1795.31 812.539 t 90 r /Helvetica-Bold findfont 22.7995 sf 0 0 m (248347) show NC gr 
 gsave  2222 521 23 553 C 1833.14 812.539 t 90 r /Helvetica-Bold findfont 22.7995 sf 0 0 m (248370) show NC gr 
 gsave  2222 521 23 553 C 1858.09 812.539 t 90 r /Helvetica-Bold findfont 22.7995 sf 0 0 m (248371) show NC gr 
 gsave  2222 521 23 553 C 1880.26 812.539 t 90 r /Helvetica-Bold findfont 22.7995 sf 0 0 m (248373) show NC gr 
 gsave  2222 521 23 553 C 1880.26 812.539 t 90 r /Helvetica-Bold findfont 22.7995 sf 0 0 m (248373) show NC gr  1 1 1 c black
 gsave  2222 521 23 553 C 1020.09 1050.43 t 0 r /Helvetica findfont 22.7995 sf 0 0 m 
 220 207 199 186 179 166 158 145 132 113 100 93 87 74 61 48 40 27 15
(Average temperatures) K NC gr  1 1 1 c 2222 520 23 11 bf black 1 1 1 c 1778 416 245 63 bf black 1778 416 245 63 bl 1 1 1 c 1778 416 245 63 bf black 1778 416 245 63 bl 245 63 m 1778 X s[ 4 8] 0 sd 293 479 m -416 Y s 412 479 m -416 Y s 531 479 m -416
 Y s 650 479 m -416 Y s 769 479 m -416 Y s 888 479 m -416 Y s 1007 479 m -416 Y s 1126 479 m -416 Y s 1244 479 m -416 Y s 1363 479 m -416 Y s 1482 479 m -416 Y s 1601 479 m -416 Y s 1720 479 m -416 Y s 1839 479 m -416 Y s 1958 479 m -416 Y s 293 479
 m -416 Y s 1958 479 m -416 Y s[  ] 0 sd 245 63 m 416 Y s 245 63 m 1778 X s
 gsave  2222 520 23 11 C 1924.53 17.0648 t 0 r /Helvetica findfont 22.7995 sf 0 0 m (UTC time) show NC gr  293 75 m -12 Y s 322 69 m -6 Y s 352 69 m -6 Y s 382 69 m -6 Y s 412 75 m -12 Y s 441 69 m -6 Y s 471 69 m -6 Y s 501 69 m -6 Y s 531 75 m -12
 Y s 560 69 m -6 Y s 590 69 m -6 Y s 620 69 m -6 Y s 650 75 m -12 Y s 679 69 m -6 Y s 709 69 m -6 Y s 739 69 m -6 Y s 769 75 m -12 Y s 798 69 m -6 Y s 828 69 m -6 Y s 858 69 m -6 Y s 888 75 m -12 Y s 917 69 m -6 Y s 947 69 m -6 Y s 977 69 m -6 Y s
 1007 75 m -12 Y s 1036 69 m -6 Y s 1066 69 m -6 Y s 1096 69 m -6 Y s 1126 75 m -12 Y s 1155 69 m -6 Y s 1185 69 m -6 Y s 1215 69 m -6 Y s 1244 75 m -12 Y s 1274 69 m -6 Y s 1304 69 m -6 Y s 1334 69 m -6 Y s 1363 75 m -12 Y s 1393 69 m -6 Y s 1423 69
 m -6 Y s 1453 69 m -6 Y s 1482 75 m -12 Y s 1512 69 m -6 Y s 1542 69 m -6 Y s 1572 69 m -6 Y s 1601 75 m -12 Y s 1631 69 m -6 Y s 1661 69 m -6 Y s 1691 69 m -6 Y s 1720 75 m -12 Y s 1750 69 m -6 Y s 1780 69 m -6 Y s 1810 69 m -6 Y s 1839 75 m -12 Y
 s 1869 69 m -6 Y s 1899 69 m -6 Y s 1929 69 m -6 Y s 1958 75 m -12 Y s 293 75 m -12 Y s 263 69 m -6 Y s 1958 75 m -12 Y s 1988 69 m -6 Y s 2018 69 m -6 Y s
 gsave  2222 520 23 11 C 259.764 37.9217 t 0 r /Helvetica findfont 26.5994 sf 0 0 m 
 50 37 29 15
(25/11) K NC gr 
 gsave  2222 520 23 11 C 379.217 37.9217 t 0 r /Helvetica findfont 26.5994 sf 0 0 m 
 50 37 29 15
(26/11) K NC gr 
 gsave  2222 520 23 11 C 496.774 37.9217 t 0 r /Helvetica findfont 26.5994 sf 0 0 m 
 50 37 29 15
(27/11) K NC gr 
 gsave  2222 520 23 11 C 616.227 37.9217 t 0 r /Helvetica findfont 26.5994 sf 0 0 m 
 50 37 29 15
(28/11) K NC gr 
 gsave  2222 520 23 11 C 735.681 37.9217 t 0 r /Helvetica findfont 26.5994 sf 0 0 m 
 50 37 29 15
(29/11) K NC gr 
 gsave  2222 520 23 11 C 855.134 37.9217 t 0 r /Helvetica findfont 26.5994 sf 0 0 m 
 50 37 29 15
(30/11) K NC gr 
 gsave  2222 520 23 11 C 970.795 37.9217 t 0 r /Helvetica findfont 26.5994 sf 0 0 m (01/12) show NC gr 
 gsave  2222 520 23 11 C 1090.25 37.9217 t 0 r /Helvetica findfont 26.5994 sf 0 0 m (02/12) show NC gr 
 gsave  2222 520 23 11 C 1209.7 37.9217 t 0 r /Helvetica findfont 26.5994 sf 0 0 m (03/12) show NC gr 
 gsave  2222 520 23 11 C 1329.15 37.9217 t 0 r /Helvetica findfont 26.5994 sf 0 0 m (04/12) show NC gr 
 gsave  2222 520 23 11 C 1446.71 37.9217 t 0 r /Helvetica findfont 26.5994 sf 0 0 m (05/12) show NC gr 
 gsave  2222 520 23 11 C 1566.17 37.9217 t 0 r /Helvetica findfont 26.5994 sf 0 0 m (06/12) show NC gr 
 gsave  2222 520 23 11 C 1685.62 37.9217 t 0 r /Helvetica findfont 26.5994 sf 0 0 m (07/12) show NC gr 
 gsave  2222 520 23 11 C 1805.07 37.9217 t 0 r /Helvetica findfont 26.5994 sf 0 0 m (08/12) show NC gr 
 gsave  2222 520 23 11 C 1922.63 37.9217 t 0 r /Helvetica findfont 26.5994 sf 0 0 m (09/12) show NC gr  245 63 m 416 Y s
 gsave  2222 520 23 11 C 153.583 248.387 t 90 r /Helvetica findfont 22.7995 sf 0 0 m (Module Mean RMS \(C\)) show NC gr  263 63 m -18 X s 254 71 m -9 X s 254 80 m -9 X s 254 88 m -9 X s 254 96 m -9 X s 263 105 m -18 X s 254 113 m -9 X s 254 121 m -9
 X s 254 130 m -9 X s 254 138 m -9 X s 263 146 m -18 X s 254 155 m -9 X s 254 163 m -9 X s 254 171 m -9 X s 254 180 m -9 X s 263 188 m -18 X s 254 196 m -9 X s 254 205 m -9 X s 254 213 m -9 X s 254 221 m -9 X s 263 229 m -18 X s 254 238 m -9 X s 254
 246 m -9 X s 254 254 m -9 X s 254 263 m -9 X s 263 271 m -18 X s 254 279 m -9 X s 254 288 m -9 X s 254 296 m -9 X s 254 304 m -9 X s 263 313 m -18 X s 254 321 m -9 X s 254 329 m -9 X s 254 338 m -9 X s 254 346 m -9 X s 263 354 m -18 X s 254 363 m -9
 X s 254 371 m -9 X s 254 379 m -9 X s 254 388 m -9 X s 263 396 m -18 X s 254 404 m -9 X s 254 413 m -9 X s 254 421 m -9 X s 254 429 m -9 X s 263 438 m -18 X s 254 446 m -9 X s 254 454 m -9 X s 254 463 m -9 X s 254 471 m -9 X s 263 479 m -18 X s
 gsave  2222 520 23 11 C 218.05 54.9864 t 0 r /Helvetica findfont 26.5994 sf 0 0 m (0) show NC gr 
 gsave  2222 520 23 11 C 182.024 96.7003 t 0 r /Helvetica findfont 26.5994 sf 0 0 m (0.01) show NC gr 
 gsave  2222 520 23 11 C 182.024 138.414 t 0 r /Helvetica findfont 26.5994 sf 0 0 m (0.02) show NC gr 
 gsave  2222 520 23 11 C 182.024 180.128 t 0 r /Helvetica findfont 26.5994 sf 0 0 m (0.03) show NC gr 
 gsave  2222 520 23 11 C 182.024 221.842 t 0 r /Helvetica findfont 26.5994 sf 0 0 m (0.04) show NC gr 
 gsave  2222 520 23 11 C 182.024 261.66 t 0 r /Helvetica findfont 26.5994 sf 0 0 m (0.05) show NC gr 
 gsave  2222 520 23 11 C 182.024 303.373 t 0 r /Helvetica findfont 26.5994 sf 0 0 m (0.06) show NC gr 
 gsave  2222 520 23 11 C 182.024 345.087 t 0 r /Helvetica findfont 26.5994 sf 0 0 m (0.07) show NC gr 
 gsave  2222 520 23 11 C 182.024 386.801 t 0 r /Helvetica findfont 26.5994 sf 0 0 m (0.08) show NC gr 
 gsave  2222 520 23 11 C 182.024 428.515 t 0 r /Helvetica findfont 26.5994 sf 0 0 m (0.09) show NC gr 
 gsave  2222 520 23 11 C 197.193 470.229 t 0 r /Helvetica findfont 26.5994 sf 0 0 m (0.1) show NC gr  1 0.8 0 c black 1 0.8 0 c 16 132 437 122 bf black 1 0.8 0 c 34 193 509 121 bf black 1 0.8 0 c 26 85 549 149 bf black 1 0.8 0 c 69 376 628 103 bf
 black 1 0.8 0 c 6 113 733 63 bf black 1 0.8 0 c 98 96 741 160 bf black 1 0.8 0 c 88 61 846 157 bf black 1 0.8 0 c 8 30 938 63 bf black 1 0.8 0 c 105 52 948 174 bf black 1 0.8 0 c 6 66 1100 63 bf black 1 0.8 0 c 66 43 1107 153 bf black 1 0.8 0 c 53
 60 1233 158 bf black 1 0.8 0 c 7 0 1336 63 bf black 1 0.8 0 c 60 52 1347 150 bf black 1 0.8 0 c 68 100 1463 143 bf black 1 0.8 0 c 18 35 1582 88 bf black 1 0.8 0 c 46 26 1601 105 bf black 1 0.8 0 c 14 43 1659 85 bf black 1 0.8 0 c 34 115 1680 66 bf
 black 1 0.8 0 c 44 25 1715 103 bf black 1 0.8 0 c 10 62 1767 81 bf black 1 0.8 0 c 16 409 1778 70 bf black 1 0.8 0 c 14 41 1817 80 bf black 1 0.8 0 c 34 26 1832 101 bf black 1 0.8 0 c 7 20 1868 63 bf black 440 188 m -3 X s 437 184 m 8 Y s 449 188 m
 4 X s 453 184 m 8 Y s 445 196 m 58 Y s 441 254 m 7 X s 445 181 m -59 Y s 441 122 m 7 X s 522 218 m -13 X s 509 214 m 7 Y s 531 218 m 12 X s 543 214 m 7 Y s 526 225 m 89 Y s 523 314 m 7 X s 526 210 m -89 Y s 523 121 m 7 X s 558 192 m -9 X s 549 188 m
 8 Y s 567 192 m 8 X s 575 188 m 8 Y s 562 199 m 35 Y s 558 234 m 8 X s 562 184 m -35 Y s 558 149 m 8 X s 658 462 m -30 X s 628 458 m 8 Y s 667 462 m 30 X s 697 458 m 8 Y s 662 469 m 10 Y s 658 479 m 8 X s 662 454 m -351 Y s 658 103 m 8 X s 736 124 m
 52 Y s 732 176 m 8 X s 736 109 m -46 Y s 732 63 m 8 X s 785 208 m -44 X s 741 204 m 8 Y s 794 208 m 45 X s 839 204 m 8 Y s 790 216 m 40 Y s 786 256 m 8 X s 790 201 m -41 Y s 786 160 m 8 X s 885 187 m -39 X s 846 183 m 8 Y s 894 187 m 40 X s 934 183
 m 8 Y s 890 195 m 23 Y s 886 218 m 8 X s 890 180 m -23 Y s 886 157 m 8 X s 942 76 m 17 Y s 938 93 m 8 X s 996 200 m -48 X s 948 196 m 8 Y s 1005 200 m 48 X s 1053 196 m 8 Y s 1000 208 m 18 Y s 996 226 m 8 X s 1000 192 m -18 Y s 996 174 m 8 X s 1103
 89 m 40 Y s 1099 129 m 8 X s 1103 74 m -11 Y s 1099 63 m 8 X s 1136 174 m -29 X s 1107 171 m 7 Y s 1145 174 m 28 X s 1173 171 m 7 Y s 1140 182 m 14 Y s 1136 196 m 8 X s 1140 167 m -14 Y s 1136 153 m 8 X s 1255 188 m -22 X s 1233 184 m 8 Y s 1264 188
 m 22 X s 1286 184 m 8 Y s 1259 195 m 23 Y s 1255 218 m 8 X s 1259 180 m -22 Y s 1255 158 m 8 X s 1372 176 m -25 X s 1347 172 m 8 Y s 1382 176 m 25 X s 1407 172 m 8 Y s 1377 184 m 18 Y s 1373 202 m 8 X s 1377 169 m -19 Y s 1373 150 m 8 X s 1493 193 m
 -30 X s 1463 190 m 7 Y s 1502 193 m 29 X s 1531 190 m 7 Y s 1497 201 m 42 Y s 1493 243 m 8 X s 1497 186 m -43 Y s 1493 143 m 8 X s 1586 106 m -4 X s 1582 102 m 8 Y s 1595 106 m 5 X s 1600 102 m 8 Y s 1591 113 m 10 Y s 1587 123 m 8 X s 1591 98 m -10
 Y s 1587 88 m 8 X s 1620 118 m -19 X s 1601 114 m 8 Y s 1629 118 m 18 X s 1647 114 m 8 Y s 1624 126 m 5 Y s 1620 131 m 8 X s 1624 110 m -5 Y s 1620 105 m 8 X s 1661 106 m -2 X s 1659 103 m 7 Y s 1671 106 m 2 X s 1673 103 m 7 Y s 1666 114 m 14 Y s
 1662 128 m 8 X s 1666 99 m -14 Y s 1662 85 m 8 X s 1693 123 m -13 X s 1680 119 m 8 Y s 1702 123 m 12 X s 1714 119 m 8 Y s 1697 131 m 50 Y s 1693 181 m 8 X s 1697 116 m -50 Y s 1693 66 m 8 X s 1732 115 m -17 X s 1715 112 m 7 Y s 1741 115 m 18 X s
 1759 112 m 7 Y s 1737 123 m 5 Y s 1733 128 m 8 X s 1737 108 m -5 Y s 1733 103 m 8 X s 1767 112 m s 1767 108 m 8 Y s 1776 112 m 1 X s 1777 108 m 8 Y s 1772 119 m 24 Y s 1768 143 m 8 X s 1772 104 m -23 Y s 1768 81 m 8 X s 1782 322 m -4 X s 1778 319 m
 7 Y s 1791 322 m 3 X s 1794 319 m 7 Y s 1786 330 m 149 Y s 1782 479 m 8 X s 1786 315 m -245 Y s 1782 70 m 8 X s 1819 101 m -2 X s 1817 97 m 7 Y s 1829 101 m 2 X s 1831 97 m 7 Y s 1824 108 m 13 Y s 1820 121 m 8 X s 1824 93 m -13 Y s 1820 80 m 8 X s
 1844 114 m -12 X s 1832 110 m 7 Y s 1854 114 m 12 X s 1866 110 m 7 Y s 1849 121 m 6 Y s 1845 127 m 8 X s 1849 106 m -5 Y s 1845 101 m 8 X s 1871 76 m 7 Y s 1867 83 m 8 X s 1 0.8 0 c black 445 188 526 218 562 192 662 462 736 117 790 208 890 187 942
 68 1000 200 1103 82 1140 174 1259 188 1340 63 1377 176 1497 193 1591 106 1624 118 1666 106 1697 123 1737 115 1772 112 1786 322 1824 101 1849 114 1871 68 25 { m22} R 1 1 1 c black
 gsave  2222 520 23 11 C 1063.7 508.151 t 0 r /Helvetica findfont 22.7995 sf 0 0 m 
 130 110 93 87 74 61 48 40 27 15
(Average RMS) K NC gr 
 gr  gr showpage
end
%%EOF
