%!PS-Adobe-2.0 EPSF-2.0
%%BoundingBox:  0 0 567 166
%%Title: canvas.eps: c1
%%Creator: ROOT Version 5.34/28
%%CreationDate: Sun May 17 11:56:26 2015
%%EndComments
%%BeginProlog
80 dict begin
/s {stroke} def /l {lineto} def /m {moveto} def /t {translate} def
/r {rotate} def /rl {roll}  def /R {repeat} def
/d {rlineto} def /rm {rmoveto} def /gr {grestore} def /f {eofill} def
/c {setrgbcolor} def /black {0 setgray} def /sd {setdash} def
/cl {closepath} def /sf {scalefont setfont} def /lw {setlinewidth} def
/box {m dup 0 exch d exch 0 d 0 exch neg d cl} def
/NC{systemdict begin initclip end}def/C{NC box clip newpath}def
/bl {box s} def /bf {gsave box gsave f grestore 1 lw [] 0 sd s grestore} def /Y { 0 exch d} def /X { 0 d} def 
/K {{pop pop 0 moveto} exch kshow} bind def
/ita {/ang 15 def gsave [1 0 ang dup sin exch cos div 1 0 0] concat} def 
/mp {newpath /y exch def /x exch def} def
/side {[w .77 mul w .23 mul] .385 w mul sd w 0 l currentpoint t -144 r} def
/mr {mp x y w2 0 360 arc} def /m24 {mr s} def /m20 {mr f} def
/mb {mp x y w2 add m w2 neg 0 d 0 w neg d w 0 d 0 w d cl} def
/mt {mp x y w2 add m w2 neg w neg d w 0 d cl} def
/m21 {mb f} def /m25 {mb s} def /m22 {mt f} def /m26{mt s} def
/m23 {mp x y w2 sub m w2 w d w neg 0 d cl f} def
/m27 {mp x y w2 add m w3 neg w2 neg d w3 w2 neg d w3 w2 d cl s} def
/m28 {mp x w2 sub y w2 sub w3 add m w3 0 d  0 w3 neg d w3 0 d 0 w3 d w3 0 d  0 w3 d w3 neg 0 d 0 w3 d w3 neg 0 d 0 w3 neg d w3 neg 0 d cl s } def
/m29 {mp gsave x w2 sub y w2 add w3 sub m currentpoint t 4 {side} repeat cl fill gr} def
/m30 {mp gsave x w2 sub y w2 add w3 sub m currentpoint t 4 {side} repeat cl s gr} def
/m31 {mp x y w2 sub m 0 w d x w2 sub y m w 0 d x w2 sub y w2 add m w w neg d x w2 sub y w2 sub m w w d s} def
/m32 {mp x y w2 sub m w2 w d w neg 0 d cl s} def
/m33 {mp x y w2 add m w3 neg w2 neg d w3 w2 neg d w3 w2 d cl f} def
/m34 {mp x w2 sub y w2 sub w3 add m w3 0 d  0 w3 neg d w3 0 d 0 w3 d w3 0 d  0 w3 d w3 neg 0 d 0 w3 d w3 neg 0 d 0 w3 neg d w3 neg 0 d cl f } def
/m2 {mp x y w2 sub m 0 w d x w2 sub y m w 0 d s} def
/m5 {mp x w2 sub y w2 sub m w w d x w2 sub y w2 add m w w neg d s} def
/reEncode {exch findfont dup length dict begin {1 index /FID eq  {pop pop} {def} ifelse } forall /Encoding exch def currentdict end dup /FontName get exch definefont pop } def [/Times-Bold /Times-Italic /Times-BoldItalic /Helvetica /Helvetica-Oblique
 /Helvetica-Bold /Helvetica-BoldOblique /Courier /Courier-Oblique /Courier-Bold /Courier-BoldOblique /Times-Roman /AvantGarde-Book /AvantGarde-BookOblique /AvantGarde-Demi /AvantGarde-DemiOblique /Bookman-Demi /Bookman-DemiItalic /Bookman-Light
 /Bookman-LightItalic /Helvetica-Narrow /Helvetica-Narrow-Bold /Helvetica-Narrow-BoldOblique /Helvetica-Narrow-Oblique /NewCenturySchlbk-Roman /NewCenturySchlbk-Bold /NewCenturySchlbk-BoldItalic /NewCenturySchlbk-Italic /Palatino-Bold
 /Palatino-BoldItalic /Palatino-Italic /Palatino-Roman ] {ISOLatin1Encoding reEncode } forall
%%EndProlog
%%BeginSetup
%%EndSetup
newpath  gsave  .25 .25 scale  gsave  0 0 t black[  ] 0 sd 3 lw 1 1 1 c 2268 663 0 0 bf black 1 1 1 c 1814 531 227 66 bf black 1814 531 227 66 bl 0 0 0.6 c 1 1 1 c black 0 0 0.6 c 227 66 m 1190 X 1 Y 11 X 13 Y 3 X 72 Y 4 X 398 Y 4 X 17 Y 3 X 5 Y 4 X
 -217 Y 4 X -201 Y 3 X -62 Y 4 X -17 Y 3 X -7 Y 8 X -2 Y 573 X s black 227 66 m 1814 X s 227 82 m -16 Y s 263 74 m -8 Y s 299 74 m -8 Y s 336 74 m -8 Y s 372 74 m -8 Y s 408 82 m -16 Y s 444 74 m -8 Y s 481 74 m -8 Y s 517 74 m -8 Y s 553 74 m -8 Y s
 590 82 m -16 Y s 626 74 m -8 Y s 662 74 m -8 Y s 698 74 m -8 Y s 735 74 m -8 Y s 771 82 m -16 Y s 807 74 m -8 Y s 844 74 m -8 Y s 880 74 m -8 Y s 916 74 m -8 Y s 952 82 m -16 Y s 989 74 m -8 Y s 1025 74 m -8 Y s 1061 74 m -8 Y s 1098 74 m -8 Y s
 1134 82 m -16 Y s 1170 74 m -8 Y s 1206 74 m -8 Y s 1243 74 m -8 Y s 1279 74 m -8 Y s 1315 82 m -16 Y s 1352 74 m -8 Y s 1388 74 m -8 Y s 1424 74 m -8 Y s 1460 74 m -8 Y s 1497 82 m -16 Y s 1533 74 m -8 Y s 1569 74 m -8 Y s 1606 74 m -8 Y s 1642 74
 m -8 Y s 1678 82 m -16 Y s 1714 74 m -8 Y s 1751 74 m -8 Y s 1787 74 m -8 Y s 1823 74 m -8 Y s 1860 82 m -16 Y s 1896 74 m -8 Y s 1932 74 m -8 Y s 1968 74 m -8 Y s 2005 74 m -8 Y s 2041 82 m -16 Y s
 gsave  2268 663 0 0 C 219.284 44.5699 t 0 r /Helvetica findfont 21.3936 sf 0 0 m (20) show NC gr 
 gsave  2268 663 0 0 C 208.587 44.5699 t 0 r /Symbol findfont 21.3936 sf 0 0 m (-) show NC gr 
 gsave  2268 663 0 0 C 399.346 44.5699 t 0 r /Helvetica findfont 21.3936 sf 0 0 m (19) show NC gr 
 gsave  2268 663 0 0 C 388.65 44.5699 t 0 r /Symbol findfont 21.3936 sf 0 0 m (-) show NC gr 
 gsave  2268 663 0 0 C 581.192 44.5699 t 0 r /Helvetica findfont 21.3936 sf 0 0 m (18) show NC gr 
 gsave  2268 663 0 0 C 570.495 44.5699 t 0 r /Symbol findfont 21.3936 sf 0 0 m (-) show NC gr 
 gsave  2268 663 0 0 C 763.037 44.5699 t 0 r /Helvetica findfont 21.3936 sf 0 0 m (17) show NC gr 
 gsave  2268 663 0 0 C 752.34 44.5699 t 0 r /Symbol findfont 21.3936 sf 0 0 m (-) show NC gr 
 gsave  2268 663 0 0 C 944.882 44.5699 t 0 r /Helvetica findfont 21.3936 sf 0 0 m (16) show NC gr 
 gsave  2268 663 0 0 C 934.185 44.5699 t 0 r /Symbol findfont 21.3936 sf 0 0 m (-) show NC gr 
 gsave  2268 663 0 0 C 1126.73 44.5699 t 0 r /Helvetica findfont 21.3936 sf 0 0 m (15) show NC gr 
 gsave  2268 663 0 0 C 1116.03 44.5699 t 0 r /Symbol findfont 21.3936 sf 0 0 m (-) show NC gr 
 gsave  2268 663 0 0 C 1306.79 44.5699 t 0 r /Helvetica findfont 21.3936 sf 0 0 m (14) show NC gr 
 gsave  2268 663 0 0 C 1296.09 44.5699 t 0 r /Symbol findfont 21.3936 sf 0 0 m (-) show NC gr 
 gsave  2268 663 0 0 C 1488.63 44.5699 t 0 r /Helvetica findfont 21.3936 sf 0 0 m (13) show NC gr 
 gsave  2268 663 0 0 C 1477.94 44.5699 t 0 r /Symbol findfont 21.3936 sf 0 0 m (-) show NC gr 
 gsave  2268 663 0 0 C 1670.48 44.5699 t 0 r /Helvetica findfont 21.3936 sf 0 0 m (12) show NC gr 
 gsave  2268 663 0 0 C 1659.78 44.5699 t 0 r /Symbol findfont 21.3936 sf 0 0 m (-) show NC gr 
 gsave  2268 663 0 0 C 1854.11 44.5699 t 0 r /Helvetica findfont 21.3936 sf 0 0 m 
 10
(11) K NC gr 
 gsave  2268 663 0 0 C 1841.63 44.5699 t 0 r /Symbol findfont 21.3936 sf 0 0 m (-) show NC gr 
 gsave  2268 663 0 0 C 2032.39 44.5699 t 0 r /Helvetica findfont 21.3936 sf 0 0 m (10) show NC gr 
 gsave  2268 663 0 0 C 2021.69 44.5699 t 0 r /Symbol findfont 21.3936 sf 0 0 m (-) show NC gr  227 66 m 531 Y s 281 66 m -54 X s 254 82 m -27 X s 254 98 m -27 X s 254 113 m -27 X s 254 129 m -27 X s 281 144 m -54 X s 254 160 m -27 X s 254 175 m -27 X
 s 254 191 m -27 X s 254 207 m -27 X s 281 222 m -54 X s 254 238 m -27 X s 254 253 m -27 X s 254 269 m -27 X s 254 285 m -27 X s 281 300 m -54 X s 254 316 m -27 X s 254 331 m -27 X s 254 347 m -27 X s 254 363 m -27 X s 281 378 m -54 X s 254 394 m -27
 X s 254 409 m -27 X s 254 425 m -27 X s 254 441 m -27 X s 281 456 m -54 X s 254 472 m -27 X s 254 487 m -27 X s 254 503 m -27 X s 254 519 m -27 X s 281 534 m -54 X s 281 534 m -54 X s 254 550 m -27 X s 254 565 m -27 X s 254 581 m -27 X s 254 597 m
 -27 X s
 gsave  2268 663 0 0 C 201.456 58.8323 t 0 r /Helvetica findfont 21.3936 sf 0 0 m (0) show NC gr 
 gsave  2268 663 0 0 C 178.28 135.492 t 0 r /Helvetica findfont 21.3936 sf 0 0 m (100) show NC gr 
 gsave  2268 663 0 0 C 178.28 213.936 t 0 r /Helvetica findfont 21.3936 sf 0 0 m (200) show NC gr 
 gsave  2268 663 0 0 C 178.28 292.379 t 0 r /Helvetica findfont 21.3936 sf 0 0 m (300) show NC gr 
 gsave  2268 663 0 0 C 178.28 370.822 t 0 r /Helvetica findfont 21.3936 sf 0 0 m (400) show NC gr 
 gsave  2268 663 0 0 C 178.28 447.482 t 0 r /Helvetica findfont 21.3936 sf 0 0 m (500) show NC gr 
 gsave  2268 663 0 0 C 178.28 525.925 t 0 r /Helvetica findfont 21.3936 sf 0 0 m (600) show NC gr  1 1 1 c black
 gsave  2268 663 0 0 C 1007.28 632.893 t 0 r /Helvetica findfont 28.5247 sf 0 0 m (stave_1_A__mod_1) show NC gr  1 1 1 c 453 106 1769 514 bf black 1769 514 m 453 X s 2222 514 m 106 Y s 2222 620 m -453 X s 1769 620 m -106 Y s 1 1 1 c black
 gsave  2268 663 0 0 C 1891.55 600.802 t 0 r /Helvetica findfont 23.1763 sf 0 0 m (stave_1_A__mod_1) show NC gr  1769 594 m 453 X s
 gsave  2268 663 0 0 C 1789.93 572.278 t 0 r /Helvetica findfont 23.1763 sf 0 0 m (Entries ) show NC gr 
 gsave  2268 663 0 0 C 2141.14 572.278 t 0 r /Helvetica findfont 23.1763 sf 0 0 m ( 2571) show NC gr 
 gsave  2268 663 0 0 C 1789.93 545.536 t 0 r /Helvetica findfont 23.1763 sf 0 0 m (Mean  ) show NC gr 
 gsave  2268 663 0 0 C 2153.62 545.536 t 0 r /Helvetica findfont 23.1763 sf 0 0 m (13.3) show NC gr 
 gsave  2268 663 0 0 C 2141.14 545.536 t 0 r /Symbol findfont 23.1763 sf 0 0 m (-) show NC gr 
 gsave  2268 663 0 0 C 2130.44 545.536 t 0 r /Helvetica findfont 23.1763 sf 0 0 m (  ) show NC gr 
 gsave  2268 663 0 0 C 1789.93 518.794 t 0 r /Helvetica findfont 23.1763 sf 0 0 m (RMS   ) show NC gr 
 gsave  2268 663 0 0 C 2109.05 518.794 t 0 r /Helvetica findfont 23.1763 sf 0 0 m ( 0.02712) show NC gr  0 0 0.6 c 1 1 1 c black 0 0 0.6 c 227 66 m 1190 X 2 Y 7 X 5 Y 4 X 52 Y 3 X 153 Y 4 X 319 Y s 1439 597 m -16 Y s 1439 581 m 3 X -158 Y 4 X -214 Y
 4 X -110 Y 3 X -26 Y 4 X -2 Y 3 X -4 Y 4 X -1 Y 577 X s 1 1 1 c black 0 0 0.6 c 227 66 m 1212 X 1 Y 3 X -1 Y 4 X 7 Y 4 X 35 Y 3 X 153 Y 4 X 336 Y s 1460 597 m -11 Y s 1460 586 m 4 X -121 Y 4 X -247 Y 3 X -113 Y 4 X -31 Y 4 X -5 Y 3 X -2 Y 4 X 1 Y 3
 X -2 Y 552 X s 1 1 1 c black 0 0 0.6 c 227 66 m 1310 X 1 Y 7 X 19 Y 3 X 169 Y 4 X 165 Y 4 X 161 Y 3 X -16 Y 4 X -92 Y 4 X -344 Y 3 X -49 Y 4 X -11 Y 4 X -1 Y 3 X -1 Y 4 X -1 Y 457 X s 1 1 1 c black 0 0 0.6 c 227 66 m 1219 X 1 Y 4 X -1 Y 3 X 2 Y 4 X
 11 Y 3 X 102 Y 4 X 189 Y 4 X 191 Y 3 X 3 Y 4 X -90 Y 4 X -350 Y 3 X -45 Y 4 X -8 Y 3 X -2 Y 4 X -1 Y 4 X -1 Y 3 X -1 Y 541 X s 1 1 1 c black 0 0 0.6 c 227 66 m 1262 X 4 Y 4 X 147 Y 4 X 202 Y 3 X 135 Y 4 X -1 Y 4 X -211 Y 3 X -173 Y 4 X -94 Y 3 X -5
 Y 4 X -3 Y 4 X -1 Y 515 X s 1 1 1 c black 0 0 0.6 c 227 66 m 1418 X 2 Y 4 X 1 Y 4 X 14 Y 3 X 269 Y 4 X 160 Y 4 X 85 Y s 1667 597 m -125 Y s 1667 472 m 4 X -187 Y 3 X -203 Y 4 X -9 Y 4 X -4 Y 3 X -2 Y 4 X -1 Y 4 X 1 Y 3 X -1 Y 345 X s 1 1 1 c black 0
 0 0.6 c 227 66 m 1230 X 1 Y 3 X 9 Y 4 X 67 Y 4 X 190 Y 3 X 221 Y 4 X 43 Y s 1479 597 m -273 Y s 1479 324 m 3 X -180 Y 4 X -66 Y 3 X -7 Y 4 X -2 Y 4 X -2 Y 3 X -1 Y 541 X s 1 1 1 c black 0 0 0.6 c 227 66 m 1371 X 1 Y 4 X 9 Y 4 X 40 Y 3 X 141 Y 4 X
 340 Y s 1620 597 m -93 Y s 1620 504 m 4 X -217 Y 3 X -158 Y 4 X -59 Y 4 X -1 Y 3 X -2 Y 7 X -1 Y 396 X s 1 1 1 c black 0 0 0.6 c 227 66 m 1353 X 2 Y 4 X 9 Y 3 X 55 Y 4 X 162 Y 4 X 303 Y s 1598 597 m -25 Y s 1598 572 m 4 X -138 Y 4 X -220 Y 3 X -112
 Y 4 X -29 Y 3 X -6 Y 4 X -1 Y 4 X 1 Y 3 X -1 Y 414 X s 1 1 1 c black 0 0 0.6 c 227 66 m 1437 X 2 Y 3 X 2 Y 4 X 89 Y 3 X 165 Y 4 X 175 Y 4 X 88 Y 3 X 10 Y s 1689 597 m -406 Y s 1689 191 m 4 X -99 Y 3 X -20 Y 4 X -2 Y 4 X -3 Y 3 X -1 Y 334 X s 1 1 1 c
 black 0 0 0.6 c 227 66 m 1393 X 1 Y 7 X 10 Y 4 X 60 Y 4 X 189 Y 3 X 142 Y 4 X 129 Y s 1645 597 m -181 Y s 1645 416 m 4 X -216 Y 4 X -110 Y 3 X -17 Y 4 X -5 Y 4 X -1 Y 3 X -1 Y 374 X s 1 1 1 c black 0 0 0.6 c 227 66 m 1353 X 1 Y 4 X 1 Y 3 X 1 Y 4 X
 25 Y 4 X 293 Y 3 X 137 Y 4 X 69 Y 4 X -161 Y 3 X -218 Y 4 X -120 Y 3 X -22 Y 4 X -2 Y 4 X -4 Y 3 X 1 Y 4 X -1 Y 410 X s 1 1 1 c black 0 0 0.6 c 227 66 m 1346 X 1 Y 4 X -1 Y 3 X 35 Y 4 X 152 Y 3 X 232 Y 4 X 82 Y 4 X 24 Y 3 X -396 Y 4 X -94 Y 4 X -26
 Y 3 X -5 Y 4 X -2 Y 7 X -2 Y 421 X s 1 1 1 c black 0 0 0.6 c 227 66 m 1339 X 2 Y 3 X 2 Y 4 X 35 Y 4 X 163 Y 3 X 329 Y s 1584 597 m -47 Y s 1584 550 m 3 X -201 Y 4 X -159 Y 4 X -88 Y 3 X -30 Y 4 X -3 Y 4 X -3 Y 435 X s 1 1 1 c black 0 0 0.6 c 227 66
 m 1444 X 2 Y 7 X 22 Y 4 X 140 Y 3 X 367 Y s 1689 597 m -12 Y s 1689 585 m 4 X -144 Y 3 X -194 Y 4 X -125 Y 4 X -51 Y 3 X -2 Y 4 X -2 Y 3 X -1 Y 8 X 1 Y 3 X -1 Y 316 X s 1 1 1 c black 0 0 0.6 c 227 66 m 1255 X 2 Y 4 X 4 Y 3 X 36 Y 4 X 305 Y 4 X 117 Y
 3 X 47 Y 4 X -86 Y 4 X -212 Y 3 X -144 Y 4 X -62 Y 3 X -4 Y 4 X -3 Y 4 X 1 Y 3 X -1 Y 512 X s 1 1 1 c black 0 0 0.6 c 227 66 m 1335 X 4 Y 4 X 42 Y 3 X 166 Y 4 X 166 Y 4 X 153 Y s 1584 597 m -364 Y s 1584 233 m 3 X -123 Y 4 X -40 Y 4 X 1 Y 3 X -4 Y 4
 X -1 Y 439 X s 1 1 1 c black 0 0 0.6 c 227 66 m 1277 X 2 Y 4 X 26 Y 3 X 248 Y 4 X 155 Y 3 X 87 Y 4 X -35 Y 4 X -198 Y 3 X -206 Y 4 X -72 Y 4 X -3 Y 3 X -4 Y 4 X 1 Y 3 X -1 Y 494 X s 1 1 1 c black 0 0 0.6 c 227 66 m 1335 X 1 Y 4 X 6 Y 3 X 39 Y 4 X
 134 Y 4 X 195 Y 3 X 156 Y s 1584 597 m -125 Y s 1584 472 m 3 X -204 Y 4 X -157 Y 4 X -35 Y 3 X -8 Y 4 X -1 Y 4 X -1 Y 435 X s 1 1 1 c black 0 0 0.6 c 227 66 m 1164 X 1 Y 4 X 3 Y 4 X -4 Y 3 X 21 Y 4 X 124 Y 4 X 226 Y 3 X 160 Y s 1420 597 m -359 Y s
 1420 238 m 4 X -133 Y 4 X -30 Y 3 X -2 Y 4 X -6 Y 4 X -1 Y 7 X 1 Y 4 X -1 Y 591 X s 1 1 1 c black 0 0 0.6 c 227 66 m 1226 X 1 Y 4 X 5 Y 3 X 28 Y 4 X 151 Y 4 X 233 Y 3 X 113 Y s 1479 597 m -429 Y s 1479 168 m 3 X -75 Y 4 X -20 Y 3 X -3 Y 4 X -3 Y 7 X
 -1 Y 541 X s 1 1 1 c black 0 0 0.6 c 227 66 m 1179 X 3 Y 4 X 21 Y 3 X 133 Y 4 X 374 Y s 1420 597 m -3 Y s 1420 594 m 4 X -181 Y 4 X -199 Y 3 X -112 Y 4 X -27 Y 4 X -5 Y 3 X -4 Y 4 X 1 Y 4 X -1 Y 591 X s 1 1 1 c black 0 0 0.6 c 227 66 m 1313 X 2 Y 4
 X 1 Y 3 X 112 Y 4 X 170 Y 4 X 212 Y 3 X 5 Y 4 X -81 Y 4 X -368 Y 3 X -36 Y 4 X -12 Y 4 X -2 Y 3 X -2 Y 4 X -1 Y 457 X s 1 1 1 c black 0 0 0.6 c 227 66 m 1487 X 17 Y 4 X 50 Y 4 X 157 Y 3 X 307 Y s 1729 597 m -23 Y s 1729 574 m 4 X -170 Y 3 X -197 Y 4
 X -106 Y 3 X -28 Y 4 X -5 Y 4 X -2 Y 290 X s 1 1 1 c black 0 0 0.6 c 227 66 m 1230 X 2 Y 3 X 11 Y 4 X 57 Y 4 X 181 Y 3 X 176 Y 4 X 104 Y s 1479 597 m -204 Y s 1479 393 m 3 X -207 Y 4 X -91 Y 3 X -22 Y 4 X -4 Y 4 X -2 Y 3 X -1 Y 541 X s 1 1 1 c black
 0 0 0.6 c 227 66 m 1201 X 1 Y 3 X 6 Y 4 X 80 Y 4 X 178 Y 3 X 191 Y 4 X 75 Y 4 X -126 Y 3 X -204 Y 4 X -146 Y 3 X -48 Y 4 X -6 Y 4 X 1 Y 3 X -2 Y 570 X s 1 1 1 c black 0 0 0.6 c 227 66 m 1193 X 3 Y 4 X 2 Y 4 X 37 Y 3 X 109 Y 4 X 380 Y s 1442 597 m
 -107 Y s 1442 490 m 4 X -219 Y 4 X -149 Y 3 X -47 Y 4 X -5 Y 3 X -4 Y 8 X 1 Y 3 X -1 Y 570 X s 1 1 1 c black 0 0 0.6 c 227 66 m 1342 X 1 Y 4 X 2 Y 4 X 1 Y 3 X 159 Y 4 X 189 Y 3 X 156 Y 4 X -62 Y 4 X -142 Y 3 X -266 Y 4 X -31 Y 4 X -2 Y 7 X -4 Y 3 X
 -1 Y 425 X s 1 1 1 c black 0 0 0.6 c 227 66 m 1426 X 1 Y 3 X 15 Y 4 X 55 Y 4 X 181 Y 3 X 212 Y 4 X 67 Y s 1674 597 m -291 Y s 1674 306 m 4 X -174 Y 4 X -55 Y 3 X -6 Y 4 X -4 Y 7 X -1 Y 345 X s 1 1 1 c black 0 0 0.6 c 227 66 m 1284 X 3 Y 4 X 4 Y 3 X
 20 Y 4 X 185 Y 4 X 229 Y 3 X 90 Y s 1533 597 m -218 Y s 1533 379 m 4 X -186 Y 3 X -101 Y 4 X -21 Y 3 X -2 Y 4 X -3 Y 490 X s 1 1 1 c black 0 0 0.6 c 227 66 m 1760 X 1 Y 3 X 4 Y 4 X 31 Y 3 X 109 Y 4 X 386 Y s 2008 597 m -43 Y s 2008 554 m 4 X -393 Y
 4 X -81 Y 3 X -9 Y 4 X -2 Y 3 X -2 Y 4 X -1 Y 11 X s 1 1 1 c black 0 0 0.6 c 227 66 m 1190 X 30 Y 3 X 111 Y 4 X 205 Y 4 X 185 Y s 1431 597 m -13 Y s 1431 584 m 4 X -87 Y 4 X -366 Y 3 X -52 Y 4 X -9 Y 4 X -2 Y 3 X -2 Y 588 X s 1 1 1 c black 0 0 0.6 c
 227 66 m 1328 X 13 Y 3 X 50 Y 4 X 410 Y 4 X 37 Y 3 X -26 Y 4 X -194 Y 4 X -189 Y 3 X -84 Y 4 X -14 Y 3 X -1 Y 4 X -2 Y 450 X s 1 1 1 c black 0 0 0.6 c 227 66 m 1208 X 23 Y 4 X 79 Y 3 X 208 Y 4 X 178 Y 4 X 37 Y 3 X -166 Y 4 X -204 Y 3 X -144 Y 4 X -7
 Y 4 X -3 Y 3 X -1 Y 4 X 1 Y 4 X -1 Y 562 X s 1 1 1 c black 0 0 0.6 c 227 66 m 1248 X 40 Y 4 X 110 Y 3 X 200 Y 4 X 156 Y 3 X -8 Y 4 X -120 Y 4 X -336 Y 3 X -33 Y 4 X -6 Y 4 X -3 Y 3 X 1 Y 4 X -1 Y 526 X s 1 1 1 c black 0 0 0.6 c 227 66 m 1447 X 2 Y 4
 X 15 Y 4 X 97 Y 3 X 417 Y s 1689 597 m -4 Y s 1689 593 m 4 X -145 Y 3 X -196 Y 4 X -139 Y 4 X -41 Y 3 X -3 Y 4 X -2 Y 3 X -1 Y 327 X s 1 1 1 c black 0 0 0.6 c 227 66 m 1186 X 17 Y 4 X 250 Y 3 X 190 Y 4 X 74 Y s 1428 597 m -142 Y s 1428 455 m 3 X
 -219 Y 4 X -122 Y 4 X -45 Y 3 X 2 Y 4 X -5 Y 4 X 1 Y 3 X -1 Y 588 X s 1 1 1 c black 0 0 0.6 c 227 66 m 1186 X 3 Y 4 X 130 Y 3 X 235 Y 4 X 152 Y 4 X -49 Y 3 X -205 Y 4 X -161 Y 4 X -96 Y 3 X -5 Y 4 X -3 Y 4 X -1 Y 3 X 1 Y 4 X -1 Y 584 X s 1 1 1 c
 black 0 0 0.6 c 227 66 m 1237 X 3 Y 4 X 26 Y 3 X 133 Y 4 X 369 Y s 1479 597 m -27 Y s 1479 570 m 3 X -176 Y 4 X -203 Y 3 X -97 Y 4 X -24 Y 4 X -4 Y 3 X 1 Y 4 X -1 Y 537 X s 1 1 1 c black 0 0 0.6 c 227 66 m 1451 X 10 Y 4 X 66 Y 3 X 392 Y 4 X 63 Y s
 1693 597 m -45 Y s 1693 552 m 3 X -182 Y 4 X -183 Y 4 X -114 Y 3 X -2 Y 4 X -2 Y 3 X -3 Y 327 X s 1 1 1 c black 0 0 0.6 c 227 66 m 1429 X 3 Y 4 X 66 Y 4 X 161 Y 3 X 213 Y 4 X 88 Y s 1674 597 m -236 Y s 1674 361 m 4 X -174 Y 4 X -103 Y 3 X -13 Y 4 X
 -5 Y 4 X 1 Y 3 X -1 Y 345 X s 1 1 1 c black 0 0 0.6 c 227 66 m 1418 X 2 Y 4 X 24 Y 4 X 161 Y 3 X 344 Y s 1660 597 m -33 Y s 1660 564 m 4 X -120 Y 3 X -189 Y 4 X -123 Y 3 X -62 Y 4 X -2 Y 4 X -1 Y 7 X -1 Y 352 X s 1 1 1 c black 0 0 0.6 c 227 66 m
 1440 X 8 Y 4 X 197 Y 3 X 185 Y 4 X 127 Y 4 X -71 Y 3 X -164 Y 4 X -253 Y 4 X -22 Y 3 X -4 Y 8 X -3 Y 337 X s 1 1 1 c black 0 0 0.6 c 227 66 m 1411 X 3 Y 4 X 65 Y 3 X 151 Y 4 X 223 Y 4 X 66 Y 3 X 5 Y 4 X -414 Y 4 X -85 Y 3 X -8 Y 4 X -4 Y 3 X -1 Y 4
 X -1 Y 363 X s 1 1 1 c black 0 0 0.6 c 227 66 m 1491 X 2 Y 4 X 8 Y 3 X 148 Y 4 X 164 Y 4 X 173 Y 3 X -60 Y 4 X -85 Y 3 X -280 Y 4 X -58 Y 4 X -9 Y 7 X -2 Y 4 X -1 Y 279 X s 1 1 1 c black 0 0 0.6 c 227 66 m 1455 X 10 Y 3 X 115 Y 4 X 200 Y 4 X 161 Y 3
 X -30 Y 4 X -82 Y 4 X -304 Y 3 X -49 Y 4 X -17 Y 3 X -4 Y 4 X 1 Y 7 X -1 Y 316 X s 1 1 1 c black 0 0 0.6 c 227 66 m 1433 X 5 Y 4 X 61 Y 3 X 217 Y 4 X 248 Y s 1674 597 m -90 Y s 1674 507 m 4 X -212 Y 4 X -151 Y 3 X -57 Y 4 X -18 Y 4 X -1 Y 3 X -2 Y
 345 X s 1 1 1 c black 0 0 0.6 c 227 66 m 1146 X 2 Y 4 X 8 Y 4 X 43 Y 3 X 145 Y 4 X 216 Y 3 X 106 Y 4 X 11 Y s 1399 597 m -375 Y s 1399 222 m 3 X -121 Y 4 X -27 Y 4 X -7 Y 3 X 2 Y 4 X -3 Y 624 X s 1 1 1 c black 0 0 0.6 c 227 66 m 1190 X 1 Y 3 X 2 Y 8
 X 50 Y 3 X 153 Y 4 X 325 Y s 1439 597 m -19 Y s 1439 578 m 3 X -146 Y 4 X -218 Y 4 X -119 Y 3 X -24 Y 4 X -1 Y 3 X -3 Y 4 X -1 Y 577 X s 1 1 1 c black 0 0 0.6 c 227 66 m 1233 X 4 Y 4 X 35 Y 4 X 155 Y 3 X 196 Y 4 X 141 Y s 1479 597 m -115 Y s 1479
 482 m 3 X -239 Y 4 X -124 Y 3 X -46 Y 4 X -2 Y 4 X -5 Y 3 X 1 Y 4 X -1 Y 537 X s 1 1 1 c black 0 0 0.6 c 227 66 m 1701 X 2 Y 4 X 6 Y 4 X 133 Y 3 X 199 Y 4 X 130 Y 4 X 61 Y s 1950 597 m -299 Y s 1950 298 m 4 X -161 Y 3 X -56 Y 4 X -12 Y 4 X -3 Y 3 X
 1 Y 4 X -1 Y 69 X s 1 1 1 c black 0 0 0.6 c 227 66 m 1150 X 1 Y 4 X 1 Y 3 X -1 Y 4 X 6 Y 3 X 46 Y 4 X 383 Y 4 X 85 Y 3 X -29 Y 4 X -184 Y 4 X -209 Y 3 X -69 Y 4 X -23 Y 3 X -7 Y 4 X 1 Y 4 X -1 Y 613 X s 1 1 1 c black 0 0 0.6 c 227 66 m 1193 X 1 Y 4
 X 1 Y 4 X 9 Y 3 X 78 Y 4 X 442 Y s 1439 597 m -7 Y s 1439 590 m 3 X -94 Y 4 X -211 Y 4 X -149 Y 3 X -56 Y 4 X -11 Y 3 X -3 Y 4 X 2 Y 4 X -2 Y 573 X s 1 1 1 c black 0 0 0.6 c 227 66 m 1172 X 1 Y 3 X -1 Y 4 X 7 Y 4 X 50 Y 3 X 218 Y 4 X 256 Y s 1420
 597 m -44 Y s 1420 553 m 4 X -194 Y 4 X -194 Y 3 X -79 Y 4 X -16 Y 4 X -1 Y 3 X -3 Y 4 X 2 Y 4 X -2 Y 591 X s 1 1 1 c black 0 0 0.6 c 227 66 m 1241 X 1 Y 7 X 7 Y 4 X 77 Y 3 X 188 Y 4 X 198 Y 3 X 58 Y 4 X -77 Y 4 X -366 Y 3 X -70 Y 4 X -11 Y 4 X -2 Y
 3 X -3 Y 530 X s 1 1 1 c black 0 0 0.6 c 227 66 m 1233 X 23 Y 4 X 90 Y 4 X 175 Y 3 X 168 Y 4 X 75 Y s 1479 597 m -200 Y s 1479 397 m 3 X -205 Y 4 X -103 Y 3 X -18 Y 4 X -2 Y 4 X -2 Y 3 X -1 Y 541 X s 1 1 1 c black 0 0 0.6 c 227 66 m 1172 X 1 Y 3 X
 11 Y 4 X 91 Y 4 X 174 Y 3 X 195 Y 4 X 59 Y s 1420 597 m -220 Y s 1420 377 m 4 X -195 Y 4 X -89 Y 3 X -24 Y 8 X -3 Y 602 X s 1 1 1 c black 0 0 0.6 c 227 66 m 1241 X 4 Y 3 X 52 Y 4 X 326 Y 4 X 92 Y 3 X 44 Y 4 X -115 Y 3 X -203 Y 4 X -148 Y 4 X -46 Y 3
 X -3 Y 4 X -3 Y 4 X 1 Y 3 X -1 Y 530 X s 1 1 1 c black 0 0 0.6 c 227 66 m 1364 X 3 Y 4 X 82 Y 3 X 145 Y 4 X 188 Y 4 X 84 Y 3 X -10 Y 4 X -161 Y 3 X -302 Y 4 X -20 Y 4 X -6 Y 3 X -2 Y 4 X -1 Y 410 X s 1 1 1 c black 0 0 0.6 c 227 66 m 1284 X 31 Y 4 X
 128 Y 3 X 205 Y 4 X 167 Y s 1529 597 m -112 Y s 1529 485 m 4 X -352 Y 4 X -54 Y 3 X -9 Y 4 X -2 Y 3 X -1 Y 8 X -1 Y 486 X s 1 1 1 c black 0 0 0.6 c 227 66 m 1252 X 10 Y 3 X 81 Y 4 X 208 Y 3 X 186 Y 4 X 46 Y s 1497 597 m -267 Y s 1497 330 m 3 X -176
 Y 4 X -72 Y 4 X -9 Y 3 X -7 Y 7 X 1 Y 4 X -1 Y 519 X s 1 1 1 c black 0 0 0.6 c 227 66 m 1291 X 4 Y 4 X 70 Y 4 X 187 Y 3 X 270 Y s 1533 597 m -18 Y s 1533 579 m 4 X -195 Y 3 X -178 Y 4 X -113 Y 3 X -20 Y 4 X -4 Y 4 X -2 Y 3 X -1 Y 483 X s 1 1 1 c
 black 0 0 0.6 c 227 66 m 1241 X 2 Y 3 X 5 Y 4 X 156 Y 4 X 187 Y 3 X 135 Y 4 X 13 Y 3 X -151 Y 4 X -183 Y 4 X -154 Y 3 X -6 Y 4 X -1 Y 4 X -3 Y 533 X s 1 1 1 c black 0 0 0.6 c 227 66 m 1433 X 9 Y 4 X 58 Y 3 X 240 Y 4 X 156 Y 3 X 68 Y s 1678 597 m -63
 Y s 1678 534 m 4 X -211 Y 3 X -208 Y 4 X -40 Y 4 X -6 Y 3 X -2 Y 4 X -1 Y 341 X s 1 1 1 c black 0 0 0.6 c 227 66 m 1284 X 1 Y 4 X 37 Y 3 X 139 Y 4 X 193 Y 4 X 161 Y s 1533 597 m -202 Y s 1533 395 m 4 X -258 Y 3 X -61 Y 4 X -7 Y 3 X -3 Y 4 X 2 Y 4 X
 -2 Y 486 X s 1 1 1 c black 0 0 0.6 c 227 66 m 1291 X 12 Y 4 X 58 Y 4 X 332 Y 3 X 129 Y s 1537 597 m -128 Y s 1537 469 m 3 X -207 Y 4 X -165 Y 3 X -26 Y 4 X -2 Y 4 X -3 Y 3 X 1 Y 4 X -1 Y 479 X s 1 1 1 c black 0 0 0.6 c 227 66 m 1302 X 1 Y 4 X 2 Y 4
 X 25 Y 3 X 142 Y 4 X 182 Y 3 X 179 Y s 1555 597 m -176 Y s 1555 421 m 3 X -215 Y 4 X -120 Y 4 X -17 Y 3 X -2 Y 4 X -1 Y 468 X s 1 1 1 c black 0 0 0.6 c 227 66 m 1335 X 9 Y 4 X 55 Y 3 X 162 Y 4 X 212 Y 4 X 93 Y s 1584 597 m -366 Y s 1584 231 m 3 X
 -126 Y 4 X -32 Y 4 X -3 Y 3 X -4 Y 4 X 1 Y 4 X -1 Y 435 X s 1 1 1 c black 0 0 0.6 c 227 66 m 1335 X 4 Y 4 X 22 Y 3 X 112 Y 4 X 200 Y 4 X 173 Y 3 X 20 Y s 1584 597 m -269 Y s 1584 328 m 3 X -177 Y 4 X -70 Y 4 X -9 Y 3 X -4 Y 4 X -2 Y 439 X s 1 1 1 c
 black 0 0 0.6 c 227 66 m 1317 X 1 Y 3 X 11 Y 4 X 61 Y 4 X 168 Y 3 X 186 Y 4 X 104 Y s 1566 597 m -188 Y s 1566 409 m 3 X -192 Y 4 X -118 Y 4 X -26 Y 3 X -4 Y 4 X -1 Y 3 X -2 Y 454 X s 1 1 1 c black 0 0 0.6 c 227 66 m 1230 X 1 Y 3 X 2 Y 4 X 30 Y 4 X
 113 Y 3 X 195 Y 4 X 190 Y s 1479 597 m -76 Y s 1479 521 m 3 X -188 Y 4 X -193 Y 3 X -55 Y 4 X -13 Y 4 X -4 Y 3 X -2 Y 4 X 1 Y 4 X -1 Y 533 X s 1 1 1 c black 0 0 0.6 c 227 66 m 1411 X 2 Y 4 X 20 Y 3 X 183 Y 4 X 188 Y 4 X 138 Y s 1656 597 m -7 Y s
 1656 590 m 4 X -142 Y 4 X -293 Y 3 X -65 Y 4 X -21 Y 3 X -1 Y 4 X -1 Y 4 X -1 Y 359 X s 1 1 1 c black 0 0 0.6 c 227 66 m 1335 X 10 Y 4 X 121 Y 3 X 226 Y 4 X 174 Y s 1580 597 m -160 Y s 1580 437 m 4 X -209 Y 3 X -144 Y 4 X -11 Y 4 X -7 Y 3 X 1 Y 4 X
 -1 Y 439 X s 1 1 1 c black 0 0 0.6 c 227 66 m 1397 X 3 Y 3 X 14 Y 4 X 180 Y 4 X 208 Y 3 X 126 Y s 1645 597 m -177 Y s 1645 420 m 4 X -277 Y 4 X -63 Y 3 X -11 Y 4 X -3 Y 7 X 1 Y 4 X -1 Y 370 X s 1 1 1 c black 0 0 0.6 c 227 66 m 1291 X 13 Y 4 X 82 Y 4
 X 300 Y 3 X 136 Y s 1537 597 m -147 Y s 1537 450 m 3 X -223 Y 4 X -140 Y 3 X -16 Y 4 X -2 Y 4 X -2 Y 3 X -1 Y 483 X s 1 1 1 c black 0 0 0.6 c 227 66 m 1270 X 1 Y 3 X 4 Y 4 X 66 Y 4 X 189 Y 3 X 271 Y s 1515 597 m -6 Y s 1515 591 m 3 X -198 Y 4 X -221
 Y 4 X -73 Y 3 X -27 Y 4 X -6 Y 4 X 1 Y 3 X -1 Y 501 X s 1 1 1 c black 0 0 0.6 c 227 66 m 1324 X 1 Y 4 X 23 Y 3 X 94 Y 4 X 413 Y s 1569 597 m -82 Y s 1569 515 m 4 X -220 Y 4 X -169 Y 3 X -46 Y 4 X -11 Y 3 X -2 Y 4 X -1 Y 4 X 1 Y 3 X -1 Y 443 X s 1 1
 1 c black 0 0 0.6 c 227 66 m 1480 X 1 Y 4 X 7 Y 3 X 55 Y 4 X 172 Y 4 X 217 Y 3 X 79 Y s 1729 597 m -213 Y s 1729 384 m 4 X -186 Y 3 X -100 Y 4 X -27 Y 3 X -2 Y 4 X -3 Y 294 X s 1 1 1 c black 0 0 0.6 c 227 66 m 1379 X 1 Y 3 X -1 Y 4 X 21 Y 3 X 112 Y
 4 X 198 Y 4 X 135 Y 3 X 65 Y s 1631 597 m -294 Y s 1631 303 m 4 X -174 Y 3 X -53 Y 4 X -4 Y 3 X -4 Y 4 X -2 Y 392 X s 1 1 1 c black 0 0 0.6 c 227 66 m 1404 X 32 Y 4 X 98 Y 3 X 303 Y 4 X 98 Y s 1649 597 m -190 Y s 1649 407 m 4 X -194 Y 3 X -123 Y 4 X
 -22 Y 4 X 1 Y 3 X -3 Y 374 X s 1 1 1 c black 0 0 0.6 c 227 66 m 1462 X 3 Y 4 X 30 Y 3 X 71 Y 4 X 278 Y 4 X 138 Y 3 X 11 Y s 1711 597 m -177 Y s 1711 420 m 3 X -170 Y 4 X -145 Y 4 X -31 Y 3 X -7 Y 8 X -1 Y 3 X 1 Y 4 X -1 Y 301 X s 1 1 1 c black 0 0
 0.6 c 227 66 m 1393 X 3 Y 4 X 43 Y 3 X 76 Y 4 X 298 Y 4 X 111 Y s 1642 597 m -211 Y s 1642 386 m 3 X -177 Y 4 X -117 Y 4 X -20 Y 3 X -5 Y 8 X -1 Y 377 X s 1 1 1 c black 0 0 0.6 c 227 66 m 1415 X 29 Y 3 X 204 Y 4 X 196 Y 4 X 102 Y s 1660 597 m -225 Y
 s 1660 372 m 4 X -252 Y 3 X -43 Y 4 X -10 Y 3 X 1 Y 4 X -2 Y 4 X 1 Y 3 X -1 Y 356 X s 1 1 1 c black 0 0 0.6 c 227 66 m 1429 X 1 Y 4 X 6 Y 4 X 59 Y 3 X 165 Y 4 X 300 Y s 1674 597 m -29 Y s 1674 568 m 4 X -158 Y 4 X -193 Y 3 X -117 Y 4 X -31 Y 7 X -2
 Y 4 X -1 Y 341 X s 1 1 1 c black 0 0 0.6 c 227 66 m 1487 X 3 Y 4 X 37 Y 4 X 124 Y 3 X 367 Y s 1733 597 m -111 Y s 1733 486 m 3 X -194 Y 4 X -148 Y 3 X -73 Y 4 X -2 Y 7 X -3 Y 287 X s 1 1 1 c black 0 0 0.6 c 227 66 m 1564 X 2 Y 3 X 22 Y 4 X 88 Y 3 X
 350 Y 4 X 47 Y 4 X -10 Y 3 X -99 Y 4 X -338 Y 4 X -47 Y 3 X -9 Y 4 X -3 Y 4 X -3 Y 3 X 1 Y 4 X -1 Y 203 X s 1 1 1 c black 0 0 0.6 c 227 66 m 1429 X 4 Y 4 X 19 Y 4 X 97 Y 3 X 213 Y 4 X 198 Y s 1674 597 m -76 Y s 1674 521 m 4 X -211 Y 4 X -154 Y 3 X
 -68 Y 4 X -16 Y 4 X -4 Y 3 X -1 Y 8 X -1 Y 337 X s 1 1 1 c black 0 0 0.6 c 227 66 m 1157 X 1 Y 4 X 55 Y 3 X 135 Y 4 X 216 Y 4 X 124 Y s 1402 597 m -29 Y s 1402 568 m 4 X -189 Y 4 X -216 Y 3 X -83 Y 4 X -9 Y 3 X -2 Y 4 X -3 Y 4 X 1 Y 3 X -1 Y 610 X s
 1 1 1 c black 0 0 0.6 c 227 66 m 1193 X 2 Y 4 X 30 Y 4 X 97 Y 3 X 344 Y 4 X 58 Y s 1442 597 m -99 Y s 1442 498 m 4 X -337 Y 4 X -73 Y 3 X -20 Y 4 X 1 Y 3 X -2 Y 4 X -1 Y 577 X s 1 1 1 c black 0 0 0.6 c 227 66 m 1168 X 7 Y 4 X 99 Y 3 X 196 Y 4 X 177
 Y 4 X 52 Y s 1413 597 m -103 Y s 1413 494 m 4 X -224 Y 3 X -164 Y 4 X -34 Y 4 X -4 Y 3 X -1 Y 4 X -1 Y 606 X s 1 1 1 c black 0 0 0.6 c 227 66 m 1219 X 6 Y 4 X 57 Y 3 X 147 Y 4 X 200 Y 3 X 121 Y s 1464 597 m -24 Y s 1464 573 m 4 X -226 Y 3 X -190 Y 4
 X -82 Y 4 X -4 Y 3 X -4 Y 7 X -1 Y 552 X s 1 1 1 c black 0 0 0.6 c 227 66 m 1248 X 6 Y 4 X 61 Y 3 X 161 Y 4 X 221 Y 3 X 75 Y 4 X 7 Y s 1497 597 m -397 Y s 1497 200 m 3 X -96 Y 4 X -29 Y 4 X -6 Y 3 X -2 Y 7 X -1 Y 523 X s 1 1 1 c black 0 0 0.6 c 227
 66 m 1273 X 1 Y 4 X 21 Y 4 X 111 Y 3 X 398 Y s 1515 597 m -3 Y s 1515 594 m 3 X -96 Y 4 X -199 Y 4 X -154 Y 3 X -65 Y 4 X -11 Y 4 X -3 Y 3 X 1 Y 4 X -1 Y 497 X s 1 1 1 c black 0 0 0.6 c 227 66 m 1364 X 1 Y 4 X 34 Y 3 X 139 Y 4 X 215 Y 4 X 117 Y 3 X
 -25 Y 4 X -127 Y 3 X -296 Y 4 X -51 Y 4 X -5 Y 3 X 1 Y 4 X -2 Y 4 X -1 Y 406 X s 1 1 1 c black 0 0 0.6 c 227 66 m 1495 X 1 Y 3 X 11 Y 4 X 89 Y 4 X 177 Y 3 X 210 Y 4 X 43 Y s 1743 597 m -225 Y s 1743 372 m 4 X -207 Y 4 X -68 Y 3 X -26 Y 4 X -3 Y 4 X
 -2 Y 279 X s 1 1 1 c black 0 0 0.6 c 227 66 m 1426 X 3 Y 3 X 30 Y 4 X 206 Y 4 X 205 Y 3 X 87 Y s 1671 597 m -29 Y s 1671 568 m 3 X -173 Y 4 X -252 Y 4 X -61 Y 3 X -12 Y 4 X -4 Y 4 X 2 Y 3 X -2 Y 345 X s 1 1 1 c black 0 0 0.6 c 227 66 m 1389 X 10 Y 4
 X 83 Y 4 X 275 Y 3 X 163 Y s 1635 597 m -148 Y s 1635 449 m 3 X -188 Y 4 X -159 Y 3 X -31 Y 4 X -3 Y 4 X -1 Y 3 X -1 Y 385 X s 1 1 1 c black 0 0 0.6 c 227 66 m 1433 X 1 Y 4 X 31 Y 3 X 200 Y 4 X 232 Y 3 X 67 Y s 1678 597 m -38 Y s 1678 559 m 4 X -152
 Y 3 X -270 Y 4 X -47 Y 4 X -20 Y 3 X -4 Y 4 X 1 Y 4 X -1 Y 337 X s 1 1 1 c black 0 0 0.6 c 227 66 m 1455 X 1 Y 3 X 18 Y 4 X 165 Y 4 X 317 Y 3 X 30 Y s 1704 597 m -213 Y s 1704 384 m 3 X -180 Y 4 X -128 Y 3 X -7 Y 4 X -2 Y 4 X 1 Y 3 X -1 Y 4 X -1 Y
 312 X s 1 1 1 c black 0 0 0.6 c 227 66 m 1360 X 1 Y 4 X 7 Y 4 X 187 Y 3 X 172 Y 4 X 134 Y 4 X 19 Y 3 X -204 Y 4 X -171 Y 3 X -129 Y 4 X -14 Y 7 X -1 Y 4 X -1 Y 410 X s 1 1 1 c black 0 0 0.6 c 227 66 m 1382 X 10 Y 4 X 148 Y 3 X 168 Y 4 X 177 Y 4 X 2
 Y 3 X -56 Y 4 X -368 Y 4 X -57 Y 3 X -21 Y 7 X -2 Y 4 X -1 Y 392 X s 1 1 1 c black 0 0 0.6 c 227 66 m 1342 X 1 Y 4 X 11 Y 4 X 70 Y 3 X 408 Y 4 X 31 Y 3 X -22 Y 4 X -190 Y 4 X -178 Y 3 X -123 Y 4 X -4 Y 4 X -3 Y 7 X -1 Y 428 X s 1 1 1 c black 0 0 0.6
 c 227 66 m 1350 X 3 Y 3 X 166 Y 4 X 173 Y 3 X 139 Y 4 X 42 Y 4 X -39 Y 3 X -387 Y 4 X -82 Y 4 X -11 Y 3 X -1 Y 4 X -1 Y 3 X -2 Y 425 X s 1 1 1 c black 0 0 0.6 c 227 66 m 1451 X 14 Y 4 X 140 Y 3 X 168 Y 4 X 209 Y s 1696 597 m -262 Y s 1696 335 m 4 X
 -146 Y 4 X -57 Y 3 X 43 Y 4 X -35 Y 3 X -10 Y 4 X -47 Y 4 X -16 Y 3 X 1 Y 4 X -2 Y 312 X s 1 1 1 c black 0 0 0.6 c 227 66 m 1386 X 3 Y 3 X 39 Y 4 X 152 Y 4 X 337 Y s 1635 597 m -277 Y s 1635 320 m 3 X -152 Y 4 X -86 Y 3 X -13 Y 4 X -3 Y 392 X s 1 1
 1 c black 0 0 0.6 c 227 66 m 1368 X 2 Y 3 X 32 Y 4 X 154 Y 4 X 343 Y s 1616 597 m -287 Y s 1616 310 m 4 X -167 Y 4 X -66 Y 3 X -5 Y 4 X -6 Y 4 X 1 Y 3 X -1 Y 403 X s 1 1 1 c black 0 0 0.6 c 227 66 m 1447 X 2 Y 4 X 12 Y 4 X 149 Y 3 X 193 Y 4 X 175 Y
 s 1696 597 m -219 Y s 1696 378 m 4 X -195 Y 4 X -101 Y 3 X -12 Y 4 X -3 Y 3 X -1 Y 327 X s 1 1 1 c black 0 0 0.6 c 227 66 m 1422 X 1 Y 4 X -1 Y 3 X 1 Y 4 X 23 Y 4 X 108 Y 3 X 236 Y 4 X 163 Y s 1674 597 m -82 Y s 1674 515 m 4 X -240 Y 4 X -146 Y 3 X
 -46 Y 4 X -14 Y 4 X -3 Y 3 X 2 Y 4 X -2 Y 341 X s 1 1 1 c black 0 0 0.6 c 227 66 m 1422 X 1 Y 4 X 1 Y 3 X 39 Y 4 X 164 Y 4 X 188 Y 3 X 127 Y 4 X 11 Y s 1674 597 m -343 Y s 1674 254 m 4 X -139 Y 4 X -42 Y 3 X -2 Y 4 X -4 Y 7 X -1 Y 345 X s 1 1 1 c
 black 0 0 0.6 c 227 66 m 1542 X 2 Y 3 X 9 Y 4 X 185 Y 4 X 195 Y 3 X 130 Y 4 X -57 Y 4 X -74 Y 3 X -332 Y 4 X -43 Y 3 X -12 Y 4 X -2 Y 7 X -1 Y 229 X s 1 1 1 c black 0 0 0.6 c 227 66 m 1386 X 3 Y 3 X 21 Y 4 X 107 Y 4 X 184 Y 3 X 216 Y s 1631 597 m
 -50 Y s 1631 547 m 4 X -193 Y 3 X -175 Y 4 X -83 Y 3 X -23 Y 4 X -7 Y 4 X 1 Y 7 X -1 Y 381 X s 1 1 1 c black
 gsave  2268 663 0 0 C 1007.28 632.893 t 0 r /Helvetica findfont 28.5247 sf 0 0 m (stave_1_A__mod_1) show NC gr 
 gr  gr showpage
end
%%EOF
