%!PS-Adobe-2.0 EPSF-2.0
%%BoundingBox:  0 0 567 271
%%Title: DeltaiCooling.eps: c2
%%Creator: ROOT Version 5.34/30
%%CreationDate: Mon Jun  8 08:54:48 2015
%%EndComments
%%BeginProlog
80 dict begin
/s {stroke} def /l {lineto} def /m {moveto} def /t {translate} def
/r {rotate} def /rl {roll}  def /R {repeat} def
/d {rlineto} def /rm {rmoveto} def /gr {grestore} def /f {eofill} def
/c {setrgbcolor} def /black {0 setgray} def /sd {setdash} def
/cl {closepath} def /sf {scalefont setfont} def /lw {setlinewidth} def
/box {m dup 0 exch d exch 0 d 0 exch neg d cl} def
/NC{systemdict begin initclip end}def/C{NC box clip newpath}def
/bl {box s} def /bf {gsave box gsave f grestore 1 lw [] 0 sd s grestore} def /Y { 0 exch d} def /X { 0 d} def 
/K {{pop pop 0 moveto} exch kshow} bind def
/ita {/ang 15 def gsave [1 0 ang dup sin exch cos div 1 0 0] concat} def 
/mp {newpath /y exch def /x exch def} def
/side {[w .77 mul w .23 mul] .385 w mul sd w 0 l currentpoint t -144 r} def
/mr {mp x y w2 0 360 arc} def /m24 {mr s} def /m20 {mr f} def
/mb {mp x y w2 add m w2 neg 0 d 0 w neg d w 0 d 0 w d cl} def
/mt {mp x y w2 add m w2 neg w neg d w 0 d cl} def
/m21 {mb f} def /m25 {mb s} def /m22 {mt f} def /m26{mt s} def
/m23 {mp x y w2 sub m w2 w d w neg 0 d cl f} def
/m27 {mp x y w2 add m w3 neg w2 neg d w3 w2 neg d w3 w2 d cl s} def
/m28 {mp x w2 sub y w2 sub w3 add m w3 0 d  0 w3 neg d w3 0 d 0 w3 d w3 0 d  0 w3 d w3 neg 0 d 0 w3 d w3 neg 0 d 0 w3 neg d w3 neg 0 d cl s } def
/m29 {mp gsave x w2 sub y w2 add w3 sub m currentpoint t 4 {side} repeat cl fill gr} def
/m30 {mp gsave x w2 sub y w2 add w3 sub m currentpoint t 4 {side} repeat cl s gr} def
/m31 {mp x y w2 sub m 0 w d x w2 sub y m w 0 d x w2 sub y w2 add m w w neg d x w2 sub y w2 sub m w w d s} def
/m32 {mp x y w2 sub m w2 w d w neg 0 d cl s} def
/m33 {mp x y w2 add m w3 neg w2 neg d w3 w2 neg d w3 w2 d cl f} def
/m34 {mp x w2 sub y w2 sub w3 add m w3 0 d  0 w3 neg d w3 0 d 0 w3 d w3 0 d  0 w3 d w3 neg 0 d 0 w3 d w3 neg 0 d 0 w3 neg d w3 neg 0 d cl f } def
/m2 {mp x y w2 sub m 0 w d x w2 sub y m w 0 d s} def
/m5 {mp x w2 sub y w2 sub m w w d x w2 sub y w2 add m w w neg d s} def
/reEncode {exch findfont dup length dict begin {1 index /FID eq  {pop pop} {def} ifelse } forall /Encoding exch def currentdict end dup /FontName get exch definefont pop } def [/Times-Bold /Times-Italic /Times-BoldItalic /Helvetica /Helvetica-Oblique
 /Helvetica-Bold /Helvetica-BoldOblique /Courier /Courier-Oblique /Courier-Bold /Courier-BoldOblique /Times-Roman /AvantGarde-Book /AvantGarde-BookOblique /AvantGarde-Demi /AvantGarde-DemiOblique /Bookman-Demi /Bookman-DemiItalic /Bookman-Light
 /Bookman-LightItalic /Helvetica-Narrow /Helvetica-Narrow-Bold /Helvetica-Narrow-BoldOblique /Helvetica-Narrow-Oblique /NewCenturySchlbk-Roman /NewCenturySchlbk-Bold /NewCenturySchlbk-BoldItalic /NewCenturySchlbk-Italic /Palatino-Bold
 /Palatino-BoldItalic /Palatino-Italic /Palatino-Roman ] {ISOLatin1Encoding reEncode } forall
%%EndProlog
%%BeginSetup
%%EndSetup
newpath  gsave  .25 .25 scale  gsave  0 0 t black[  ] 0 sd 3 lw 1 1 1 c 2268 1085 0 0 bf black 1 1 1 c 1814 868 227 108 bf black 1814 868 227 108 bl 1 1 1 c 1814 868 227 108 bf black 1814 868 227 108 bl 227 108 m 1814 X s
 gsave  2268 1085 0 0 C 1964.34 36.0256 t 0 r /Helvetica findfont 36.0256 sf 0 0 m (Date) show NC gr  277 134 m -26 Y s 349 121 m -13 Y s 421 121 m -13 Y s 493 134 m -26 Y s 565 121 m -13 Y s 636 121 m -13 Y s 708 134 m -26 Y s 780 121 m -13 Y s 852
 121 m -13 Y s 924 134 m -26 Y s 996 121 m -13 Y s 1068 121 m -13 Y s 1140 134 m -26 Y s 1212 121 m -13 Y s 1284 121 m -13 Y s 1356 134 m -26 Y s 1428 121 m -13 Y s 1500 121 m -13 Y s 1572 134 m -26 Y s 1644 121 m -13 Y s 1716 121 m -13 Y s 1787 134
 m -26 Y s 1859 121 m -13 Y s 1931 121 m -13 Y s 2003 134 m -26 Y s 277 134 m -26 Y s 2003 134 m -26 Y s
 gsave  2268 1085 0 0 C 180.128 73.9473 t 0 r /Helvetica findfont 36.0256 sf 0 0 m (Jun\25503 08h ) show NC gr 
 gsave  2268 1085 0 0 C 396.282 73.9473 t 0 r /Helvetica findfont 36.0256 sf 0 0 m (Jun\25503 14h ) show NC gr 
 gsave  2268 1085 0 0 C 612.435 73.9473 t 0 r /Helvetica findfont 36.0256 sf 0 0 m (Jun\25503 20h ) show NC gr 
 gsave  2268 1085 0 0 C 828.589 73.9473 t 0 r /Helvetica findfont 36.0256 sf 0 0 m (Jun\25504 02h ) show NC gr 
 gsave  2268 1085 0 0 C 1044.74 73.9473 t 0 r /Helvetica findfont 36.0256 sf 0 0 m (Jun\25504 08h ) show NC gr 
 gsave  2268 1085 0 0 C 1260.9 73.9473 t 0 r /Helvetica findfont 36.0256 sf 0 0 m (Jun\25504 14h ) show NC gr 
 gsave  2268 1085 0 0 C 1475.15 73.9473 t 0 r /Helvetica findfont 36.0256 sf 0 0 m (Jun\25504 20h ) show NC gr 
 gsave  2268 1085 0 0 C 1691.31 73.9473 t 0 r /Helvetica findfont 36.0256 sf 0 0 m (Jun\25505 02h ) show NC gr 
 gsave  2268 1085 0 0 C 1907.46 73.9473 t 0 r /Helvetica findfont 36.0256 sf 0 0 m (Jun\25505 08h ) show NC gr  227 108 m 868 Y s
 gsave  2268 1085 0 0 C 108.077 722.408 t 90 r /Helvetica findfont 36.0256 sf 0 0 m 
 243 219 209 199 180 168 148 138 119 107 87 67 38 18
(Temperature [K]) K NC gr  281 108 m -54 X s 254 137 m -27 X s 254 166 m -27 X s 254 195 m -27 X s 254 224 m -27 X s 281 253 m -54 X s 254 282 m -27 X s 254 311 m -27 X s 254 340 m -27 X s 254 369 m -27 X s 281 398 m -54 X s 254 427 m -27 X s 254 456
 m -27 X s 254 484 m -27 X s 254 513 m -27 X s 281 542 m -54 X s 254 571 m -27 X s 254 600 m -27 X s 254 629 m -27 X s 254 658 m -27 X s 281 687 m -54 X s 254 716 m -27 X s 254 745 m -27 X s 254 774 m -27 X s 254 803 m -27 X s 281 831 m -54 X s 254
 860 m -27 X s 254 889 m -27 X s 254 918 m -27 X s 254 947 m -27 X s 281 976 m -54 X s 281 976 m -54 X s
 gsave  2268 1085 0 0 C 195.297 96.7003 t 0 r /Helvetica findfont 36.0256 sf 0 0 m (0) show NC gr 
 gsave  2268 1085 0 0 C 144.102 240.803 t 0 r /Helvetica findfont 36.0256 sf 0 0 m (0.05) show NC gr 
 gsave  2268 1085 0 0 C 164.959 384.905 t 0 r /Helvetica findfont 36.0256 sf 0 0 m (0.1) show NC gr 
 gsave  2268 1085 0 0 C 144.102 529.007 t 0 r /Helvetica findfont 36.0256 sf 0 0 m (0.15) show NC gr 
 gsave  2268 1085 0 0 C 164.959 675.006 t 0 r /Helvetica findfont 36.0256 sf 0 0 m (0.2) show NC gr 
 gsave  2268 1085 0 0 C 144.102 819.108 t 0 r /Helvetica findfont 36.0256 sf 0 0 m (0.25) show NC gr 
 gsave  2268 1085 0 0 C 164.959 963.211 t 0 r /Helvetica findfont 36.0256 sf 0 0 m (0.3) show NC gr  0 0.6 1 c black 0 0.6 1 c 180 47 1710 172 bf black 0 0.6 1 c 180 0 1710 108 bf black 0 0.6 1 c 180 0 1710 108 bf black 0 0.6 1 c 144 23 732 160 bf
 black 0 0.6 1 c 144 0 732 108 bf black 0 0.6 1 c 180 85 378 132 bf black 0 0 0.4 c 1 lw << /PatternType 1 /PaintType 2 /TilingType 1 /BBox [ 0 0 100 100 ] /XStep 100 /YStep 100 /PaintProc { begin gsave 0 0 m 100 100 l s gr end } >> [ 0.24 0 0 0.24 0
 0 ] makepattern /P04 exch def /cs {[/Pattern /DeviceRGB] setcolorspace} def /FA {f [/DeviceRGB] setcolorspace} def cs 0 0 0.4 P04 setcolor 1710 227 m 180 X 192 Y -180 X FA 3 lw black 0 0 0.4 c cs 0 0 0.4 P04 setcolor 732 203 m 144 X 117 Y -144 X FA
 black 0 0 0.4 c cs 0 0 0.4 P04 setcolor 378 155 m 180 X 353 Y -180 X FA black 0 0 0.4 c black 1 1 1 c black
 gsave  2268 1085 0 0 C 1059.91 1031.47 t 0 r /Helvetica findfont 53.0904 sf 0 0 m (Graph) show NC gr 
 gsave  2268 1085 0 0 C 453.164 858.926 t 0 r /Helvetica findfont 30.3373 sf 0 0 m 
 492 475 468 460 443 426 419 409 401 385 379 362 353 333 308 286 277 261 251 234 225 208 198 181 165 139 122 107 99 82 76 59 42 25
(Module Temperature RMS distribution) K NC gr  0 0.6 1 c 261 830 m 159 X 76 Y -159 X f black 261 906 m 159 X s 261 830 m 159 X s 420 830 m 76 Y s 261 830 m 76 Y s
 gsave  2268 1085 0 0 C 453.164 750.849 t 0 r /Helvetica findfont 30.3373 sf 0 0 m 
 580 563 556 541 531 514 499 484 467 458 443 426 409 389 381 364 355 347 332 315 298 278 261 251 234 226 209 199 182 165 139 123 107 100 83 76 59 42 25
(Module TemperaturePeak to Peak excursion) K NC gr  0 0 0.4 c cs 0 0 0.4 P04 setcolor 261 721 m 159 X 76 Y -159 X FA black 261 797 m 159 X s 261 721 m 159 X s 420 721 m 76 Y s 261 721 m 76 Y s
 gsave  2268 1085 0 0 C 1746.54 195.221 t 90 r /Helvetica-Bold findfont 39.8178 sf 0 0 m (267073) show NC gr 
 gsave  2268 1085 0 0 C 811.991 195.221 t 90 r /Helvetica-Bold findfont 39.8178 sf 0 0 m (266919) show NC gr 
 gsave  2268 1085 0 0 C 444.448 195.221 t 90 r /Helvetica-Bold findfont 39.8178 sf 0 0 m (266904) show NC gr 
 gsave  2268 1085 0 0 C 444.448 195.221 t 90 r /Helvetica-Bold findfont 39.8178 sf 0 0 m (266904) show NC gr 
 gr  gr showpage
end
%%EOF
