%!PS-Adobe-2.0 EPSF-2.0
%%BoundingBox:  0 0 567 271
%%Title: /afs/cern.ch/user/a/amiucci/AtlasDCSviewer/macros/IBL_ThermalSurvey/M8.eps: c1
%%Creator: ROOT Version 5.34/24
%%CreationDate: Mon Mar 30 13:24:48 2015
%%EndComments
%%BeginProlog
80 dict begin
/s {stroke} def /l {lineto} def /m {moveto} def /t {translate} def
/r {rotate} def /rl {roll}  def /R {repeat} def
/d {rlineto} def /rm {rmoveto} def /gr {grestore} def /f {eofill} def
/c {setrgbcolor} def /black {0 setgray} def /sd {setdash} def
/cl {closepath} def /sf {scalefont setfont} def /lw {setlinewidth} def
/box {m dup 0 exch d exch 0 d 0 exch neg d cl} def
/NC{systemdict begin initclip end}def/C{NC box clip newpath}def
/bl {box s} def /bf {box f} def /Y { 0 exch d} def /X { 0 d} def 
/K {{pop pop 0 moveto} exch kshow} bind def
/ita {/ang 15 def gsave [1 0 ang dup sin exch cos div 1 0 0] concat} def 
/mp {newpath /y exch def /x exch def} def
/side {[w .77 mul w .23 mul] .385 w mul sd w 0 l currentpoint t -144 r} def
/mr {mp x y w2 0 360 arc} def /m24 {mr s} def /m20 {mr f} def
/mb {mp x y w2 add m w2 neg 0 d 0 w neg d w 0 d 0 w d cl} def
/mt {mp x y w2 add m w2 neg w neg d w 0 d cl} def
/m21 {mb f} def /m25 {mb s} def /m22 {mt f} def /m26{mt s} def
/m23 {mp x y w2 sub m w2 w d w neg 0 d cl f} def
/m27 {mp x y w2 add m w3 neg w2 neg d w3 w2 neg d w3 w2 d cl s} def
/m28 {mp x w2 sub y w2 sub w3 add m w3 0 d  0 w3 neg d w3 0 d 0 w3 d w3 0 d  0 w3 d w3 neg 0 d 0 w3 d w3 neg 0 d 0 w3 neg d w3 neg 0 d cl s } def
/m29 {mp gsave x w2 sub y w2 add w3 sub m currentpoint t 4 {side} repeat cl fill gr} def
/m30 {mp gsave x w2 sub y w2 add w3 sub m currentpoint t 4 {side} repeat cl s gr} def
/m31 {mp x y w2 sub m 0 w d x w2 sub y m w 0 d x w2 sub y w2 add m w w neg d x w2 sub y w2 sub m w w d s} def
/m32 {mp x y w2 sub m w2 w d w neg 0 d cl s} def
/m33 {mp x y w2 add m w3 neg w2 neg d w3 w2 neg d w3 w2 d cl f} def
/m34 {mp x w2 sub y w2 sub w3 add m w3 0 d  0 w3 neg d w3 0 d 0 w3 d w3 0 d  0 w3 d w3 neg 0 d 0 w3 d w3 neg 0 d 0 w3 neg d w3 neg 0 d cl f } def
/m2 {mp x y w2 sub m 0 w d x w2 sub y m w 0 d s} def
/m5 {mp x w2 sub y w2 sub m w w d x w2 sub y w2 add m w w neg d s} def
/reEncode {exch findfont dup length dict begin {1 index /FID eq  {pop pop} {def} ifelse } forall /Encoding exch def currentdict end dup /FontName get exch definefont pop } def [/Times-Bold /Times-Italic /Times-BoldItalic /Helvetica /Helvetica-Oblique
 /Helvetica-Bold /Helvetica-BoldOblique /Courier /Courier-Oblique /Courier-Bold /Courier-BoldOblique /Times-Roman /AvantGarde-Book /AvantGarde-BookOblique /AvantGarde-Demi /AvantGarde-DemiOblique /Bookman-Demi /Bookman-DemiItalic /Bookman-Light
 /Bookman-LightItalic /Helvetica-Narrow /Helvetica-Narrow-Bold /Helvetica-Narrow-BoldOblique /Helvetica-Narrow-Oblique /NewCenturySchlbk-Roman /NewCenturySchlbk-Bold /NewCenturySchlbk-BoldItalic /NewCenturySchlbk-Italic /Palatino-Bold
 /Palatino-BoldItalic /Palatino-Italic /Palatino-Roman ] {ISOLatin1Encoding reEncode } forall
%%EndProlog
%%BeginSetup
%%EndSetup
newpath  gsave  .25 .25 scale  gsave  0 0 t black[  ] 0 sd 3 lw 1 1 1 c 2268 1085 0 0 bf black 1 1 1 c 2222 521 23 553 bf black 1 1 1 c 1778 417 245 605 bf black 1778 417 245 605 bl 1 1 1 c 1778 417 245 605 bf black 1778 417 245 605 bl 245 605 m 1778
 X s[ 4 8] 0 sd 626 1022 m -417 Y s 1234 1022 m -417 Y s 1842 1022 m -417 Y s 626 1022 m -417 Y s 1842 1022 m -417 Y s[  ] 0 sd 245 605 m 417 Y s 245 605 m 1778 X s
 gsave  2222 521 23 553 C 1924.53 559.345 t 0 r /Helvetica findfont 22.7995 sf 0 0 m (local time) show NC gr  626 618 m -13 Y s 713 611 m -6 Y s 800 611 m -6 Y s 887 611 m -6 Y s 974 611 m -6 Y s 1061 611 m -6 Y s 1147 611 m -6 Y s 1234 618 m -13 Y s
 1321 611 m -6 Y s 1408 611 m -6 Y s 1495 611 m -6 Y s 1582 611 m -6 Y s 1668 611 m -6 Y s 1755 611 m -6 Y s 1842 618 m -13 Y s 626 618 m -13 Y s 539 611 m -6 Y s 453 611 m -6 Y s 366 611 m -6 Y s 279 611 m -6 Y s 1842 618 m -13 Y s 1929 611 m -6 Y s
 2016 611 m -6 Y s
 gsave  2222 521 23 553 C 587.786 580.202 t 0 r /Helvetica findfont 26.5994 sf 0 0 m (12\25502 ) show NC gr 
 gsave  2222 521 23 553 C 1194.53 580.202 t 0 r /Helvetica findfont 26.5994 sf 0 0 m (19\25502 ) show NC gr 
 gsave  2222 521 23 553 C 1803.18 580.202 t 0 r /Helvetica findfont 26.5994 sf 0 0 m (26\25502 ) show NC gr  245 605 m 417 Y s
 gsave  2222 521 23 553 C 155.479 857.03 t 90 r /Helvetica findfont 22.7995 sf 0 0 m 
 151 135 128 122 110 103 91 85 73 65 53 41 23 11
(Temperature \(C\)) K NC gr  263 605 m -18 X s 254 619 m -9 X s 254 633 m -9 X s 254 647 m -9 X s 254 661 m -9 X s 263 675 m -18 X s 254 688 m -9 X s 254 702 m -9 X s 254 716 m -9 X s 254 730 m -9 X s 263 744 m -18 X s 254 758 m -9 X s 254 772 m -9 X
 s 254 786 m -9 X s 254 800 m -9 X s 263 813 m -18 X s 254 827 m -9 X s 254 841 m -9 X s 254 855 m -9 X s 254 869 m -9 X s 263 883 m -18 X s 254 897 m -9 X s 254 911 m -9 X s 254 924 m -9 X s 254 938 m -9 X s 263 952 m -18 X s 254 966 m -9 X s 254
 980 m -9 X s 254 994 m -9 X s 254 1008 m -9 X s 263 1022 m -18 X s
 gsave  2222 521 23 553 C 204.777 597.266 t 0 r /Helvetica findfont 26.5994 sf 0 0 m (25) show NC gr 
 gsave  2222 521 23 553 C 189.608 597.266 t 0 r /Symbol findfont 26.5994 sf 0 0 m (-) show NC gr 
 gsave  2222 521 23 553 C 202.881 665.525 t 0 r /Helvetica findfont 26.5994 sf 0 0 m (20) show NC gr 
 gsave  2222 521 23 553 C 187.712 665.525 t 0 r /Symbol findfont 26.5994 sf 0 0 m (-) show NC gr 
 gsave  2222 521 23 553 C 204.777 735.681 t 0 r /Helvetica findfont 26.5994 sf 0 0 m (15) show NC gr 
 gsave  2222 521 23 553 C 189.608 735.681 t 0 r /Symbol findfont 26.5994 sf 0 0 m (-) show NC gr 
 gsave  2222 521 23 553 C 202.881 803.94 t 0 r /Helvetica findfont 26.5994 sf 0 0 m (10) show NC gr 
 gsave  2222 521 23 553 C 187.712 803.94 t 0 r /Symbol findfont 26.5994 sf 0 0 m (-) show NC gr 
 gsave  2222 521 23 553 C 218.05 874.095 t 0 r /Helvetica findfont 26.5994 sf 0 0 m (5) show NC gr 
 gsave  2222 521 23 553 C 202.881 874.095 t 0 r /Symbol findfont 26.5994 sf 0 0 m (-) show NC gr 
 gsave  2222 521 23 553 C 218.05 944.25 t 0 r /Helvetica findfont 26.5994 sf 0 0 m (0) show NC gr 
 gsave  2222 521 23 553 C 218.05 1012.51 t 0 r /Helvetica findfont 26.5994 sf 0 0 m (5) show NC gr  1 0.8 0 c black /w 15 def /w2 {w 2 div} def /w3 {w 3 div} def 617 778 639 778 597 778 426 781 891 780 1280 778 1513 776 1310 778 1154 779 1741 962
 1113 779 1333 778 1651 776 1188 778 1766 962 1200 778 1833 920 945 780 781 779 1680 776 979 780 396 781 1809 914 1418 778 1855 920 1454 778 1035 779 1709 776 1043 779 471 779 528 779 719 779 1054 779 538 779 743 779 560 779 1220 778 1583 776 814 779
 1077 779 1243 778 1259 778 934 780 43 { m20} R 1 0.8 0 c 6 20 614 768 bf black 1 0.8 0 c 33 20 622 768 bf black 1 0.8 0 c 7 21 594 768 bf black 1 0.8 0 c 4 30 424 766 bf black 1 0.8 0 c 56 20 863 770 bf black 1 0.8 0 c 5 18 1278 769 bf black 1 0.8 0
 c 73 18 1476 767 bf black 1 0.8 0 c 7 18 1307 769 bf black 1 0.8 0 c 38 18 1135 770 bf black 1 0.8 0 c 3 17 1739 953 bf black 1 0.8 0 c 4 18 1111 770 bf black 1 0.8 0 c 35 18 1316 769 bf black 1 0.8 0 c 13 18 1645 767 bf black 1 0.8 0 c 14 19 1181
 769 bf black 1 0.8 0 c 46 17 1743 953 bf black 1 0.8 0 c 8 18 1196 769 bf black 1 0.8 0 c 6 4 1830 918 bf black 1 0.8 0 c 15 20 937 770 bf black 1 0.8 0 c 5 20 779 769 bf black 1 0.8 0 c 42 18 1659 767 bf black 1 0.8 0 c 52 20 953 770 bf black 1 0.8
 0 c 6 29 393 766 bf black 1 0.8 0 c 7 4 1805 912 bf black 1 0.8 0 c 53 18 1391 769 bf black 1 0.8 0 c 39 4 1836 918 bf black 1 0.8 0 c 18 18 1445 769 bf black 1 0.8 0 c 6 20 1032 769 bf black 1 0.8 0 c 11 18 1703 767 bf black 1 0.8 0 c 9 20 1039 769
 bf black 1 0.8 0 c 25 23 458 767 bf black 1 0.8 0 c 5 23 526 767 bf black 1 0.8 0 c 37 20 700 769 bf black 1 0.8 0 c 12 20 1048 769 bf black 1 0.8 0 c 13 23 531 767 bf black 1 0.8 0 c 9 20 739 769 bf black 1 0.8 0 c 19 23 550 767 bf black 1 0.8 0 c
 6 19 1217 769 bf black 1 0.8 0 c 65 18 1551 767 bf black 1 0.8 0 c 55 20 787 769 bf black 1 0.8 0 c 29 20 1062 769 bf black 1 0.8 0 c 24 19 1231 769 bf black 1 0.8 0 c 5 18 1256 769 bf black 1 0.8 0 c 4 20 932 770 bf black 1 0.8 0 c 6 20 614 768 bf
 black 1 0.8 0 c 33 20 622 768 bf black 1 0.8 0 c 7 21 594 768 bf black 1 0.8 0 c 4 30 424 766 bf black 1 0.8 0 c 56 20 863 770 bf black 1 0.8 0 c 5 18 1278 769 bf black 1 0.8 0 c 73 18 1476 767 bf black 1 0.8 0 c 7 18 1307 769 bf black 1 0.8 0 c 38
 18 1135 770 bf black 1 0.8 0 c 3 17 1739 953 bf black 1 0.8 0 c 4 18 1111 770 bf black 1 0.8 0 c 35 18 1316 769 bf black 1 0.8 0 c 13 18 1645 767 bf black 1 0.8 0 c 14 19 1181 769 bf black 1 0.8 0 c 46 17 1743 953 bf black 1 0.8 0 c 8 18 1196 769 bf
 black 1 0.8 0 c 6 4 1830 918 bf black 1 0.8 0 c 15 20 937 770 bf black 1 0.8 0 c 5 20 779 769 bf black 1 0.8 0 c 42 18 1659 767 bf black 1 0.8 0 c 52 20 953 770 bf black 1 0.8 0 c 6 29 393 766 bf black 1 0.8 0 c 7 4 1805 912 bf black 1 0.8 0 c 53 18
 1391 769 bf black 1 0.8 0 c 39 4 1836 918 bf black 1 0.8 0 c 18 18 1445 769 bf black 1 0.8 0 c 6 20 1032 769 bf black 1 0.8 0 c 11 18 1703 767 bf black 1 0.8 0 c 9 20 1039 769 bf black 1 0.8 0 c 25 23 458 767 bf black 1 0.8 0 c 5 23 526 767 bf black
 1 0.8 0 c 37 20 700 769 bf black 1 0.8 0 c 12 20 1048 769 bf black 1 0.8 0 c 13 23 531 767 bf black 1 0.8 0 c 9 20 739 769 bf black 1 0.8 0 c 19 23 550 767 bf black 1 0.8 0 c 6 19 1217 769 bf black 1 0.8 0 c 65 18 1551 767 bf black 1 0.8 0 c 55 20
 787 769 bf black 1 0.8 0 c 29 20 1062 769 bf black 1 0.8 0 c 24 19 1231 769 bf black 1 0.8 0 c 5 18 1256 769 bf black 1 0.8 0 c 4 20 932 770 bf black 1 0.8 0 c black 617 778 639 778 597 778 426 781 891 780 1280 778 1513 776 1310 778 1154 779 1741
 962 1113 779 1333 778 1651 776 1188 778 1766 962 1200 778 1833 920 945 780 781 779 1680 776 979 780 396 781 1809 914 1418 778 1855 920 1454 778 1035 779 1709 776 1043 779 471 779 528 779 719 779 1054 779 538 779 743 779 560 779 1220 778 1583 776 814
 779 1077 779 1243 778 1259 778 934 780 43 { m20} R
 gsave  2222 521 23 553 C 624.595 796.12 t 90 r /Helvetica-Bold findfont 18.9996 sf 0 0 m (251663) show NC gr 
 gsave  2222 521 23 553 C 646.375 795.956 t 90 r /Helvetica-Bold findfont 18.9996 sf 0 0 m (251667) show NC gr 
 gsave  2222 521 23 553 C 604.986 796.37 t 90 r /Helvetica-Bold findfont 18.9996 sf 0 0 m (251542) show NC gr 
 gsave  2222 521 23 553 C 433.913 798.663 t 90 r /Helvetica-Bold findfont 18.9996 sf 0 0 m (251033) show NC gr 
 gsave  2222 521 23 553 C 898.588 797.951 t 90 r /Helvetica-Bold findfont 18.9996 sf 0 0 m (252194) show NC gr 
 gsave  2222 521 23 553 C 1288.08 796.363 t 90 r /Helvetica-Bold findfont 18.9996 sf 0 0 m (252712) show NC gr 
 gsave  2222 521 23 553 C 1520.22 794.074 t 90 r /Helvetica-Bold findfont 18.9996 sf 0 0 m (253020) show NC gr 
 gsave  2222 521 23 553 C 1317.65 796.459 t 90 r /Helvetica-Bold findfont 18.9996 sf 0 0 m (252844) show NC gr 
 gsave  2222 521 23 553 C 1161.81 796.627 t 90 r /Helvetica-Bold findfont 18.9996 sf 0 0 m (252589) show NC gr 
 gsave  2222 521 23 553 C 1748.11 979.653 t 90 r /Helvetica-Bold findfont 18.9996 sf 0 0 m (253230) show NC gr 
 gsave  2222 521 23 553 C 1120.24 796.692 t 90 r /Helvetica-Bold findfont 18.9996 sf 0 0 m (252466) show NC gr 
 gsave  2222 521 23 553 C 1341.03 796.403 t 90 r /Helvetica-Bold findfont 18.9996 sf 0 0 m (252854) show NC gr 
 gsave  2222 521 23 553 C 1659.04 793.975 t 90 r /Helvetica-Bold findfont 18.9996 sf 0 0 m 
 53 42 32 21 11
(253115) K NC gr 
 gsave  2222 521 23 553 C 1195.66 796.491 t 90 r /Helvetica-Bold findfont 18.9996 sf 0 0 m (252604) show NC gr 
 gsave  2222 521 23 553 C 1773.51 979.8 t 90 r /Helvetica-Bold findfont 18.9996 sf 0 0 m (253247) show NC gr 
 gsave  2222 521 23 553 C 1207.29 796.421 t 90 r /Helvetica-Bold findfont 18.9996 sf 0 0 m (252608) show NC gr 
 gsave  2222 521 23 553 C 1840.31 938.083 t 90 r /Helvetica-Bold findfont 18.9996 sf 0 0 m (253377) show NC gr 
 gsave  2222 521 23 553 C 952.146 797.94 t 90 r /Helvetica-Bold findfont 18.9996 sf 0 0 m (252226) show NC gr 
 gsave  2222 521 23 553 C 789.01 796.921 t 90 r /Helvetica-Bold findfont 18.9996 sf 0 0 m (252099) show NC gr 
 gsave  2222 521 23 553 C 1687.81 794.012 t 90 r /Helvetica-Bold findfont 18.9996 sf 0 0 m (253124) show NC gr 
 gsave  2222 521 23 553 C 986.442 797.849 t 90 r /Helvetica-Bold findfont 18.9996 sf 0 0 m (252233) show NC gr 
 gsave  2222 521 23 553 C 403.467 798.55 t 90 r /Helvetica-Bold findfont 18.9996 sf 0 0 m (250827) show NC gr 
 gsave  2222 521 23 553 C 1816.28 931.829 t 90 r /Helvetica-Bold findfont 18.9996 sf 0 0 m (253307) show NC gr 
 gsave  2222 521 23 553 C 1425.39 796.387 t 90 r /Helvetica-Bold findfont 18.9996 sf 0 0 m (253010) show NC gr 
 gsave  2222 521 23 553 C 1863.03 938.104 t 90 r /Helvetica-Bold findfont 18.9996 sf 0 0 m (253395) show NC gr 
 gsave  2222 521 23 553 C 1461.49 796.391 t 90 r /Helvetica-Bold findfont 18.9996 sf 0 0 m (253014) show NC gr 
 gsave  2222 521 23 553 C 1042.74 797.128 t 90 r /Helvetica-Bold findfont 18.9996 sf 0 0 m (252376) show NC gr 
 gsave  2222 521 23 553 C 1716.51 794.148 t 90 r /Helvetica-Bold findfont 18.9996 sf 0 0 m (253147) show NC gr 
 gsave  2222 521 23 553 C 1050.78 796.788 t 90 r /Helvetica-Bold findfont 18.9996 sf 0 0 m (252380) show NC gr 
 gsave  2222 521 23 553 C 478.209 796.742 t 90 r /Helvetica-Bold findfont 18.9996 sf 0 0 m 
 53 42 31 21 11
(251106) K NC gr 
 gsave  2222 521 23 553 C 535.826 796.676 t 90 r /Helvetica-Bold findfont 18.9996 sf 0 0 m (251363) show NC gr 
 gsave  2222 521 23 553 C 726.342 796.955 t 90 r /Helvetica-Bold findfont 18.9996 sf 0 0 m (251876) show NC gr 
 gsave  2222 521 23 553 C 1061.75 797.203 t 90 r /Helvetica-Bold findfont 18.9996 sf 0 0 m (252390) show NC gr 
 gsave  2222 521 23 553 C 545.09 796.572 t 90 r /Helvetica-Bold findfont 18.9996 sf 0 0 m (251367) show NC gr 
 gsave  2222 521 23 553 C 750.668 796.865 t 90 r /Helvetica-Bold findfont 18.9996 sf 0 0 m (251880) show NC gr 
 gsave  2222 521 23 553 C 567.324 796.547 t 90 r /Helvetica-Bold findfont 18.9996 sf 0 0 m (251371) show NC gr 
 gsave  2222 521 23 553 C 1227.56 796.498 t 90 r /Helvetica-Bold findfont 18.9996 sf 0 0 m (252657) show NC gr 
 gsave  2222 521 23 553 C 1590.99 793.985 t 90 r /Helvetica-Bold findfont 18.9996 sf 0 0 m (253042) show NC gr 
 gsave  2222 521 23 553 C 822.076 796.865 t 90 r /Helvetica-Bold findfont 18.9996 sf 0 0 m 
 53 42 32 21 11
(252115) K NC gr 
 gsave  2222 521 23 553 C 1084.33 797.152 t 90 r /Helvetica-Bold findfont 18.9996 sf 0 0 m (252404) show NC gr 
 gsave  2222 521 23 553 C 1250.63 796.508 t 90 r /Helvetica-Bold findfont 18.9996 sf 0 0 m (252663) show NC gr 
 gsave  2222 521 23 553 C 1266.48 796.429 t 90 r /Helvetica-Bold findfont 18.9996 sf 0 0 m (252664) show NC gr 
 gsave  2222 521 23 553 C 941.31 798.072 t 90 r /Helvetica-Bold findfont 18.9996 sf 0 0 m (252223) show NC gr 
 gsave  2222 521 23 553 C 941.31 798.072 t 90 r /Helvetica-Bold findfont 18.9996 sf 0 0 m (252223) show NC gr [ 12 12] 0 sd 366 674 m 1 Y -2 Y 2 Y -1 Y 1 X 1 Y -1 Y 1 Y -1 Y 1 Y -1 Y 1 X -1 Y 2 Y -2 Y 2 Y -1 Y 1 Y 1 -1 d 1 Y -2 Y 2 Y -2 Y 2 Y -2 Y 2
 Y -1 Y 1 Y -1 Y 1 X 1 Y -1 Y 1 Y -2 Y 2 Y -2 Y 2 Y -1 Y 1 Y 1 X -1 Y 1 Y -1 Y 1 Y -1 Y 2 Y -2 Y 2 Y -2 Y 1 Y -2 Y 2 Y -2 Y 1 2 d -2 Y 2 Y -1 Y 1 Y -1 Y 1 Y -1 Y 1 1 d -1 Y 1 Y -2 Y 2 Y -1 Y 1 Y -1 Y 1 X 1 Y -1 Y 1 1 d -2 Y 2 Y -2 Y 2 Y -1 Y 1 Y -2 Y
 2 Y -1 Y 1 X 1 Y -2 Y 2 Y -1 Y 1 X 1 Y -1 Y 1 Y -1 Y 1 Y -1 Y 1 Y 1 -1 d 1 Y -1 Y 1 Y -1 Y 2 Y -3 Y 2 Y -1 Y 1 Y -1 Y 1 Y -1 Y 1 2 d -2 Y 1 Y -2 Y 2 Y -1 Y 1 Y -2 Y 2 Y -1 Y 1 Y 1 -1 d 1 Y -1 Y 2 Y -2 Y 1 Y -1 Y 1 Y -2 Y 1 Y 1 X 2 Y -1 Y 1 Y -2 Y 1
 Y -1 Y 1 Y -2 Y 2 Y -1 Y 1 X -1 Y 2 Y -1 Y 1 Y -1 Y 1 Y -1 Y 1 X -1 Y 2 Y -2 Y 2 Y -2 Y 3 Y -2 Y 1 Y -2 Y 2 Y -2 Y 3 Y -3 Y 2 Y -2 Y 2 Y 1 -1 d 2 Y -2 Y 1 Y -1 Y 1 Y -1 Y 1 Y -1 Y 1 Y 1 -2 d 2 Y -1 Y 1 Y -1 Y 1 Y -1 Y 1 Y -1 Y 1 X 2 Y -2 Y 1 Y -2 Y
 2 Y -2 Y 2 Y -2 Y 2 Y -1 Y 1 Y -1 Y 1 Y -1 Y 1 Y 1 -1 d 1 Y -2 Y 1 Y -1 Y 2 Y -1 Y 1 X 1 Y -2 Y 2 Y -1 Y 2 Y -2 Y 1 Y -1 Y 1 X -1 Y 2 Y -1 Y 1 -1 d 2 Y -2 Y 2 Y -1 Y 1 Y -1 Y 2 Y -2 Y 1 1 d -2 Y 2 Y -2 Y 3 Y -2 Y 1 Y -1 Y 1 Y -2 Y 2 Y -2 Y 2 Y -1 Y
 1 1 d -2 Y 2 Y -2 Y 2 Y -2 Y 2 Y -1 Y 2 Y -2 Y 1 Y -2 Y 2 Y -2 Y 2 Y -1 Y 2 Y -3 Y 1 2 d -1 Y 1 Y -2 Y 2 Y -2 Y 2 Y -1 Y 1 Y -1 Y 1 X 1 Y -2 Y 2 Y -1 Y 1 Y -2 Y 2 Y 1 X -1 Y 1 Y -2 Y 2 Y -1 Y 1 Y 1 X -2 Y 2 Y -1 Y 1 X 1 Y -1 Y 1 Y -1 Y 1 Y -1 Y 1 X
 1 Y -1 Y 1 Y -1 Y 1 Y -2 Y 2 Y -2 Y 1 2 d -1 Y 1 Y -1 Y 2 Y -2 Y 1 Y -2 Y 3 Y -2 Y 1 X 2 Y -2 Y 1 Y -1 Y 1 Y -1 Y 1 Y -1 Y 1 Y 1 -1 d 2 Y -2 Y 1 Y -1 Y 1 Y 1 -1 d -1 Y 2 Y -1 Y 1 Y -1 Y 1 Y -1 Y 1 X 1 Y -1 Y 1 Y -2 Y 2 Y -2 Y 2 Y -2 Y 2 Y 1 -1 d 2 Y
 -2 Y 2 Y -3 Y 2 Y -1 Y 1 Y -2 Y 2 Y -2 Y 2 Y -2 Y 1 Y 1 X 1 Y -1 Y 2 Y -2 Y 1 -1 d 3 Y -2 Y 1 Y -1 Y 1 Y -1 Y 1 Y -2 Y 1 Y 1 -1 d 3 Y -2 Y 1 Y -2 Y 2 Y -2 Y 2 Y -2 Y 2 Y -2 Y 2 Y -1 Y 1 X 1 Y -1 Y 2 Y -2 Y 2 Y -2 Y 2 Y -2 Y 1 Y -1 Y 2 Y -2 Y 1 Y -2
 Y 2 Y 1 -1 d 1 Y -2 Y 2 Y -1 Y 1 Y -1 Y 1 Y 1 -1 d -1 Y 2 Y -2 Y 2 Y -1 Y 1 Y -1 Y 1 Y -1 Y 1 Y -2 Y 2 Y -2 Y 2 Y 1 -2 d 2 Y -2 Y 2 Y -1 Y 1 Y -2 Y 2 Y -1 Y 1 X 1 Y -2 Y 2 Y -2 Y 2 Y -1 Y 1 Y -2 Y 2 Y -2 Y 2 Y -2 Y 1 2 d -2 Y 2 Y -2 Y 2 Y -2 Y 2 Y
 -1 Y 2 Y -2 Y 1 X 1 Y -2 Y 2 Y -1 Y 1 Y -2 Y 2 Y 1 -1 d 1 Y -1 Y 1 Y -2 Y 2 Y -1 Y 1 X -1 Y 2 Y -1 Y 1 Y -1 Y 1 Y 1 X -2 Y 2 Y -1 Y 1 Y -1 Y 1 Y -1 Y 1 Y -1 Y 1 2 d -2 Y 1 Y -1 Y 1 1 d -2 Y 2 Y -1 Y 1 Y -1 Y 1 Y -1 Y 1 Y -1 Y 1 1 d -2 Y 2 Y -2 Y 2 Y
 -2 Y 2 Y -1 Y 1 1 d -1 Y 1 Y -1 Y 1 Y -2 Y 2 Y -2 Y 2 Y -1 Y 1 1 d -2 Y 2 Y -2 Y 2 Y -1 Y 1 Y -2 Y 2 Y -2 Y 3 Y -2 Y 1 Y 1 X -1 Y 1 Y -1 Y 1 Y -2 Y 2 Y -2 Y 2 Y -2 Y 1 Y 1 X 1 Y -2 Y 2 Y -1 Y 1 Y -2 Y 1 Y -1 Y 2 Y -2 Y 1 Y 1 X 1 Y -1 Y 1 Y -1 Y 2 Y
 -2 Y 1 Y -2 Y 2 Y -2 Y 1 Y 1 X 1 Y -1 Y 1 Y -1 Y 2 Y -2 Y 2 Y -2 Y 1 Y -1 Y 1 Y 1 -1 d 1 Y -1 Y 2 Y -2 Y 1 X 1 Y -2 Y 3 Y -3 Y 2 Y 1 -1 d 1 Y -1 Y 1 Y -1 Y 1 Y -1 Y 1 Y -1 Y 1 X -1 Y 2 Y -2 Y 2 Y -1 Y 1 Y -2 Y 2 Y -2 Y 2 Y 1 -1 d 1 Y -1 Y 1 Y -2 Y 2
 Y -1 Y 1 Y -2 Y 2 Y -2 Y 2 Y -2 Y 2 Y -1 Y 1 X 1 Y -2 Y 2 Y -1 Y 1 Y -1 Y 1 X 1 Y -1 Y 1 Y -2 Y 2 Y 1 -1 d 1 Y -1 Y 1 Y -1 Y 1 Y -1 Y 1 X -1 Y 1 Y 1 -1 d 2 Y -1 Y 1 Y -2 Y 2 Y -1 Y 1 Y -1 Y 1 Y -2 Y 2 Y -2 Y 1 Y 1 -1 d 2 Y -1 Y 1 Y -1 Y 1 Y -1 Y 1 Y
 -1 Y 1 Y -1 Y 1 X 1 Y -1 Y 1 Y -1 Y 1 Y -2 Y 2 Y -2 Y 2 Y -2 Y 1 X 2 Y -2 Y 2 Y -1 Y 1 Y -1 Y 2 Y -2 Y 2 Y -2 Y 1 Y -1 Y 1 X 1 Y -1 Y 1 Y -2 Y 1 Y 1 1 d -1 Y 1 Y -2 Y 2 Y -1 Y 1 X 1 Y -1 Y 1 Y -1 Y 1 Y -1 Y 1 X 2 Y -2 Y 1 Y -1 Y 1 Y -2 Y 2 Y -1 Y 1
 1 d -2 Y 2 Y -1 Y 2 Y -2 Y 1 X 1 Y -1 Y 1 Y -1 Y 1 Y -1 Y 1 Y -2 Y 2 Y -1 Y 1 Y -1 Y 1 X 2 Y -2 Y 1 Y -1 Y 1 Y -1 Y 1 Y -1 Y 2 Y -3 Y 2 Y -2 Y 2 Y -2 Y 2 Y -2 Y 2 Y 1 X -1 Y 1 Y -2 Y 3 Y -3 Y 1 Y 1 1 d -1 Y 2 Y -3 Y 2 Y -1 Y 1 Y -1 Y 1 X 2 Y -3 Y 2
 Y -2 Y 2 Y -1 Y 1 Y 1 -1 d 1 Y -2 Y 2 Y -2 Y 2 Y -2 Y 2 Y -2 Y 2 Y -1 Y 1 1 d -1 Y 1 Y -1 Y 1 Y -2 Y 2 Y -1 Y 1 Y -2 Y 2 Y 1 -1 d 1 Y -2 Y 2 Y -1 Y 1 X 2 Y -3 Y 2 Y -1 Y 2 Y -2 Y 1 X 1 Y -1 Y 1 Y -1 Y 1 Y -2 Y 2 Y -1 Y 1 X 1 Y -1 Y 1 Y -2 Y 1 1 d -1
 Y 1 Y -1 Y 2 Y -2 Y 2 Y -2 Y 2 Y -2 Y 3 Y 1 -1 d -2 Y 2 Y -1 Y 1 1 d -2 Y 2 Y -2 Y 2 Y -1 Y 1 Y -2 Y 2 Y 1 -1 d 1 Y -1 Y 1 Y -1 Y 1 X 1 Y -2 Y 2 Y -1 Y 1 Y -2 Y 2 Y -2 Y 2 Y -2 Y 2 Y -1 Y 1 Y -2 Y 2 Y -1 Y 1 X -1 Y 2 Y -1 Y 1 Y -1 Y 1 X -1 Y 2 Y -1
 Y 1 X 1 Y -1 Y 1 Y -1 Y 1 Y -1 Y 1 -1 d 2 Y -2 Y 3 Y -2 Y 1 Y -2 Y 2 Y -2 Y 2 Y -1 Y 2 Y -2 Y 2 Y -2 Y 1 X -1 Y 2 Y -2 Y 2 Y -1 Y 2 Y -2 Y 1 Y -1 Y 1 Y -2 Y 2 Y -2 Y 2 Y 1 -2 d 3 Y -3 Y 2 Y -2 Y 2 Y -1 Y 2 Y -3 Y 2 Y -1 Y 1 X 1 Y -1 Y 1 Y -1 Y 1 Y
 -1 Y 1 Y -1 Y 1 X 1 Y -1 Y 2 Y -2 Y 1 Y -1 Y 1 Y -2 Y 2 Y -1 Y 1 Y 1 -1 d 2 Y -3 Y 2 Y -2 Y 2 Y -2 Y 2 Y -1 Y 1 Y -1 Y 1 Y -2 Y 3 Y -3 Y 1 Y 1 X 1 Y -1 Y 1 Y -1 Y 1 Y -1 Y 1 X 1 Y -1 Y 1 Y -1 Y 1 Y -2 Y 2 Y -1 Y 1 1 d -1 Y 1 Y -2 Y 2 Y -2 Y 2 Y -1 Y
 1 X 1 Y -2 Y 2 Y -2 Y 2 Y -2 Y 2 Y -1 Y 1 Y -1 Y 2 Y -2 Y 1 X 1 Y -2 Y 2 Y -1 Y 1 Y -2 Y 2 Y -2 Y 1 2 d -1 Y 2 Y -2 Y 1 Y -1 Y 1 X 1 Y -2 Y 2 Y -2 Y 2 Y -1 Y 1 Y -2 Y 2 Y -2 Y 2 Y -2 Y 2 Y 1 X -1 Y 1 Y -2 Y 2 Y -1 Y 1 Y -1 Y 1 Y -2 Y 2 Y -2 Y 2 Y 1
 -1 d 1 Y -1 Y 1 Y -2 Y 2 Y -2 Y 2 Y -1 Y 1 Y -1 Y 2 Y -3 Y 2 Y -2 Y 3 Y 1 -2 d 1 Y -1 Y 1 Y -2 Y 2 Y -2 Y 2 Y -1 Y 1 Y -2 Y 2 Y -1 Y 2 Y -3 Y 2 Y 1 -1 d 1 Y -1 Y 1 Y -1 Y 2 Y -2 Y 1 Y -1 Y 2 Y -2 Y 1 X 1 Y -1 Y 1 1 d -2 Y 2 Y -2 Y 2 Y -1 Y 1 Y -1 Y
 1 Y -1 Y 1 1 d -2 Y 2 Y -2 Y 2 Y -1 Y 1 Y 1 -2 d 2 Y -2 Y 2 Y -1 Y 2 Y -2 Y 2 Y -3 Y 2 Y -1 Y 1 X 1 Y -2 Y 2 Y -2 Y 2 Y -1 Y 2 Y -2 Y 1 X 1 Y -2 Y 2 Y -1 Y 1 Y -1 Y 1 X 1 Y -1 Y 1 Y -2 Y 2 Y -2 Y 2 Y 1 -1 d 1 Y -2 Y 2 Y 1 X -1 Y 1 Y -2 Y 2 Y -1 Y 2
 Y -3 Y 1 2 d -2 Y 2 Y -1 Y 1 Y -1 Y 2 Y -2 Y 1 Y -2 Y 2 Y 1 -1 d 1 Y -1 Y 1 Y -2 Y 2 Y -2 Y 2 Y -1 Y 2 Y -2 Y 1 X 1 Y -2 Y 2 Y -1 Y 1 Y -1 Y 2 Y -2 Y 1 1 d -2 Y 2 Y -1 Y 1 Y -2 Y 2 Y -1 Y 1 Y -1 Y 1 Y 1 -1 d 1 Y -2 Y 2 Y -2 Y 2 Y -1 Y 1 Y -1 Y 1 Y
 -1 Y 1 Y 1 -1 d 1 Y -2 Y 3 Y -3 Y 2 Y -1 Y 1 Y -2 Y 2 Y -2 Y 2 Y -2 Y 2 Y -2 Y 2 Y -1 Y 1 Y -2 Y 1 2 d -1 Y 1 Y -2 Y 2 Y -1 Y 2 Y -2 Y 1 Y -2 Y 2 Y -2 Y 2 Y -2 Y 1 Y 1 X 1 Y -1 Y 1 Y -1 Y 1 Y -1 Y 1 X 1 Y -1 Y 1 Y -2 Y 2 Y -2 Y 2 Y -1 Y 1 -1 d 2 Y
 -2 Y 2 Y -2 Y 2 Y -2 Y 2 Y -1 Y 1 Y -2 Y 2 Y -2 Y 2 Y 1 -1 d 2 Y -2 Y 1 Y -1 Y 2 Y -2 Y 1 X 1 Y -1 Y 1 Y -1 Y 1 1 d -1 Y 1 Y -2 Y 2 Y -1 Y 1 Y -1 Y 1 Y -1 Y 2 Y 1 -3 d 2 Y -2 Y 3 Y -2 Y 1 Y -2 Y 2 Y -1 Y 1 Y -2 Y 1 2 d -1 Y 1 Y -1 Y 1 Y 1 X -2 Y 2 Y
 -2 Y 2 Y -1 Y 1 Y -2 Y 2 Y -2 Y 2 Y 1 -1 d 2 Y -2 Y 1 Y -2 Y 2 Y -2 Y 2 Y -1 Y 1 Y -1 Y 1 X 1 Y -2 Y 2 Y -1 Y 1 Y -1 Y 1 Y -1 Y 1 Y -1 Y 1 1 d -1 Y 1 Y -1 Y 1 Y -2 Y 2 Y -1 Y 1 Y 1 -1 d 1 Y -2 Y 1 2 d -2 Y 1 Y -1 Y 2 Y -2 Y 2 Y -2 Y 2 Y -2 Y 1 Y 1 1
 d -1 Y 1 Y -1 Y 1 Y -2 Y 2 Y -2 Y 2 Y -1 Y 2 Y -2 Y 1 X 2 Y -2 Y 1 Y -1 Y 2 Y -2 Y 1 Y -1 Y 1 Y -1 Y 1 X 1 Y -2 Y 2 Y -1 Y 1 X -1 Y 2 Y -1 Y 1 Y -1 Y 1 Y -1 Y 1 X 1 Y -1 Y 1 Y -1 Y 1 Y -2 Y 2 Y -1 Y 1 2 d -3 Y 2 Y -1 Y 1 Y -2 Y 2 Y -1 Y 1 Y -1 Y 1 X
 1 Y -1 Y 1 Y -1 Y 1 Y -2 Y 2 Y -1 Y 1 X -1 Y 2 Y -2 Y 2 Y -1 Y 1 Y -1 Y 1 Y 1 -1 d 1 Y -1 Y 1 Y -1 Y 1 X 1 Y -1 Y 1 Y -2 Y 2 Y -2 Y 2 Y -1 Y 1 Y -2 Y 2 Y -1 Y 1 X 1 Y -1 Y 1 Y -1 Y 1 Y -1 Y 1 Y -2 Y 2 Y -2 Y 2 Y -2 Y 2 Y -1 Y 1 X -1 Y 2 Y -2 Y 2 Y
 -2 Y 2 Y -1 Y 1 Y -1 Y 2 Y -2 Y 1 X 1 Y -1 Y 1 Y -2 Y 2 Y 1 -2 d 2 Y -2 Y 2 Y -1 Y 1 Y -1 Y 2 Y -2 Y 1 X 1 Y -1 Y 1 Y -1 Y 1 Y -1 Y 1 Y -1 Y 1 X 1 Y -1 Y 1 Y -2 Y 1 Y 1 X 2 Y -2 Y 1 Y -2 Y 2 Y 1 -2 d 2 Y -2 Y 2 Y -1 Y 1 Y -2 Y 2 Y -2 Y 1 Y 1 X 1 Y
 -1 Y 1 Y -2 Y 2 Y -2 Y 2 Y -2 Y 2 Y -2 Y 2 Y -1 Y 1 Y -1 Y 1 1 d -1 Y 2 Y -2 Y 1 Y -2 Y 2 Y -1 Y 1 Y -1 Y 1 Y 1 -1 d 1 Y -2 Y 2 Y -2 Y 2 Y -2 Y 2 Y -1 Y 1 X -1 Y 2 Y -1 Y 1 Y -1 Y 1 Y -1 Y 1 X -1 Y 2 Y -2 Y 2 Y -2 Y 2 Y -1 Y 1 Y -1 Y 1 Y -2 Y 2 Y -1
 Y 1 1 d -2 Y 2 Y -1 Y 2 Y -2 Y 1 Y -1 Y 1 X 1 Y -2 Y 2 Y -1 Y 1 Y -1 Y 1 Y -1 Y 1 1 d -2 Y 2 Y -1 Y 1 Y -2 Y 2 Y -1 Y 1 Y 1 -1 d 1 Y -1 Y 1 Y -2 Y 2 Y -2 Y 2 Y -2 Y 2 Y -1 Y 1 X -1 Y 1 Y -1 Y 2 Y -2 Y 3 Y -2 Y 1 Y -1 Y 1 X 1 Y -2 Y 2 Y -2 Y 2 Y -2 Y
 1 Y 1 X 1 Y -1 Y 1 Y -2 Y 2 Y -1 Y 2 Y -2 Y 1 Y 1 -1 d 1 Y -2 Y 2 Y -2 Y 2 Y -2 Y 2 Y -2 Y 2 Y -2 Y 2 Y -1 Y 1 X 1 Y -1 Y 2 Y -2 Y 1 Y -1 Y 1 Y -2 Y 3 Y -2 Y 1 X 2 Y -2 Y 1 Y -1 Y 1 X 1 Y -2 Y 2 Y -2 Y 2 Y -2 Y 2 Y -1 Y 1 X 1 Y -1 Y 1 Y -1 Y 1 Y -2
 Y 2 Y -2 Y 2 Y -2 Y 2 Y -1 Y 1 1 d -1 Y 2 Y -2 Y 1 Y -1 Y 1 Y -2 Y 2 Y -2 Y 2 Y -1 Y 1 Y 1 -1 d 1 Y -1 Y 2 Y -2 Y 2 Y -2 Y 1 Y 1 -1 d 1 Y -2 Y 2 Y -2 Y 1 Y 1 X 2 Y -2 Y 1 Y -1 Y 1 Y -1 Y 1 Y -2 Y 2 Y 1 X -2 Y 2 Y -1 Y 1 Y -1 Y 2 Y -2 Y 1 Y -2 Y 2 Y
 -2 Y 2 Y -1 Y 1 X 1 Y -2 Y 2 Y -2 Y 2 Y -2 Y 2 Y -1 Y 1 X -1 Y 2 Y -1 Y 2 Y -2 Y 1 Y -1 Y 1 X 1 Y -2 Y 2 Y -1 Y 1 Y -2 Y 2 Y -1 Y 1 1 d -1 Y 1 Y -2 Y 2 Y -1 Y 1 Y -2 Y 2 Y -1 Y 1 X 1 Y -1 Y 1 Y -2 Y 2 Y -1 Y 1 Y -2 Y 2 Y -1 Y 1 1 d -1 Y 1 Y -2 Y 2 Y
 -2 Y 2 Y -2 Y 2 Y -1 Y 1 X -1 Y 2 Y -2 Y 2 Y -2 Y 2 Y -2 Y 2 Y -1 Y 1 Y 1 -2 d 2 Y -2 Y 2 Y -2 Y 2 Y -1 Y 2 Y -2 Y 1 X 1 Y -2 Y 2 Y -2 Y 2 Y -2 Y 2 Y -1 Y 1 X 1 Y -2 Y 2 Y -1 Y 1 Y -1 Y 2 Y -2 Y 1 Y -2 Y 2 Y -1 Y 1 X 1 Y -1 Y 1 Y 1 X -1 Y 2 Y -3 Y 2
 Y -2 Y 2 Y -1 Y 1 Y -2 Y 2 Y -2 Y 2 Y 1 -1 d 1 Y -2 Y 2 Y -1 Y 1 Y -2 Y 2 Y -1 Y 1 X 2 Y -3 Y 1 Y -1 Y 1 2 d -2 Y 2 Y -2 Y 2 Y -2 Y 2 Y -1 Y 1 Y -2 Y 2 Y -1 Y 1 Y -1 Y 1 X 1 Y -1 Y 1 Y -1 Y 1 Y 1 -1 d 1 Y -1 Y 1 Y 1 -1 d 1 Y -1 Y 1 Y -2 Y 1 Y -1 Y 2
 Y 1 -2 d 1 Y -1 Y 2 Y -1 Y 1 Y -2 Y 2 Y -2 Y 2 Y 1 -2 d 2 Y -2 Y 2 Y -1 Y 1 Y -2 Y 2 Y -2 Y 2 Y -2 Y 2 Y -2 Y 2 Y -2 Y 2 Y -2 Y 1 2 d -1 Y 1 Y -1 Y 2 Y 1 -2 d 1 Y -1 Y 1 Y -1 Y 1 Y -2 Y 2 Y 1 X -2 Y 2 Y -2 Y 2 Y -2 Y 1 Y 1 X 1 Y -1 Y 1 Y -2 Y 2 Y -1
 Y 1 Y 1 X -1 Y 1 Y -2 Y 2 Y -1 Y 1 Y -1 Y 1 X 1 Y -1 Y 1 X -1 Y 3 Y -2 Y 2 Y -3 Y 2 Y -1 Y 1 Y -1 Y 1 X 2 Y -2 Y 1 Y -2 Y 2 Y -1 Y 1 X 1 Y -2 Y 2 Y -1 Y 1 Y -2 Y 2 Y -1 Y 1 Y 1 -1 d 1 Y -2 Y 2 Y -1 Y 1 Y -1 Y 1 1 d -1 Y 1 Y -2 Y 2 Y -1 Y 1 Y -2 Y 2
 Y -1 Y 1 1 d -1 Y 2 Y -3 Y 2 Y -2 Y 1 Y 1 X 1 Y -1 Y 1 Y -1 Y 1 Y -1 Y 2 Y -3 Y 2 Y -1 Y 1 X 1 Y -2 Y 2 Y -1 Y 1 Y -1 Y 1 Y -1 Y 1 X 1 Y -1 Y 1 Y -1 Y 1 Y -2 Y 2 Y -1 Y 1 1 d -1 Y 1 Y -1 Y 1 1 d -2 Y 2 Y -2 Y 2 Y -2 Y 2 Y -1 Y 1 Y 1 -1 d 1 Y -1 Y 1
 Y -1 Y 1 Y -1 Y 1 X 1 Y -1 Y 1 Y -2 Y 2 Y 1 X -1 Y 1 Y -2 Y 2 Y -1 Y 1 Y -1 Y 1 Y -2 Y 2 Y -1 Y 1 1 d -1 Y 1 Y -1 Y 1 Y -1 Y 1 1 d -1 Y 1 Y -1 Y 1 Y -2 Y 2 Y -1 Y 1 1 d -1 Y 1 Y -2 Y 2 Y -1 Y 1 Y 1 X -2 Y 2 Y -2 Y 2 Y -2 Y 2 Y -3 Y 3 Y -1 Y 1 X 1 Y
 -2 Y 2 Y -2 Y 2 Y -1 Y 1 Y 1 -1 d 1 Y -2 Y 2 Y -1 Y 1 X 1 Y -1 Y 1 Y -2 Y 2 Y -1 Y 1 Y 1 -2 d 2 Y -2 Y 2 Y -2 Y 2 Y -2 Y 2 Y -2 Y 2 Y -1 Y 1 2 d -3 Y 2 Y -2 Y 2 Y -1 Y 1 Y 1 X -1 Y 1 Y -1 Y 1 Y -1 Y 2 Y -2 Y 1 Y -1 Y 1 1 d -2 Y 2 Y -2 Y 2 Y -2 Y 2 Y
 -1 Y 1 Y -2 Y 2 Y -2 Y 2 Y -1 Y 1 Y -2 Y 2 Y -2 Y 1 1 d 1 Y -1 Y 1 Y -1 Y 1 Y -1 Y 1 Y -1 Y 1 1 d -2 Y 2 Y -2 Y 2 Y -1 Y 1 Y -2 Y 1 Y 1 1 d -1 Y 2 Y -3 Y 3 Y -2 Y 1 Y -1 Y 1 Y -2 Y 2 Y -1 Y 1 2 d -2 Y 1 Y -2 Y 2 Y -1 Y 2 Y -2 Y 1 Y -1 Y 1 -1 d 2 Y
 -2 Y 2 Y -1 Y 1 Y -1 Y 1 Y -2 Y 2 Y -2 Y 2 Y -2 Y 2 Y -2 Y 2 Y -1 Y 1 X -1 Y 2 Y -2 Y 2 Y -1 Y 1 Y -1 Y 2 Y -2 Y 1 X 1 Y -1 Y 1 Y -2 Y 2 Y -2 Y 2 Y -2 Y 2 Y -1 Y 1 Y -2 Y 2 Y 1 -1 d 2 Y -2 Y 1 Y -1 Y 1 Y -2 Y 1 X 2 Y -2 Y 2 Y -1 Y 1 X 1 Y -1 Y 1 X 1
 Y -1 Y 1 Y -1 Y 1 Y -2 Y 1 Y 1 X 1 Y -1 Y 1 Y -2 Y 2 Y -1 Y 1 Y -2 Y 1 1 d 1 Y -2 Y 2 Y -1 Y 1 X 1 Y -1 Y 2 Y -2 Y 1 Y -2 Y 2 Y -1 Y 1 Y -1 Y 1 X 1 Y -2 Y 2 Y -1 Y 1 Y -2 Y 1 2 d -1 Y 1 Y -2 Y 2 Y -1 Y 1 Y -1 Y 1 1 d -1 Y 1 Y -2 Y 3 Y -2 Y 2 Y -2 Y
 1 X 1 Y -2 Y 2 Y -2 Y 2 Y -1 Y 2 Y -2 Y 2 Y -1 Y 1 -1 d 1 Y -2 Y 2 Y -2 Y 2 Y -1 Y 1 X 1 Y -1 Y 2 Y -2 Y 1 Y -2 Y 2 Y -1 Y 1 X -1 Y 3 Y -3 Y 2 Y -1 Y 1 Y -1 Y 1 Y -2 Y 2 Y -1 Y 1 X -1 Y 2 Y -2 Y 2 Y -2 Y 2 Y -2 Y 2 Y -2 Y 2 Y -2 Y 1 1 d 1 Y -2 Y 2 Y
 -1 Y 1 Y -1 Y 1 Y -2 Y 2 Y -2 Y 2 Y -1 Y 1 X 1 Y -2 Y 2 Y -1 Y 1 1 d -2 Y 2 Y -1 Y 1 Y -1 Y 2 Y -2 Y 1 Y -2 Y 2 Y 1 -1 d 1 Y -2 Y 2 Y -1 Y 1 Y -1 Y 2 Y -2 Y 2 Y -3 Y 2 Y 1 -1 d 1 Y -2 Y 2 Y -2 Y 2 Y -1 Y 1 Y 1 -1 d 1 Y -1 Y 1 Y -2 Y 2 Y -1 Y 1 Y -2
 Y 2 Y -2 Y 1 1 d 1 Y -1 Y 1 Y -2 Y 2 Y -1 Y 1 Y 1 -1 d -1 Y 2 Y -1 Y 1 Y 1 -1 d 1 Y -2 Y 1 Y -1 Y 1 Y 1 X 1 Y -1 Y 1 Y -2 Y 2 Y -1 Y 1 X 1 Y -1 Y 2 Y -3 Y 2 Y -2 Y 2 Y -2 Y 2 Y -1 Y 1 X 1 Y -1 Y 2 Y -3 Y 2 Y -2 Y 2 Y -1 Y 1 Y 1 -2 d 2 Y -2 Y 2 Y -1
 Y 1 Y -1 Y 1 X 1 Y -1 Y 1 Y -1 Y 1 Y -1 Y 1 X -1 Y 2 Y -1 Y 1 Y -2 Y 2 Y -2 Y 3 Y -2 Y 1 Y -1 Y 1 X 1 Y -1 Y 1 Y -1 Y 1 Y -1 Y 1 Y 1 -1 d 1 Y -1 Y 1 Y -2 Y 2 Y -1 Y 1 Y -1 Y 1 X 1 Y -2 Y 2 Y -2 Y 2 Y -2 Y 2 Y -1 Y 1 X 2 Y -2 Y 1 Y -2 Y 1 2 d -1 Y 1
 1 d -1 Y 1 Y -1 Y 2 Y -2 Y 1 1 d -2 Y 2 Y -1 Y 1 Y -1 Y 1 Y -2 Y 2 Y -2 Y 1 Y 1 X 2 Y -2 Y 1 Y -1 Y 1 1 d -2 Y 2 Y -1 Y 1 Y -2 Y 2 Y -1 Y 1 Y -1 Y 1 1 d -1 Y 1 Y -1 Y 1 Y -1 Y 2 Y -3 Y 2 Y -1 Y 1 X 1 Y -2 Y 2 Y -1 Y 1 Y -1 Y 1 X -1 Y 2 Y -2 Y 2 Y -2
 Y 2 Y -2 Y 1 1 d 1 Y -1 Y 1 Y -2 Y 2 Y -1 Y 1 X -1 Y 2 Y -2 Y 2 Y -2 Y 2 Y -1 Y 1 X 1 Y -1 Y 1 Y -2 Y 2 Y -2 Y 2 Y -2 Y 1 Y -1 Y 2 Y -1 Y 1 X 2 Y -3 Y 1 Y -1 Y 2 Y -2 Y 2 Y -2 Y 2 Y -1 Y 1 Y 1 X -1 Y 1 Y -1 Y 1 Y -1 Y 1 Y -1 Y 2 Y -2 Y 2 Y -2 Y 1 1
 d -1 Y 1 Y -2 Y 2 Y -2 Y 2 Y -1 Y 1 Y -1 Y 1 Y 1 -1 d 1 Y -2 Y 2 Y -1 Y 1 X -1 Y 2 Y -2 Y 2 Y -1 Y 1 Y -1 Y 1 Y -1 Y 1 Y -2 Y 2 Y 1 -1 d -1 Y 2 Y -1 Y 1 Y -1 Y 2 Y -2 Y 1 Y -2 Y 2 Y -1 Y 1 1 d -1 Y 2 Y -2 Y 1 Y -1 Y 1 Y 1 X -2 Y 2 Y 1 X -1 Y 2 Y -2
 Y 1 Y -1 Y 1 Y -2 Y 2 Y -1 Y 1 Y -1 Y 1 Y 1 -1 d 1 Y -1 Y 2 Y -2 Y 1 Y -1 Y 1 X 2 Y -2 Y 1 Y -1 Y 1 Y -2 Y 2 Y -1 Y 1 Y 1 -1 d 1 Y -2 Y 1 Y 1 1 d -1 Y 1 Y -1 Y 1 Y -2 Y 2 Y -2 Y 2 Y -2 Y 2 Y -1 Y 2 Y -3 Y 2 Y 1 -1 d 1 Y -1 Y 1 Y -1 Y 1 Y -2 Y 2 Y -2
 Y 2 Y -1 Y 2 Y -2 Y 1 1 d -1 Y 2 Y -2 Y 1 Y -1 Y 1 Y -2 Y 3 Y -2 Y 1 X 1 Y -1 Y 1 Y -2 Y 2 Y -2 Y 2 Y -1 Y 1 X -1 Y 2 Y 1 -1 d 1 Y -2 Y 2 Y -2 Y 2 Y -1 Y 1 Y -1 Y 1 1 d -1 Y 1 Y -1 Y 1 Y -2 Y 2 Y -1 Y 1 Y 1 -2 d 2 Y -1 Y 1 Y -1 Y 1 X 2 Y -2 Y 2 Y -2
 Y 2 Y -3 Y 2 Y -1 Y 1 Y 1 -1 d -1 Y 2 Y -1 Y 1 Y -1 Y 1 Y -1 Y 1 X 1 Y -1 Y 1 Y -1 Y 1 Y -1 Y 1 Y 1 -2 d 2 Y -1 Y 1 X 1 Y -2 Y 2 Y -2 Y 2 Y -1 Y 1 Y -1 Y 1 Y -1 Y 1 1 d -1 Y 1 Y -2 Y 2 Y -2 Y 1 Y 1 X 1 Y -2 Y 2 Y -2 Y 2 Y -2 Y 2 Y 1 -1 d 1 Y -2 Y 2
 Y -2 Y 2 Y -2 Y 2 Y -1 Y 1 1 d -2 Y 2 Y -2 Y 2 Y -1 Y 2 Y -2 Y 2 Y -2 Y 1 Y -2 Y 2 Y -1 Y 1 Y -1 Y 1 -1 d 2 Y -2 Y 2 Y -2 Y 2 Y -1 Y 2 Y -2 Y 1 X 1 Y -1 Y 2 Y -2 Y 1 Y -1 Y 1 Y -2 Y 2 Y -2 Y 2 Y -1 Y 1 X -1 Y 1 Y -1 Y 2 Y -1 Y 2 Y -3 Y 2 Y -2 Y 2 Y
 -2 Y 1 1 d 1 Y -2 Y 2 Y -2 Y 2 Y -1 Y 1 Y -1 Y 1 X 1 Y -2 Y 2 Y -2 Y 2 Y -2 Y 2 Y -2 Y 1 Y 1 X 1 Y -1 Y 1 Y -1 Y 1 Y -2 Y 3 Y -2 Y 1 Y -1 Y 2 Y -2 Y 1 X 2 Y -2 Y 2 Y -2 Y 1 Y -1 Y 1 Y -2 Y 2 Y -1 Y 1 Y 1 X -1 Y 1 Y -2 Y 2 Y -2 Y 2 Y -1 Y 2 Y -3 Y 3
 Y -2 Y 1 1 d -1 Y 1 Y -2 Y 2 Y -1 Y 1 Y -2 Y 2 Y -1 Y 1 Y -1 Y 1 X 1 Y -1 Y 1 Y -1 Y 2 Y -2 Y 1 X 1 Y -1 Y 1 Y -1 Y 1 Y -1 Y 1 X 1 Y -1 Y 2 Y -2 Y 1 Y -1 Y 1 Y 1 -1 d 1 Y -2 Y 2 Y -2 Y 2 Y -1 Y 1 Y -2 Y 1 Y -1 Y 1 1 d 2 Y -2 Y 1 Y -1 Y 1 Y -2 Y 2 Y
 -1 Y 1 Y -1 Y 1 X 1 Y -1 Y 2 Y -2 Y 1 Y 1 -2 d 2 Y -1 Y 1 Y -2 Y 2 Y -2 Y 3 Y -2 Y 1 X 1 Y -2 Y 2 Y -2 Y 2 Y -1 Y 1 Y -1 Y 1 Y -1 Y 1 X 1 Y -1 Y 2 Y -2 Y 1 Y -1 Y 1 Y -2 Y 2 Y 1 X -2 Y 2 Y -1 Y 1 Y -1 Y 2 Y -2 Y 2 Y -2 Y 1 Y -1 Y 1 Y 1 X -2 Y 2 Y -1
 Y 2 Y -2 Y 1 Y -1 Y 2 Y -2 Y 2 Y -2 Y 1 X 2 Y -2 Y 1 Y -1 Y 1 Y 1 -1 d 1 Y -1 Y 1 Y -2 Y 2 Y -1 Y 1 Y -1 Y 1 2 d -2 Y 1 Y -1 Y 2 Y -2 Y 1 Y -2 Y 2 Y -2 Y 2 Y -2 Y 2 Y 1 -1 d 2 Y -3 Y 2 Y -2 Y 2 Y -1 Y 1 Y -1 Y 2 Y -3 Y 2 Y -2 Y 2 Y -1 Y 1 X 1 Y -1 Y
 1 Y -1 Y 1 Y -1 Y 1 Y 1 -1 d -1 Y 2 Y -1 Y 1 Y -2 Y 2 Y -1 Y 1 Y -1 Y 1 X 1 Y -1 Y 2 Y -2 Y 1 1 d -2 Y 2 Y -2 Y 2 Y -1 Y 2 Y -3 Y 2 Y -1 Y 1 1 d -1 Y 1 Y -1 Y 1 Y -2 Y 2 Y -1 Y 1 Y -2 Y 2 Y -1 Y 1 X 1 Y -1 Y 1 X 1 Y -1 Y 1 Y -1 Y 1 Y -2 Y 1 2 d -1 Y
 1 X 1 Y -1 Y 2 Y -2 Y 1 Y -1 Y 1 Y 1 -1 d 1 Y -1 Y 1 Y -2 Y 2 Y -1 Y 2 Y -2 Y 1 X 1 Y -2 Y 2 Y -1 Y 1 Y -2 Y 2 Y -2 Y 2 Y -1 Y 2 Y -2 Y 1 Y -2 Y 2 Y 1 -1 d 2 Y -3 Y 2 Y -1 Y 1 Y -2 Y 2 Y -1 Y 1 X 1 Y -2 Y 2 Y -2 Y 2 Y -2 Y 2 Y -1 Y 1 X 1 Y -1 Y 1 Y
 -1 Y 1 Y 1 X -1 Y 1 Y -1 Y 2 Y -2 Y 1 Y 1 X -2 Y 2 Y -2 Y 2 Y -1 Y 1 Y -2 Y 2 Y -2 Y 2 Y 1 -1 d 1 Y -2 Y 2 Y -1 Y 2 Y -3 Y 3 Y -2 Y 1 Y -1 Y 1 X -1 Y 2 Y -2 Y 2 Y -1 Y 2 Y -2 Y 1 Y -2 Y 2 Y -1 Y 1 Y -2 Y 2 Y 1 -1 d 1 Y -1 Y 1 Y -1 Y 1 -1 d 2 Y -1 Y
 1 Y -2 Y 2 Y -2 Y 2 Y -1 Y 1 Y -1 Y 1 X 1 Y -2 Y 2 Y -2 Y 1 Y -1 Y 3 Y -2 Y 1 Y -2 Y 1 Y 1 X -1 Y 1 Y -1 Y 2 Y -2 Y 2 Y -2 Y 2 Y -1 Y 1 Y -2 Y 1 2 d -1 Y 1 Y 1 X -1 Y 1 Y -2 Y 1 Y 1 1 d -1 Y 1 Y -1 Y 2 Y -2 Y 2 Y -2 Y 1 Y -1 Y 1 X -1 Y 2 Y -1 Y 1 Y
 -1 Y 1 Y 1 -1 d 1 Y -2 Y 2 Y -1 Y 1 Y -1 Y 1 Y -1 Y 1 Y -1 Y 1 Y -1 Y 1 Y 1 -1 d 1 Y -1 Y 2 Y -2 Y 2 Y -1 Y 1 X -1 Y 2 Y -2 Y 2 Y -2 Y 1 Y -2 Y 1 Y 1 X 1 Y -2 Y 3 Y -2 Y 2 Y -2 Y 1 Y -1 Y 1 Y 1 -1 d 1 Y -1 Y 1 Y -1 Y 1 Y 1 -1 d -1 Y 3 Y -2 Y 1 X -1
 Y 2 Y -1 Y 1 Y 1 X -1 Y 2 Y -2 Y 2 Y -3 Y 2 Y -2 Y 2 Y -2 Y 2 Y -1 Y 1 X 2 Y -2 Y 2 Y -2 Y 1 Y -1 Y 1 -1 d 2 Y -1 Y 1 Y -2 Y 2 Y -2 Y 2 Y -1 Y 1 X 1 Y -1 Y 2 Y -2 Y 1 Y -1 Y 1 X -1 Y 2 Y -1 Y 2 Y -3 Y 2 Y 1 -1 d 1 Y -1 Y 1 Y -2 Y 2 Y -1 Y 1 Y -1 Y 1
 X 2 Y -2 Y 1 Y -1 Y 1 X 2 Y -2 Y 2 Y -2 Y 2 Y -2 Y 1 Y -1 Y 1 1 d -1 Y 1 Y -1 Y 2 Y -2 Y 1 Y -2 Y 2 Y -2 Y 2 Y -1 Y 1 1 d -2 Y 2 Y -2 Y 2 Y -1 Y 2 Y -2 Y 1 -1 d 2 Y -2 Y 2 Y -2 Y 2 Y -1 Y 1 Y -2 Y 2 Y -1 Y 1 X 1 Y -2 Y 2 Y -2 Y 2 Y -1 Y 1 Y -1 Y 1 X
 -1 Y 2 Y -1 Y 1 Y -1 Y 1 Y -2 Y 2 Y -2 Y 2 Y -2 Y 2 Y -1 Y 1 X -1 Y 1 Y -1 Y 2 Y -2 Y 2 Y -1 Y 1 Y -1 Y 1 1 d -2 Y 2 Y -2 Y 2 Y -2 Y 2 Y -1 Y 1 Y -1 Y 1 Y -1 Y 1 Y 1 X -1 Y 1 Y -2 Y 2 Y -1 Y 2 Y -2 Y 1 Y -1 Y 1 Y -1 Y 2 Y -2 Y 1 X 1 Y -2 Y 2 Y -1 Y
 1 Y -1 Y 1 X 1 Y -1 Y 1 Y -1 Y 1 Y -2 Y 1 X 2 Y -1 Y 1 Y -2 Y 2 Y -2 Y 2 Y -1 Y 1 Y -2 Y 2 Y -1 Y 1 X 1 Y -1 Y 2 Y -2 Y 1 Y -2 Y 2 Y -2 Y 2 Y 1 -1 d 2 Y -3 Y 2 Y -2 Y 2 Y -2 Y 2 Y -1 Y 1 Y 1 -2 d 2 Y -2 Y 2 Y -1 Y 1 Y -2 Y 2 Y -1 Y 2 Y -2 Y 1 Y -1 Y
 1 Y -1 Y 1 2 d -2 Y 1 Y -1 Y 1 Y -2 Y 2 Y -2 Y 2 Y 1 -1 d 2 Y -2 Y 2 Y -2 Y 1 Y -1 Y 1 Y -2 Y 2 Y 1 -1 d 2 Y -2 Y 1 X 1 Y -2 Y 2 Y -2 Y 2 Y -1 Y 1 Y -1 Y 1 Y 1 X -2 Y 2 Y -2 Y 1 Y -1 Y 2 Y -1 Y 1 Y -1 Y 1 Y -1 Y 1 -1 d 2 Y -1 Y 1 Y -2 Y 2 Y -2 Y 2 Y
 -1 Y 1 X 1 Y -1 Y 1 Y -1 Y 1 X 1 Y -2 Y 2 Y -2 Y 2 Y -2 Y 2 Y -2 Y 2 Y -1 Y 2 Y -2 Y 1 Y -1 Y 1 X 1 Y -1 Y 1 Y -2 Y 2 Y -1 Y 1 Y -1 Y 1 Y 1 -1 d 1 Y -2 Y 2 Y -2 Y 2 Y 1 X -2 Y 2 Y -1 Y 2 Y -2 Y 2 Y -2 Y 1 Y -1 Y 1 2 d -2 Y 1 Y -2 Y 2 Y -2 Y 2 Y -2 Y
 2 Y -1 Y 1 Y -1 Y 1 1 d -1 Y 1 Y -1 Y 1 Y -1 Y 1 X 2 Y -2 Y 1 Y 1 -1 d 1 Y -1 Y 1 Y -1 Y 1 Y 1 -2 d 2 Y -1 Y 1 Y -2 Y 2 Y -1 Y 1 Y -2 Y 2 Y -1 Y 1 Y -1 Y 1 Y -2 Y 1 2 d -1 Y 2 Y -2 Y 1 Y -1 Y 1 X 1 Y -2 Y 2 Y -2 Y 2 Y -2 Y 2 Y -1 Y 1 Y -1 Y 1 Y -1 Y
 1 Y 1 X -1 Y 2 Y -3 Y 1 Y 1 X 1 Y -1 Y 1 Y -2 Y 2 Y -2 Y 2 Y -2 Y 2 Y -2 Y 2 Y -1 Y 2 Y -2 Y 1 X 1 Y -2 Y 2 Y -1 Y 2 Y -3 Y 2 Y -1 Y 2 Y -2 Y 1 X 1 Y -2 Y 2 Y 1 -1 d -1 Y 2 Y -1 Y 1 Y -2 Y 2 Y -1 Y 2 Y -3 Y 2 Y -1 Y 1 Y 1 -1 d 1 Y -1 Y 1 Y -2 Y 2 Y
 -2 Y 2 Y -2 Y 2 Y -2 Y 2 Y 1 X -1 Y 1 Y -2 Y 2 Y -2 Y 2 Y -1 Y 1 Y -2 Y 2 Y -1 Y 1 Y 1 X -2 Y 2 Y -1 Y 1 Y -1 Y 2 Y -2 Y 2 Y -2 Y 1 Y -1 Y 1 Y -1 Y 1 X 1 Y -2 Y 2 Y -2 Y 2 Y -1 Y 2 Y -2 Y 1 X 1 Y -1 Y 1 Y -1 Y 1 Y -1 Y 1 Y -2 Y 3 Y -2 Y 2 Y 1 -1 d 1
 Y -2 Y 1 Y -1 Y 1 Y -1 Y 1 X 1 Y -1 Y 1 -1 d 2 Y -2 Y 2 Y -2 Y 2 Y -2 Y 2 Y -2 Y 1 Y 1 X 2 Y -2 Y 1 Y -2 Y 2 Y -1 Y 1 Y -1 Y 1 1 d -2 Y 2 Y -1 Y 1 Y -1 Y 1 Y -1 Y 1 X 1 Y -2 Y 2 Y -1 Y 1 Y -1 Y 1 Y 1 X -2 Y 2 Y -1 Y 1 Y -1 Y 1 Y -2 Y 3 Y -3 Y 1 2 d
 -1 Y 1 Y -1 Y 2 Y -2 Y 1 Y -1 Y 1 Y -1 Y 1 X 2 Y -2 Y 1 Y -2 Y 2 Y -2 Y 2 Y -2 Y 2 Y -2 Y 2 Y -1 Y 1 Y -1 Y 1 Y 1 X -1 Y 1 Y -1 Y 1 Y -1 Y 1 -1 d 2 Y -2 Y 3 Y -3 Y 2 Y -1 Y 1 X -1 Y 2 Y -2 Y 2 Y -1 Y 1 Y -1 Y 1 X -1 Y 2 Y -1 Y 1 Y -1 Y 1 Y -1 Y 1 Y
 -1 Y 1 Y 1 -1 d 1 Y -2 Y 2 Y -2 Y 2 Y -2 Y 2 Y -1 Y 2 Y -2 Y 1 X 2 Y -2 Y 2 Y -2 Y 1 Y -1 Y 1 -1 d 2 Y -2 Y 2 Y -2 Y 2 Y -1 Y 1 Y -1 Y 1 Y -2 Y 2 Y 1 -2 d 2 Y -2 Y 3 Y -2 Y 1 1 d -1 Y 1 Y -1 Y 1 Y -1 Y 1 X 2 Y -2 Y 1 Y -2 Y 1 Y 1 1 d -1 Y 1 Y -1 Y 1
 X 1 Y -2 Y 2 Y -2 Y 3 Y -2 Y 1 X 1 Y -2 Y 2 Y -1 Y 1 X 2 Y -2 Y 1 Y -1 Y 2 Y -2 Y 1 X 1 Y -1 Y 1 -1 d 2 Y -2 Y 2 Y -1 Y 2 Y -2 Y 1 Y -1 Y 1 X -1 Y 2 Y -2 Y 2 Y -1 Y 1 X 1 Y -2 Y 2 Y -1 Y 1 X -1 Y 2 Y -1 Y 2 Y -2 Y 1 Y -1 Y 2 Y -2 Y 1 Y -1 Y 1 1 d -1
 Y 2 Y -3 Y 2 Y -1 Y 1 Y -1 Y 1 X 1 Y -1 Y 1 Y -2 Y 2 Y -1 Y 1 Y -1 Y 1 X -1 Y 2 Y -1 Y 1 Y -1 Y 1 1 d -1 Y 1 Y -1 Y 1 X 1 Y -1 Y 1 Y -1 Y 1 Y -1 Y 1 X -1 Y 2 Y -2 Y 2 Y -1 Y 1 Y -1 Y 2 Y -2 Y 1 X -1 Y 2 Y -1 Y 1 Y -2 Y 2 Y -2 Y 2 Y -1 Y 1 X 1 Y -1 Y
 1 Y -2 Y 2 Y -2 Y 2 Y -1 Y 1 Y -2 Y 1 2 d -1 Y 1 Y -1 Y 1 Y -2 Y 2 Y -1 Y 1 X 1 Y -2 Y 1 Y -1 Y 2 Y -1 Y 1 Y -2 Y 2 Y -2 Y 2 Y -1 Y 1 X 1 Y -1 Y 1 Y -1 Y 1 Y -1 Y 1 Y -1 Y 2 Y -2 Y 1 X 1 Y -1 Y 1 Y -2 Y 2 Y -2 Y 2 Y -2 Y 2 Y -1 Y 1 Y -1 Y 1 1 d -1 Y
 1 X 1 Y -2 Y 2 Y -2 Y 2 Y -2 Y 2 Y -1 Y 2 Y -2 Y 1 X 1 Y -2 Y 2 Y -1 Y 1 Y -2 Y 2 Y -2 Y 2 Y -2 Y 2 Y -2 Y 2 Y -2 Y 2 Y -2 Y 2 Y -2 Y 2 Y -2 Y 1 2 d -2 Y 2 Y -2 Y 2 Y -1 Y 1 X -1 Y 2 Y -1 Y 1 1 d -1 Y 2 Y -2 Y 1 Y -1 Y 1 Y -2 Y 2 Y 1 X -1 Y 1 Y -1 Y
 2 Y -2 Y 1 Y -1 Y 1 X 1 Y -1 Y 1 Y -2 Y 2 Y -2 Y 2 Y -1 Y 1 Y -1 Y 1 X 1 Y -1 Y 1 Y -1 Y 1 Y 1 -2 d 2 Y -1 Y 1 Y -1 Y 1 X 1 Y -1 Y 1 Y -1 Y 1 1 d -1 Y 2 Y -3 Y 2 Y -2 Y 2 Y -1 Y 2 Y -2 Y 1 Y -2 Y 2 Y -2 Y 1 Y 1 X 2 Y -2 Y 2 Y -2 Y 1 Y -2 Y 2 Y -2 Y
 2 Y -2 Y 2 Y -2 Y 2 Y 1 X -1 Y 2 Y -2 Y 1 Y -1 Y 1 Y -1 Y 1 Y -2 Y 1 Y 1 X 1 Y 1 -1 d 1 Y -2 Y 2 Y -1 Y 2 Y -2 Y 1 Y -2 Y 2 Y -1 Y 1 Y 1 X -1 Y 1 Y -2 Y 2 Y -2 Y 2 Y -2 Y 2 Y -1 Y 1 Y -1 Y 1 1 d -1 Y 1 X 1 Y -1 Y 1 Y -1 Y 1 X -1 Y 2 Y -1 Y 1 Y -1 Y
 1 X 1 Y -2 Y 2 Y -2 Y 2 Y -1 Y 2 Y -3 Y 2 Y -2 Y 2 Y -1 Y 1 X 1 Y -2 Y 2 Y -1 Y 1 Y -1 Y 1 Y -1 Y 1 1 d -2 Y 2 Y -1 Y 1 Y -2 Y 2 Y -2 Y 2 Y -2 Y 2 Y -2 Y 3 Y -2 Y 1 -1 d 2 Y -1 Y 1 X 1 Y -1 Y 1 Y -1 Y 1 Y -2 Y 2 Y -1 Y 1 X 1 Y -2 Y 2 Y -1 Y 1 X 1 Y
 -1 Y 1 Y -1 Y 2 Y -2 Y 1 X 1 Y -2 Y 3 Y -2 Y 2 Y -3 Y 2 Y -2 Y 2 Y -1 Y 1 X 2 Y -2 Y 1 Y -2 Y 2 Y -2 Y 2 Y -1 Y 1 Y -1 Y 1 Y 1 -1 d -1 Y 1 Y -1 Y 1 Y -1 Y 3 Y -2 Y 1 2 d -2 Y 1 Y -1 Y 1 Y -2 Y 2 Y -1 Y 1 Y 1 -1 d 1 Y -1 Y 2 Y -3 Y 2 Y -1 Y 1 X 1 Y
 -2 Y 2 Y -2 Y 2 Y -1 Y 1 Y -2 Y 2 Y -1 Y 1 X 1 Y -1 Y 1 Y -1 Y 1 Y -2 Y 1 2 d -1 Y 2 Y -2 Y 1 Y -2 Y 2 Y -2 Y 1 Y 1 1 d -1 Y 1 Y -1 Y 1 Y -1 Y 2 Y -2 Y 1 Y -1 Y 1 X -1 Y 2 Y -2 Y 2 Y -2 Y 2 Y -2 Y 2 Y -1 Y 1 Y 1 -1 d 1 Y -1 Y 1 Y -1 Y 1 Y -2 Y 2 Y
 -1 Y 1 Y -2 Y 1 1 d 1 Y -1 Y 1 Y -1 Y 1 X 1 Y -1 Y 1 Y -1 Y 2 Y -2 Y 1 X 1 Y -2 Y 2 Y -2 Y 2 Y -2 Y 2 Y -1 Y 1 Y -2 Y 2 Y -1 Y 1 X 1 Y -2 Y 2 Y -1 Y 1 Y -1 Y 1 Y -1 Y 1 Y 1 -1 d -1 Y 2 Y -1 Y 1 Y -2 Y 3 Y -2 Y 1 Y 1 -1 d 2 Y -2 Y 1 Y -1 Y 1 Y -1 Y 1
 X 2 Y -2 Y 1 Y -2 Y 2 Y -2 Y 2 Y -2 Y 2 Y 1 -1 d 1 Y -1 Y 1 Y -2 Y 3 Y -2 Y 1 Y 1 X -2 Y 1 Y 1 X 1 Y -1 Y 1 Y -1 Y 1 Y -1 Y 1 X 2 Y -2 Y 1 Y -2 Y 1 Y -1 Y 1 Y 1 -1 d 2 Y 1 X 1 Y -2 Y 1 Y -1 Y 1 Y -2 Y 2 Y -1 Y 1 X 1 Y -2 Y 2 Y -2 Y 2 Y -1 Y 2 Y -3 Y
 2 Y 1 -1 d 1 Y -2 Y 2 Y -1 Y 1 Y -1 Y 1 Y -1 Y 1 X 2 Y -2 Y 1 Y -2 Y 2 Y -2 Y 2 Y -2 Y 2 Y -1 Y 1 Y -2 Y 1 1 d 1 Y -2 Y 2 Y -1 Y 1 Y -2 Y 2 Y -2 Y 2 Y -1 Y 1 X 1 Y -1 Y 1 Y -2 Y 2 Y -1 Y 1 X -1 Y 2 Y -1 Y 1 Y -1 Y 1 X 1 Y -1 Y 1 Y -2 Y 2 Y -2 Y 2 Y
 -2 Y 2 Y -2 Y 2 Y -1 Y 1 Y -2 Y 2 Y -1 Y 1 1 d -2 Y 2 Y -2 Y 3 Y -2 Y 1 Y -2 Y 2 Y -2 Y 2 Y -1 Y 1 X 2 Y -2 Y 2 Y -2 Y 2 Y -3 Y 2 Y -1 Y 1 Y 1 -1 d 1 Y -1 Y 1 Y -1 Y 1 Y -1 Y 1 Y -2 Y 1 2 d -2 Y 2 Y -1 Y 1 Y -1 Y 1 Y 1 -1 d 1 Y -1 Y 1 Y -2 Y 2 Y 1
 -2 d 2 Y -1 Y 1 Y -1 Y 1 Y -1 Y 2 Y -2 Y 1 Y 1 X -1 Y 1 Y -1 Y 1 Y -1 Y 1 X 2 Y -2 Y 1 Y -1 Y 2 Y -2 Y 1 Y -2 Y 2 Y -2 Y 2 Y 1 -1 d 1 Y -2 Y 2 Y -2 Y 2 Y -2 Y 2 Y -1 Y 1 Y -2 Y 2 Y -1 Y 1 Y -1 Y 1 X 1 Y -2 Y 2 Y -2 Y 2 Y -1 Y 1 Y 1 X -2 Y 2 Y -1 Y 1
 Y -1 Y 1 Y -2 Y 2 Y -1 Y 1 X 1 Y -1 Y 1 Y -2 Y 2 Y -2 Y 2 Y -1 Y 1 1 d -1 Y 1 Y -2 Y 2 Y -1 Y 1 Y -2 Y 2 Y -2 Y 2 Y -2 Y 2 Y -1 Y 1 Y -1 Y 2 Y -2 Y 1 2 d -2 Y 1 Y -2 Y 2 Y -1 Y 1 1 d -2 Y 2 Y 1 X -1 Y 1 Y -1 Y 2 Y -2 Y 1 Y -1 Y 1 1 d -2 Y 2 Y -1 Y 1
 Y -1 Y 1 Y -1 Y 1 X 1 Y -1 Y 1 Y -2 Y 2 Y -1 Y 1 Y -2 Y 1 X 1 Y -1 Y 3 Y -2 Y 2 Y -2 Y 2 Y -1 Y 1 X -1 Y 2 Y -2 Y 1 Y -1 Y 1 Y -2 Y 2 Y -2 Y 2 Y -2 Y 1 2 d -1 Y 1 Y -2 Y 2 Y -2 Y 2 Y -1 Y 1 X 1 Y -2 Y 1 Y -1 Y 2 Y -1 Y 1 Y 1 -1 d 2 Y -2 Y 1 Y 1 X 1
 Y -2 Y 1 Y -2 Y 3 Y -2 Y 1 X -1 Y 1 Y -1 Y 3 Y -2 Y 1 Y -1 Y 1 Y -2 Y 2 Y -2 Y 2 Y -1 Y 1 Y 1 -1 d 1 Y -1 Y 1 Y -2 Y 2 Y -1 Y 2 Y -2 Y 1 1 d -1 Y 1 Y -2 Y 2 Y -1 Y 1 Y -1 Y 1 1 d -2 Y 2 Y -2 Y 2 Y -1 Y 1 Y 1 X 1 Y -2 Y 1 Y -2 Y 2 Y -2 Y 2 Y -2 Y 2 Y
 -1 Y 1 Y -1 Y 1 Y -1 Y 1 1 d -1 Y 1 Y -2 Y 2 Y -1 Y 2 Y -2 Y 1 Y -1 Y 1 Y -1 Y 1 X 1 Y -1 Y 1 Y -1 Y 1 Y -2 Y 1 Y -1 Y 2 Y -2 Y 2 Y -2 Y 1 2 d -2 Y 2 Y -1 Y 1 Y -1 Y 1 Y -1 Y 1 X 1 Y -1 Y 2 Y -2 Y 2 Y -2 Y 1 Y -2 Y 2 Y -1 Y 1 2 d -3 Y 2 Y -2 Y 3 Y
 -2 Y 1 Y -1 Y 1 X 1 Y -2 Y 2 Y -1 Y 1 Y -1 Y 1 Y -1 Y 1 X 2 Y -3 Y 2 Y -2 Y 2 Y -1 Y 1 Y -2 Y 1 2 d -1 Y 1 Y -1 Y 1 Y -1 Y 2 Y -2 Y 1 Y -1 Y 1 Y -2 Y 2 Y 1 X -2 Y 2 Y -1 Y 1 Y -2 Y 2 Y -1 Y 1 Y -1 Y 1 X 1 Y -2 Y 3 Y -2 Y 1 Y -1 Y 1 Y -1 Y 1 X 1 Y -2
 Y 2 Y -1 Y 1 Y -2 Y 1 Y 1 1 d -1 Y 1 Y -2 Y 2 Y -1 Y 1 Y 1 X -2 Y 2 Y -1 Y 1 X -1 Y 2 Y -1 Y 1 Y -2 Y 2 Y -1 Y 1 Y -1 Y 1 Y -2 Y 2 Y -1 Y 1 -1 d 2 Y -1 Y 1 Y -1 Y 2 Y -2 Y 1 Y 1 X -2 Y 2 Y -2 Y 2 Y -2 Y 2 Y -1 Y 1 Y -1 Y 1 1 d -2 Y 2 Y -2 Y 2 Y -1 Y
 1 Y -1 Y 1 X 2 Y -2 Y 2 Y -2 Y 1 Y -1 Y 1 -1 d 2 Y -2 Y 2 Y -2 Y 2 Y -1 Y 1 X 1 Y -1 Y 1 Y -2 Y 2 Y -2 Y 2 Y -1 Y 1 Y -1 Y 1 X -1 Y 2 Y 1 X -1 Y 1 Y -1 Y 1 Y -1 Y 1 X 1 Y -1 Y 1 Y -1 Y 1 Y -1 Y 2 Y -2 Y 1 X 1 Y -2 Y 2 Y -1 Y 1 Y -1 Y 1 Y -1 Y 1 Y -1
 Y 1 X -1 Y 2 Y -2 Y 2 Y -2 Y 2 Y -1 Y 1 Y -2 Y 2 Y -1 Y 1 X -1 Y 2 Y -1 Y 1 Y -1 Y 2 Y -2 Y 1 X 2 Y -2 Y 1 Y -1 Y 1 X -1 Y 2 Y -1 Y 2 Y -2 Y 1 Y -1 Y 1 Y -2 Y 1 2 d -2 Y 2 Y -1 Y 1 Y -1 Y 1 Y 1 -1 d 1 Y -1 Y 2 Y -3 Y 2 Y -2 Y 2 Y -1 Y 1 Y -1 Y 1 Y
 -1 Y 1 X 2 Y -2 Y 2 Y -2 Y 2 Y -3 Y 2 Y -1 Y 1 -1 d 2 Y -1 Y 1 Y -1 Y 1 Y -1 Y 1 X 2 Y -3 Y 2 Y -2 Y 2 Y -1 Y 2 Y -3 Y 2 Y -2 Y 2 Y -2 Y 2 Y -1 Y 1 X 1 Y -1 Y 1 Y -1 Y 1 Y -1 Y 1 X -1 Y 2 Y -2 Y 2 Y -2 Y 1 Y 1 X 2 Y -2 Y 1 Y -1 Y 1 X 1 Y -1 Y 1 Y -1
 Y 2 Y -2 Y 1 Y 1 -1 d 1 Y -1 Y 1 Y -2 Y 2 Y -1 Y 1 X 1 Y -2 Y 3 Y -2 Y 1 Y -1 Y 1 Y -2 Y 2 Y -2 Y 2 Y 1 -1 d 1 Y -1 Y 1 Y -1 Y 1 Y -2 Y 2 Y 1 -1 d 1 Y -1 Y 1 Y 1 -1 d 1 Y -1 Y 1 X -1 Y 2 Y -1 Y 1 Y -2 Y 1 1 d 1 Y -2 Y 2 Y -1 Y 1 X -1 Y 1 Y -1 Y 1 Y
 1 X 1 Y -1 Y 1 Y -2 Y 2 Y -1 Y 1 Y -1 Y 1 Y -1 Y 1 X 1 Y -1 Y 1 Y -1 Y 1 Y -2 Y 1 2 d -1 Y 1 Y -2 Y 2 Y -2 Y 1 Y 1 X -1 Y 2 Y -2 Y 2 Y -2 Y 2 Y -1 Y 1 Y -1 Y 1 Y 1 -1 d 2 Y -2 Y 1 Y -1 Y 1 Y -1 Y 1 Y -1 Y 1 X 2 Y -2 Y 1 Y -1 Y 2 Y -2 Y 1 Y 1 -1 d -1
 Y 1 Y -1 Y 1 Y -1 Y 1 Y -1 Y 2 Y -2 Y 1 2 d -2 Y 2 Y -1 Y 1 Y -1 Y 1 Y -2 Y 1 Y 1 2 d -2 Y 1 Y -2 Y 2 Y -2 Y 2 Y -2 Y 2 Y -1 Y 1 Y -1 Y 1 X 1 Y -1 Y 1 Y -2 Y 1 2 d -1 Y 1 Y -1 Y 1 Y -1 Y 1 X 2 Y -2 Y 1 Y -2 Y 2 Y -2 Y 1 Y 1 X 1 Y -2 Y 3 Y -3 Y 2 Y
 -1 Y 1 Y -1 Y 1 Y -1 Y 1 Y 1 -2 d 2 Y -1 Y 1 X -1 Y 2 Y -1 Y 1 Y -2 Y 2 Y -1 Y 1 1 d -1 Y 1 Y -1 Y 2 Y -2 Y 1 Y -1 Y 1 X -1 Y 2 Y -1 Y 1 X 1 Y -2 Y 2 Y -2 Y 2 Y -2 Y 2 Y -1 Y 1 1 d -2 Y 2 Y -2 Y 3 Y -3 Y 2 Y -2 Y 3 Y -2 Y 1 1 d -2 Y 2 Y -1 Y 2 Y -2
 Y 1 Y -2 Y 1 2 d -1 Y 1 Y -1 Y 1 Y -1 Y 1 Y -2 Y 1 1 d 1 Y -2 Y 2 Y -2 Y 2 Y -2 Y 2 Y -1 Y 2 Y -3 Y 2 Y -1 Y 2 Y -2 Y 1 X -1 Y 2 Y -2 Y 2 Y -2 Y 2 Y -1 Y 1 Y 1 -2 d 2 Y -2 Y 2 Y -2 Y 2 Y -1 Y 2 Y -2 Y 1 X 2 Y -2 Y 1 Y -1 Y 1 Y -1 Y 2 Y -2 Y 1 X 2 Y
 -2 Y 2 Y -2 Y 1 Y -1 Y 1 Y -2 Y 2 Y -2 Y 2 Y 1 X -1 Y 1 Y -2 Y 2 Y -1 Y 2 Y -3 Y 2 Y -2 Y 1 Y 1 X 1 Y -1 Y 1 Y -1 Y 2 Y -2 Y 1 X 1 Y -1 Y 1 Y -1 Y 1 Y -2 Y 2 Y -2 Y 2 Y -1 Y 1 X 1 Y -1 Y 1 Y -1 Y 1 Y -1 Y 1 Y -2 Y 2 Y -1 Y 1 Y -1 Y 1 1 d -2 Y 2 Y -1
 Y 1 Y -2 Y 1 Y -1 Y 1 Y 1 X 2 Y -2 Y 1 Y -1 Y 1 Y -1 Y 1 Y -2 Y 2 Y 1 -1 d -1 Y 2 Y -1 Y 1 Y -2 Y 2 Y -1 Y 1 Y -1 Y 1 X 1 Y -1 Y 1 Y -1 Y 1 Y -2 Y 2 Y -2 Y 2 Y 1 -2 d 2 Y -1 Y 1 Y -2 Y 2 Y -1 Y 1 X 1 Y -2 Y 1 Y -1 Y 2 Y -2 Y 2 Y -1 Y 1 Y -1 Y 1 X 2
 Y -2 Y 1 Y -2 Y 2 Y -2 Y 2 Y -2 Y 2 Y -2 Y 1 Y 1 X 2 Y -2 Y 2 Y -2 Y 1 Y -1 Y 1 Y -1 Y 1 Y -2 Y 1 2 d -2 Y 2 Y -2 Y 2 Y -2 Y 2 Y -1 Y 1 X 2 Y -2 Y 1 Y -1 Y 1 Y -1 Y 2 Y -2 Y 1 Y -1 Y 1 Y 1 X -1 Y 1 Y -2 Y 2 Y -1 Y 1 Y -1 Y 1 X 2 Y -2 Y 1 Y -2 Y 1 Y
 -1 Y 2 Y -1 Y 1 -1 d 2 Y -2 Y 2 Y -2 Y 2 Y -2 Y 2 Y -1 Y 1 Y -1 Y 1 Y -1 Y 1 Y -1 Y 1 X 2 Y -2 Y 2 Y -2 Y 2 Y -2 Y 1 Y -1 Y 1 X 1 Y -2 Y 2 Y -2 Y 2 Y -1 Y 1 Y 1 -1 d 1 Y -1 Y 1 Y -2 Y 1 Y 1 -1 d 2 Y -2 Y 2 Y -2 Y 3 Y -3 Y 2 Y -1 Y 1 1 d -2 Y 2 Y -1
 Y 2 Y -2 Y 2 Y -2 Y 1 Y -1 Y 1 Y -2 Y 1 2 d -2 Y 2 Y -1 Y 1 Y -1 Y 1 Y -1 Y 1 Y -1 Y 1 X 2 Y -2 Y 1 X 1 Y -1 Y 1 Y -1 Y 1 Y -2 Y 2 Y -1 Y 1 2 d -2 Y 1 Y -1 Y 1 Y -2 Y 2 Y -1 Y 2 X -1 Y 2 Y -1 Y 1 Y -1 Y 1 Y 1 X -2 Y 2 Y -2 Y 2 Y -2 Y 2 Y 1 -1 d 1 Y
 -1 Y 1 Y -2 Y 2 Y -1 Y 1 X 1 Y -1 Y 1 Y -2 Y 2 Y -1 Y 1 X 2 Y -2 Y 1 X 1 Y -2 Y 2 Y -1 Y 2 Y -2 Y 1 Y -1 Y 1 Y 1 -1 d 1 Y -1 Y 1 Y -1 Y 1 Y -1 Y 1 Y -1 Y 1 2 d -2 Y 1 Y -2 Y 2 Y -2 Y 1 Y -1 Y 2 Y -1 Y 1 2 d -2 Y 1 Y -2 Y 2 Y -1 Y 1 Y -1 Y 1 Y 1 X -1
 Y 1 Y -2 Y 2 Y -1 Y 1 Y -1 Y 2 Y -3 Y 1 2 d -2 Y 2 Y -1 Y 1 Y -1 Y 1 X -1 Y 2 Y -1 Y 1 Y -1 Y 1 Y -1 Y 2 Y -2 Y 1 X 1 Y -1 Y 1 Y -2 Y 2 Y -1 Y 1 X -1 Y 2 Y -1 Y 1 Y 1 -1 d 2 Y -2 Y 1 Y -1 Y 1 1 d -1 Y 1 Y -1 Y 2 Y -3 Y 3 Y -2 Y 1 Y -1 Y 1 1 d -1 Y 2
 Y -2 Y 1 Y -1 Y 1 X -1 Y 1 Y -1 Y 2 Y -1 Y 2 Y -2 Y 1 Y 1 X -1 Y 1 Y -1 Y 1 Y -1 Y 1 Y -2 Y 1 Y 1 X 1 Y -1 Y 1 Y -2 Y 2 Y -2 Y 2 Y -1 Y 1 X -1 Y 2 Y -1 Y 1 Y -1 Y 1 Y -2 Y 2 Y 1 -1 d -1 Y 2 Y -2 Y 2 Y -2 Y 1 Y 1 X -1 Y 2 Y -1 Y 2 Y -2 Y 2 Y -2 Y 1 1
 d -1 Y 1 Y -1 Y 1 Y -2 Y 2 Y -1 Y 1 1 d -2 Y 2 Y -1 Y 1 Y -1 Y 1 -1 d 3 Y -3 Y 2 Y -1 Y 2 Y -2 Y 1 X 2 Y -2 Y 1 Y -1 Y 1 Y -1 Y 1 X 1 Y -1 Y 1 X 1 Y -1 Y 1 1 d -2 Y 2 Y -2 Y 1 Y 1 X 1 Y -1 Y 2 Y -2 Y 2 Y -2 Y 1 X 1 Y -1 Y 1 Y -1 Y 1 Y -1 Y 1 X 1 Y
 -2 Y 2 Y -2 Y 2 Y -2 Y 2 Y -1 Y 1 Y -2 Y 2 Y -2 Y 2 Y -1 Y 1 X -1 Y 2 Y -1 Y 1 Y -1 Y 1 1 d -1 Y 1 Y -1 Y 2 Y -2 Y 1 X 1 Y -2 Y 2 Y -1 Y 1 Y -2 Y 1 1 d 1 Y -1 Y 1 Y -1 Y 1 X 2 Y -2 Y 1 Y -1 Y 1 X 1 Y -2 Y 2 Y -2 Y 2 Y -2 Y 2 Y -2 Y 2 Y -1 Y 1 X 1 Y
 -1 Y 1 Y -1 Y 1 X 1 Y -1 Y 1 Y -1 Y 1 Y 1 -1 d 1 Y -2 Y 2 Y -2 Y 2 Y -2 Y 2 Y -1 Y 1 X 1 Y -2 Y 2 Y -2 Y 1 Y 1 1 d -2 Y 2 Y -2 Y 3 Y -2 Y 1 Y -2 Y 2 Y -1 Y 1 Y -2 Y 2 Y -2 Y 2 Y 1 -1 d 1 Y -1 Y 1 Y -1 Y 1 Y -1 Y 2 Y -2 Y 1 Y -1 Y 1 X 2 Y -2 Y 1 Y -1
 Y 1 X -1 Y 2 Y -2 Y 2 Y -1 Y 1 X 1 Y -2 Y 2 Y -1 Y 1 Y -2 Y 2 Y -2 Y 2 Y -2 Y 2 Y -2 Y 1 2 d -1 Y 2 Y -3 Y 2 Y -1 Y 1 Y -1 Y 1 X 1 Y -2 Y 2 Y -1 Y 2 Y -2 Y 1 1 d -1 Y 1 Y -1 Y 1 Y -1 Y 1 Y -1 Y 1 Y 1 -2 d 2 Y -2 Y 2 Y -1 Y 1 Y -2 Y 1 3 d -2 Y 1 Y -1
 Y 1 Y -1 Y 1 X 2 Y -2 Y 1 Y 1 -1 d -1 Y 3 Y -2 Y 1 Y -2 Y 2 Y 1 -1 d -1 Y 2 Y -1 Y 1 Y -1 Y 1 Y -2 Y 1 Y 1 1 d -1 Y 1 Y -1 Y 1 Y 1 -1 d 1 X 1 Y -1 Y 2 Y -2 Y 1 Y -1 Y 1 X 1 Y -1 Y 1 Y -2 Y 2 Y -1 Y 1 X 1 Y -1 Y 1 Y -2 Y 2 Y -1 Y 1 Y -1 Y 1 X -1 Y 2
 Y -2 Y 2 Y -2 Y 2 Y -1 Y 1 X 1 Y -1 Y 1 Y -2 Y 1 Y -1 Y 2 Y -2 Y 2 Y 1 X -1 Y 1 X 1 Y -1 Y 1 Y 1 X 1 Y -2 Y 1 Y -1 Y 1 1 d -1 Y 1 Y -2 Y 1 X 1 Y -1 Y 1 Y -1 Y 2 Y -1 Y 1 Y -1 Y 1 X 1 Y -2 Y 2 Y -1 Y 2 Y -3 Y 2 Y -1 Y 1 1 d 1 Y -2 Y 1 Y -2 Y 2 Y -1 Y
 1 X -1 Y 2 Y -2 Y 2 Y -1 Y 1 Y 1 X -1 Y 1 Y -1 Y 1 Y -1 Y 1 Y -1 Y 1 X 1 Y -2 Y 2 Y -1 Y 1 X 1 Y -1 Y 1 Y -1 Y 1 X 1 Y -1 Y 2 Y -2 Y 1 Y -2 Y 1 1 d 1 Y -2 Y 2 Y -1 Y 2 Y -2 Y 2 Y -2 Y 1 X -1 Y 2 Y -1 Y 1 Y -1 Y 1 X 1 Y -1 Y 1 Y -1 Y 1 Y -1 Y 1 X 1 Y
 -2 Y 2 Y -2 Y 1 Y 1 X 1 Y -1 Y 1 Y -1 Y 1 Y -1 Y 1 1 d -2 Y 3 Y -2 Y 1 X -1 Y 2 Y -1 Y 1 Y -1 Y 1 Y -2 Y 2 Y 1 X -2 Y 1 Y 1 X -1 Y 2 Y -1 Y 1 X 1 Y -2 Y 1 Y -1 Y 2 Y -1 Y 1 Y -1 Y 1 1 d -2 Y 2 Y -1 Y 1 X 1 Y -2 Y 3 Y -2 Y 2 Y -2 Y 1 Y -1 Y 1 X 1 Y
 -1 Y 1 Y -2 Y 1 Y 1 X 1 Y -1 Y 1 Y -1 Y 1 Y -2 Y 2 Y -1 Y 1 1 d -2 Y 2 Y -2 Y 2 Y -1 Y 1 Y -2 Y 2 Y -2 Y 2 Y 1 -1 d 1 Y -1 Y 1 Y 1 -1 d 1 Y -1 Y 2 Y -2 Y 1 X 1 Y -1 Y 1 Y -1 Y 1 Y -1 Y 1 Y -1 Y 1 X 1 Y -1 Y 1 Y -1 Y 1 X 1 Y -1 Y 1 Y -1 Y 1 Y -1 Y 2
 Y -3 Y 3 Y -3 Y 2 Y -1 Y 1 X 1 Y -1 Y 1 X 1 Y -2 Y 2 Y -2 Y 1 1 d 2 Y -2 Y 1 1 d -1 Y 1 Y -1 Y 1 Y -2 Y 2 Y 1 -2 d 2 Y -2 Y 2 Y -1 Y 1 Y -2 Y 2 Y -1 Y 1 Y -1 Y 1 Y -2 Y 2 Y -2 Y 2 Y -1 Y 1 X 1 Y -1 Y 1 Y -1 Y 1 X 1 Y -2 Y 2 Y -1 Y 1 Y -1 Y 1 X 1 Y
 -2 Y 2 Y 1 -1 d 1 Y -1 Y 1 Y -1 Y 1 Y -1 Y 1 X 1 Y -2 Y 2 Y -2 Y 2 Y -1 Y 1 Y -2 Y 2 Y -1 Y 1 Y -2 Y 2 Y 1 -1 d 1 Y -2 Y 1 Y 1 1 d -2 Y 2 Y -2 Y 2 Y -1 Y 1 Y -2 Y 2 Y -1 Y 1 X 1 Y -1 Y 1 Y -1 Y 1 X 1 Y -2 Y 2 Y -1 Y 1 Y -1 Y 1 Y -1 Y 1 X 1 Y -2 Y 2
 Y -2 Y 3 Y -2 Y 2 Y -2 Y 1 Y -2 Y 2 Y -1 Y 1 Y 1 -1 d 1 Y -1 Y 2 Y -2 Y 1 Y -1 Y 1 Y -2 Y 2 Y -2 Y 2 Y -2 Y 2 Y 1 -1 d 1 Y -1 Y 1 Y -1 Y 1 Y -2 Y 3 Y -2 Y 1 Y 1 -1 d 1 Y -2 Y 2 Y -1 Y 1 Y -1 Y 1 X 1 Y -2 Y 2 Y -1 Y 1 Y -2 Y 2 Y -2 Y 2 Y -1 Y 1 -1 d
 2 Y -1 Y 1 X 1 Y -2 Y 2 Y -2 Y 2 Y -2 Y 2 Y -1 Y 1 X 1 Y -2 Y 1 Y 1 1 d -3 Y 2 Y -1 Y 2 Y -1 Y 1 X -1 Y 2 Y -1 Y 1 Y 1 -1 d 1 Y -1 Y 2 Y -2 Y 1 Y -2 Y 2 Y -1 Y 1 Y 1 -1 d -1 Y 2 Y -2 Y 2 Y -2 Y 2 Y -2 Y 2 Y -1 Y 1 X 1 Y -2 Y 2 Y 1 -2 d 2 Y -2 Y 2 Y
 -2 Y 3 Y -2 Y 1 Y -1 Y 2 Y -2 Y 1 X 1 Y -2 Y 1 Y -1 Y 1 Y -1 Y 2 Y -2 Y 2 Y -2 Y 2 Y -1 Y 1 X 1 Y -1 Y 1 Y -1 Y 2 Y -2 Y 2 Y -2 Y 1 Y -2 Y 2 Y 1 X -1 Y 1 Y -2 Y 2 Y -1 Y 1 Y -1 Y 2 Y -2 Y 1 2 d -2 Y 1 Y -1 Y 1 Y -2 Y 2 Y 1 -1 d 1 Y -1 Y 1 Y -1 Y 1 Y
 -1 Y 1 Y -2 Y 2 Y -2 Y 1 2 d -1 Y 2 Y -2 Y 1 Y -2 Y 1 Y 2 X 1 Y -1 Y 1 Y -1 Y 1 -1 d 2 Y -2 Y 2 Y -2 Y 1 Y -1 Y 2 Y -1 Y 1 Y -1 Y 1 X 1 Y -1 Y 1 Y -2 Y 2 Y -1 Y 2 Y -2 Y 1 X 1 Y -1 Y 1 1 d -1 Y 1 Y -1 Y 1 Y -2 Y 2 Y -1 Y 1 Y 1 -1 d 1 X 1 Y -2 Y 2 Y
 -2 Y 2 Y -1 Y 2 Y -2 Y 1 Y -1 Y 1 X 1 Y -1 Y 1 Y -1 Y 1 Y -2 Y 2 Y -1 Y 1 Y -2 Y 1 1 d 1 Y -1 Y 1 Y 1 -1 d 1 Y -2 Y 2 Y -2 Y 2 Y -1 Y 1 X 2 Y -2 Y 1 Y -1 Y 1 Y -1 Y 1 X 1 Y -1 Y 1 Y -1 Y 1 Y -2 Y 1 1 d 1 Y -1 Y 1 Y -1 Y 1 Y -2 Y 2 Y -1 Y 1 2 d -2 Y
 1 1 d -1 Y 1 Y -2 Y 3 Y -2 Y 1 X 1 Y -1 Y 2 Y -2 Y 1 X 2 Y -2 Y 1 Y -1 Y 1 Y 1 -1 d 1 Y -2 Y 2 Y -2 Y 2 Y -1 Y 1 Y -1 Y 1 X -1 Y 2 Y -1 Y 1 Y -2 Y 2 Y -2 Y 2 Y 1 -1 d 2 Y -2 Y 1 Y -1 Y 1 X 1 Y -1 Y 1 Y -1 Y 1 Y 1 X -2 Y 2 Y -2 Y 2 Y -1 Y 2 Y -2 Y 1
 Y 1 -1 d 1 Y -1 Y 1 X -1 Y 2 Y -1 Y 2 Y -2 Y 1 X -1 Y 1 Y 1 1 d -1 Y 1 Y -1 Y 1 Y 1 -1 d 2 Y -2 Y 1 Y -1 Y 1 X 1 Y -1 Y 1 Y -1 Y 1 Y -1 Y 1 X 1 Y -1 Y 1 -1 d 1 Y -1 Y 1 Y -1 Y 1 Y 1 -1 d 1 Y -1 Y 2 Y -2 Y 2 Y -1 Y 1 Y 1 X -1 Y 2 Y -2 Y 1 Y -2 Y 1 1
 d 1 Y -1 Y 2 Y -2 Y 1 X 2 Y -2 Y 1 Y -1 Y 1 Y 1 X -1 Y 1 Y -1 Y 1 Y -2 Y 1 Y 1 X 1 Y -2 Y 2 Y -1 Y 1 X 1 Y -1 Y 2 Y -3 Y 2 Y -1 Y 1 1 d -1 Y 1 Y -1 Y 1 1 d -1 Y 1 Y -1 Y 1 Y -1 Y 1 X -1 Y 2 Y -2 Y 2 Y -2 Y 3 Y -2 Y 1 -1 d 2 Y -1 Y 1 Y -1 Y 2 Y -2 Y
 1 Y -1 Y 1 Y 1 -1 d 2 Y -2 Y 1 Y -1 Y 1 Y -1 Y 1 1 d -1 Y 1 Y -2 Y 2 Y -1 Y 1 1 d -1 Y 1 X 1 Y -1 Y 1 Y -1 Y 2 Y -2 Y 1 Y -2 Y 2 Y -2 Y 1 Y 1 X 1 Y -1 Y 1 Y -1 Y 1 Y -1 Y 1 -1 d 2 Y -1 Y 1 Y -1 Y 1 Y -1 Y 1 Y -2 Y 2 Y -2 Y 1 1 d 1 Y -2 Y 2 Y -1 Y 1
 Y -1 Y 1 Y -1 Y 1 Y -1 Y 1 X 2 Y -2 Y 1 Y -1 Y 1 Y -1 Y 1 Y -2 Y 3 Y -2 Y 1 X 1 Y -2 Y 2 Y -1 Y 1 Y -1 Y 1 1 d -2 Y 1 Y 1 X 1 Y -1 Y 1 Y -1 Y 2 Y -2 Y 1 1 d -1 Y 1 Y -1 Y 1 Y -1 Y 1 1 d -1 Y 1 Y -1 Y 1 X 1 Y -2 Y 2 Y -1 Y 1 Y -2 Y 2 Y 1 -1 d 1 Y -1
 Y 2 Y -2 Y 1 X 1 Y -1 Y 1 Y -1 Y 1 Y -1 Y 1 Y 1 -1 d 1 Y -1 Y 1 Y -1 Y 1 X 1 Y -1 Y 2 Y -2 Y 1 Y -1 Y 1 Y 1 -1 d 1 Y -2 Y 2 Y -1 Y 1 Y -1 Y 2 Y -2 Y 1 1 d -2 Y 2 Y -2 Y 2 Y -1 Y 1 Y -1 Y 1 Y -1 Y 1 Y -1 Y 1 Y -2 Y 2 Y -1 Y 1 X 1 Y -1 Y 2 Y -2 Y 1 Y
 -1 Y 1 Y -1 Y 1 X -1 Y 2 Y -1 Y 1 X -1 Y 2 Y -1 Y 2 Y -2 Y 1 X 2 Y -2 Y 2 Y -2 Y 1 Y 1 -1 d 1 Y -1 Y 1 Y -1 Y 1 Y -1 Y 1 X 1 Y -1 Y 1 Y -1 Y 1 Y -2 Y 1 Y 1 X -1 Y 2 Y -2 Y 1 Y 1 X 1 Y -1 Y 1 Y -1 Y 2 Y -2 Y 1 X 1 Y -1 Y 1 Y -1 Y 1 X 1 Y -1 Y 1 1 d
 -2 Y 2 Y -1 Y 1 1 d -1 Y 2 Y -2 Y 1 Y -1 Y 1 Y -1 Y 1 Y -1 Y 1 X 1 Y -1 Y 1 Y -2 Y 1 Y 1 1 d -2 Y 2 Y -1 Y 1 Y -2 Y 3 Y -2 Y 1 Y 1 -1 d 1 Y -2 Y 2 Y -1 Y 1 Y 1 -1 d 1 Y -1 Y 1 Y -1 Y 1 Y -1 Y 1 Y -1 Y 1 Y 1 -1 d 1 Y -1 Y 1 Y -1 Y 1 1 d -2 Y 2 Y -2 Y
 2 Y -1 Y 1 Y -1 Y 1 X -1 Y 2 Y -1 Y 1 Y -1 Y 1 X 1 Y -1 Y 1 Y -2 Y 1 Y 1 X 1 Y -1 Y 1 X 1 Y -1 Y 1 1 d -2 Y 2 Y -2 Y 2 Y -1 Y 1 Y -1 Y 1 Y -1 Y 1 Y -1 Y 1 X 1 Y -1 Y 1 Y -1 Y 1 Y 1 -1 d 1 Y -1 Y 1 Y -2 Y 1 Y 1 X 1 Y -1 Y 1 Y -1 Y 1 Y -2 Y 2 Y -2 Y 2
 Y -2 Y 2 Y -1 Y 1 X 1 Y -2 Y 2 Y -1 Y 1 Y -2 Y 3 Y -2 Y 1 X -1 Y 1 Y 1 1 d -2 Y 2 Y -1 Y 1 Y -2 Y 2 Y -1 Y 1 Y -2 Y 2 Y -2 Y 2 Y 1 -1 d 1 Y -1 Y 1 Y -2 Y 2 Y -1 Y 1 Y -2 Y 3 Y -2 Y 2 Y -2 Y 2 Y 1 -2 d 1 1 d -1 Y 1 Y -2 Y 2 Y -1 Y 1 X 1 Y -1 Y 1 Y -1
 Y 1 Y -1 Y 1 Y -1 Y 1 X 1 Y -1 Y 1 Y -1 Y 1 X 1 Y -1 Y 1 X -1 Y 2 Y -1 Y 1 X 1 Y -1 Y 1 X 1 Y -2 Y 2 Y -1 Y 1 Y -1 Y 1 Y -1 Y 1 1 d -2 Y 2 Y -1 Y 1 Y -1 Y 1 X 2 Y -2 Y 1 Y -1 Y 1 Y -1 Y 1 X 1 Y -1 Y 1 Y -1 Y 1 Y -1 Y 1 Y -1 Y 1 X -1 Y 2 Y -2 Y 2 Y
 -1 Y 1 Y 1 X -1 Y 1 Y -1 Y 1 Y -2 Y 2 Y -2 Y 2 Y 1 X -2 Y 2 Y -1 Y 1 Y -1 Y 1 X 1 Y -1 Y 1 X 2 Y -2 Y 1 Y -1 Y 1 Y -1 Y 1 X 2 Y -2 Y 1 Y -2 Y 3 Y -3 Y 2 Y -2 Y 2 Y -1 Y 1 Y -1 Y 1 X 2 Y -2 Y 1 Y -1 Y 1 Y -2 Y 2 Y -1 Y 1 Y -1 Y 1 X 1 Y -2 Y 2 Y -2 Y
 2 Y -1 Y 1 Y -1 Y 1 Y -1 Y 1 Y 1 -2 d 2 Y -2 Y 1 Y -1 Y 1 Y 1 X 1 Y -1 Y 2 Y -2 Y 1 Y -2 Y 2 Y -1 Y 1 1 d -2 Y 2 Y -2 Y 2 Y -1 Y 1 Y -2 Y 2 Y -2 Y 2 Y -2 Y 2 Y -2 Y 1 1 d 1 Y -1 Y 2 Y -3 Y 3 Y -2 Y 1 X 1 Y -1 Y 1 Y -2 Y 3 Y -2 Y 2 Y -2 Y 1 Y -2 Y 2
 Y -2 Y 2 Y -1 Y 1 X 1 Y -1 Y 1 Y -1 Y 1 X 2 Y -2 Y 1 Y -1 Y 1 Y -1 Y 1 Y -2 Y 1 Y 1 X 1 Y -1 Y 1 Y 1 -2 d 1 Y -1 Y 2 Y -1 Y 1 Y 1 -1 d 1 Y -1 Y 1 Y -1 Y 1 Y -2 Y 2 Y -1 Y 1 Y -1 Y 1 Y -2 Y 2 Y 1 X -2 Y 2 Y -1 Y 1 Y -1 Y 2 Y -2 Y 1 Y -2 Y 2 Y -1 Y 1
 X 1 Y -1 Y 1 Y -2 Y 2 Y -2 Y 2 Y -1 Y 1 Y -1 Y 1 Y -1 Y 1 Y -2 Y 1 2 d -2 Y 3 Y -2 Y 1 Y -1 Y 1 Y -1 Y 1 1 d -2 Y 2 Y -1 Y 1 Y -2 Y 2 Y -1 Y 1 Y 1 X -2 Y 2 Y -2 Y 2 Y -1 Y 2 Y -2 Y 1 Y -1 Y 1 1 d -1 Y 1 Y -1 Y 1 Y -1 Y 1 Y -1 Y 1 X 1 Y -2 Y 2 Y -1 Y
 1 Y -1 Y 1 Y 1 X -1 Y 1 Y -2 Y 1 Y -1 Y 2 Y 1 -1 d 1 Y -1 Y 1 Y -1 Y 1 Y -2 Y 2 Y -1 Y 1 X 1 Y -1 Y 1 Y -1 Y 2 Y -3 Y 2 Y -1 Y 1 X 1 Y -2 Y 2 Y -1 Y 1 Y -2 Y 2 Y -1 Y 1 X 1 Y -1 Y 1 X 1 Y -1 Y 1 Y -2 Y 2 Y -1 Y 1 Y -1 Y 1 X 2 Y -3 Y 2 Y -2 Y 1 Y 1 X
 1 Y -1 Y 1 X -1 Y 3 Y -3 Y 2 Y -1 Y 1 1 d -1 Y 2 Y -2 Y 1 Y -1 Y 1 Y -1 Y 1 Y 1 -1 d 1 Y -1 Y 2 Y -2 Y 1 X 2 Y -2 Y 2 Y -2 Y 1 Y -1 Y 1 Y 1 -1 d -1 Y 2 Y -1 Y 1 Y -1 Y 2 Y -3 Y 2 Y -2 Y 1 Y 1 X -1 Y 2 Y -2 Y 3 Y -2 Y 1 X 1 Y -1 Y 1 Y -1 Y 1 Y -2 Y 2
 Y 1 X -1 Y 1 Y -1 Y 2 Y -2 Y 1 Y -1 Y 1 Y -1 Y 1 Y 1 -1 d 1 Y -2 Y 1 1 d 1 Y -2 Y 2 Y -1 Y 1 Y -1 Y 1 X 2 Y -2 Y 1 X -1 Y 2 Y -2 Y 2 Y -1 Y 1 1 d -1 Y 1 Y -1 Y 1 Y -1 Y 1 X 1 Y -1 Y 1 Y 1 -1 d 1 Y -1 Y 1 X 1 Y -1 Y 1 Y -1 Y 1 Y -1 Y 1 X 1 Y -1 Y 1 Y
 -2 Y 2 Y -1 Y 1 Y -2 Y 1 1 d 2 Y -3 Y 2 Y -2 Y 2 Y -1 Y 1 Y -2 Y 2 Y 1 1 d -1 Y 1 Y -2 Y 1 Y -1 Y 2 Y -2 Y 2 Y -2 Y 1 Y -1 Y 1 Y 1 -1 d -1 Y 2 Y -1 Y 1 Y -1 Y 1 Y -1 Y 1 Y 1 -1 d 1 Y -2 Y 2 Y -2 Y 1 Y 1 1 d -1 Y 1 Y -1 Y 1 1 d -1 Y 1 Y -1 Y 2 Y -2 Y
 1 -1 d 2 Y -1 Y 1 Y -1 Y 1 X -1 Y 2 Y -1 Y 1 Y -1 Y 1 1 d -1 Y 2 Y -3 Y 2 Y -2 Y 2 Y 1 -2 d 2 Y -1 Y 1 Y -2 Y 2 Y -1 Y 1 Y -1 Y 1 X 1 Y -2 Y 2 Y 1 -1 d -1 Y 2 Y -1 Y 1 Y -1 Y 1 1 d -2 Y 2 Y -2 Y 2 Y -1 Y 2 Y -2 Y 1 X 2 Y -2 Y 1 Y -1 Y 1 Y -1 Y 1 Y
 -1 Y 1 X 1 Y -1 Y 1 Y -1 Y 1 Y -1 Y 2 Y -2 Y 1 X -1 Y 2 Y -1 Y 1 1 d -1 Y 1 Y -1 Y 1 Y -2 Y 2 Y -1 Y 1 1 d -1 Y 1 Y -2 Y 2 Y -1 Y 1 1 d -1 Y 1 Y -1 Y 1 X 1 Y 1 -1 d -1 Y 2 Y -1 Y 2 Y -2 Y 1 Y -2 Y 2 Y 1 -1 d 1 Y -2 Y 1 Y -1 Y 1 Y 1 X 1 Y -2 Y 2 Y -1
 Y 1 Y -2 Y 2 Y -2 Y 1 1 d 2 Y -2 Y 2 Y -2 Y 1 Y -2 Y 2 Y -1 Y 1 Y -2 Y 2 Y 1 -2 d 2 Y -2 Y 2 Y -1 Y 1 Y -2 Y 2 Y -1 Y 1 Y -2 Y 2 Y -2 Y 2 Y -1 Y 1 X 1 Y -2 Y 2 Y -2 Y 2 Y -1 Y 2 Y -2 Y 2 Y -2 Y 1 1 d -1 Y 1 Y -2 Y 2 Y -2 Y 1 Y 1 X 1 Y -1 Y 1 Y 1 -1
 d 1 Y -1 Y 1 Y -1 Y 1 Y -1 Y 1 Y -1 Y 2 Y -1 Y 1 X -1 Y 1 Y -1 Y 1 X 1 Y -1 Y 1 Y -1 Y 1 X 1 Y -2 Y 2 Y -2 Y 2 Y -2 Y 2 Y -1 Y 1 Y -1 Y 1 X 1 Y -2 Y 2 Y -1 Y 1 Y -1 Y 1 Y -1 Y 1 Y -2 Y 2 Y 1 -2 d 2 Y -1 Y 1 Y -2 Y 2 Y -1 Y 1 Y -1 Y 1 X 1 Y -2 Y 2 Y
 -1 Y 1 Y -1 Y 2 X 1 Y -2 Y 2 Y -1 Y 1 X 1 Y -2 Y 2 Y -1 Y 1 X 1 Y -1 Y 1 Y -1 Y 1 Y -1 Y 1 1 d -1 Y 1 Y -2 Y 2 Y -1 Y 1 Y -1 Y 1 Y -1 Y 1 X 1 Y -2 Y 2 Y -2 Y 3 Y -3 Y 2 Y -1 Y 1 X 1 Y -2 Y 1 Y 1 X 1 Y -1 Y 1 Y 1 -1 d 2 Y -2 Y 1 Y -1 Y 1 Y -1 Y 2 Y
 -2 Y 1 Y -1 Y 1 X 1 Y -1 Y 1 Y -1 Y 1 Y -1 Y 1 Y 1 -1 d 1 Y -2 Y 2 Y 1 -1 d 2 Y -3 Y 1 Y 1 X -1 Y 2 Y -1 Y 1 Y -1 Y 1 Y 1 -1 d 1 Y -2 Y 2 Y -1 Y 1 X 1 Y -2 Y 2 Y -1 Y 1 Y -2 Y 2 Y -2 Y 2 Y -1 Y 1 Y -1 Y 1 Y 1 -2 d 2 Y -1 Y 1 Y -1 Y 1 1 d -1 Y 1 Y -1
 Y 1 X 2 Y -2 Y 1 Y -1 Y 1 X 1 Y -1 Y 1 Y -1 Y 1 Y -1 Y 1 X 1 Y -2 Y 2 Y -1 Y 1 Y -1 Y 1 1 d -2 Y 2 Y -2 Y 3 Y -2 Y 2 Y -2 Y 1 Y -1 Y 1 Y -2 Y 2 Y -1 Y 1 X -1 Y 1 Y 1 1 d -1 Y 1 Y -2 Y 2 Y -1 Y 1 Y -1 Y 1 X 2 Y -2 Y 2 Y -3 Y 2 Y -1 Y 1 Y -1 Y 2 Y -2
 Y 1 Y -1 Y 1 2 d -2 Y 1 Y -1 Y 1 Y -1 Y 1 X 1 Y -2 Y 2 Y -2 Y 2 Y -2 Y 2 Y -1 Y 1 Y -1 Y 1 X 2 Y -2 Y 2 Y -2 Y 1 Y -1 Y 1 X 1 Y -2 Y 2 Y -2 Y 2 Y -2 Y 2 Y -2 Y 2 Y -1 Y 1 Y -1 Y 1 1 d -2 Y 2 Y -2 Y 2 Y -1 Y 1 X 1 Y -1 Y 1 Y -1 Y 1 X 1 Y -2 Y 2 Y -1
 Y 1 Y -1 Y 1 2 d -3 Y 2 Y -1 Y 1 Y -1 Y 1 Y -2 Y 1 Y 1 X 2 Y -2 Y 1 Y -1 Y 1 X 1 Y -2 Y 2 Y -1 Y 1 Y -1 Y 1 Y -1 Y 1 -1 d 2 Y -2 Y 2 Y -1 Y 2 Y -2 Y 1 Y -2 Y 2 Y 1 -2 d 2 Y -2 Y 2 Y -2 Y 3 Y -2 Y 1 Y -1 Y 1 Y -1 Y 1 Y -1 Y 1 1 d -2 Y 2 Y -1 Y 1 Y -2
 Y 2 Y -1 Y 1 1 d -1 Y 1 Y -1 Y 1 Y -1 Y 1 Y -1 Y 1 Y -2 Y 2 Y -2 Y 2 Y -1 Y 1 Y 1 X -2 Y 2 Y -2 Y 2 Y -2 Y 2 Y -1 Y 1 Y -2 Y 2 Y -2 Y 1 Y 1 X 1 Y -2 Y 2 Y -1 Y 1 1 d -1 Y 1 Y -1 Y 1 Y -1 Y 1 Y -2 Y 2 Y -2 Y 2 Y -1 Y 1 X 1 Y -1 Y 1 -1 d 2 Y -1 Y 1 Y
 -1 Y 1 Y -2 Y 2 Y -1 Y 1 X 2 Y -2 Y 1 Y 1 -2 d 3 Y -2 Y 1 Y -2 Y 2 Y -2 Y 2 Y -1 Y 1 -1 d 2 Y -1 Y 1 Y -1 Y 1 X 1 Y -1 Y 1 Y -1 Y 1 Y -1 Y 1 X -1 Y 2 Y -1 Y 1 Y -2 Y 2 Y -2 Y 2 Y -2 Y 2 Y 1 -1 d 2 Y -2 Y 2 Y -2 Y 2 Y -2 Y 1 Y -1 Y 1 Y -2 Y 2 Y 1 -1
 d 1 Y -1 Y 2 Y -3 Y 2 Y -2 Y 2 Y 1 X -2 Y 2 Y -2 Y 2 Y -1 Y 1 Y -1 Y 1 Y -1 Y 1 Y -1 Y 1 Y 1 X -2 Y 2 Y -1 Y 1 Y -2 Y 2 Y -2 Y 2 Y -1 Y 1 Y -1 Y 1 1 d -2 Y 1 Y -1 Y 2 Y -2 Y 2 Y -2 Y 3 Y -2 Y 1 X 1 Y -1 Y 1 X -1 Y 2 Y -1 Y 1 Y -1 Y 1 Y -1 Y 1 X -1 Y
 2 Y -1 Y 1 Y -1 Y 1 Y -1 Y 1 1 d -1 Y 1 Y -1 Y 1 Y -1 Y 1 Y -2 Y 2 Y -1 Y 1 X 1 Y -2 Y 2 Y -1 Y 1 Y -1 Y 2 Y -2 Y 1 Y -2 Y 2 Y 1 -1 d 1 Y -1 Y 1 Y 1 -1 d -1 Y 2 Y -1 Y 1 Y -1 Y 1 X 2 Y -2 Y 1 Y -1 Y 1 X 2 Y -2 Y 2 Y -3 Y 2 Y -1 Y 1 X 1 Y -2 Y 2 Y -1
 Y 1 Y -2 Y 2 Y -1 Y 1 X 1 Y -1 Y 1 Y -1 Y 2 Y -3 Y 2 Y -1 Y 1 X 1 Y -2 Y 2 Y -1 Y 1 Y -1 Y 1 X 1 Y -1 Y 1 Y 1 -1 d 2 Y -2 Y 1 Y -1 Y 2 Y -2 Y 1 Y 1 -1 d 1 Y -2 Y 1 Y 1 X 1 Y -1 Y 1 X 1 Y -1 Y 2 Y -2 Y 1 X 1 Y -2 Y 2 Y -2 Y 2 Y -1 Y 1 Y -1 Y 1 Y -1 Y
 1 Y 1 -1 d 1 Y -1 Y 2 Y -2 Y 2 Y -2 Y 1 1 d -1 Y 1 Y -1 Y 1 Y -1 Y 2 Y -1 Y 1 X -2 Y 3 Y -3 Y 2 Y -1 Y 1 X 1 Y -1 Y 1 Y -2 Y 2 Y -1 Y 1 Y -1 Y 1 Y -1 Y 1 1 d -2 Y 2 Y -1 Y 1 Y 1 -1 d 1 Y -2 Y 2 Y -1 Y 1 X 1 Y -2 Y 2 Y -1 Y 1 X 1 Y -1 Y 1 Y -1 Y 1 Y
 -1 Y 1 X 1 Y -1 Y 2 Y -2 Y 2 Y -2 Y 1 Y -1 Y 1 1 d -2 Y 2 Y -1 Y 1 X 1 Y -2 Y 2 Y -1 Y 1 X 1 Y -1 Y 2 Y -2 Y 1 Y -1 Y 1 X 1 Y -1 Y 1 Y -2 Y 2 Y -1 Y 2 Y -2 Y 1 1 d -1 Y 1 Y -1 Y 1 Y -1 Y 1 X 1 Y -1 Y 2 Y -2 Y 1 Y 1 -1 d 1 Y -1 Y 2 Y -2 Y 1 1 d -2 Y
 2 Y -1 Y 1 Y -1 Y 1 Y -2 Y 1 Y 1 -1 d 2 Y -1 Y 1 Y 1 X 1 Y -3 Y 2 Y -1 Y 1 X 1 Y -1 Y 2 Y -3 Y 2 Y -2 Y 2 Y -1 Y 1 Y -1 Y 1 X 2 Y -2 Y 1 Y -1 Y 1 Y -2 Y 2 Y -1 Y 1 Y 1 -1 d 2 Y -2 Y 1 Y -2 Y 2 Y -1 Y 1 Y -1 Y 1 Y -1 Y 1 Y -1 Y 1 X 1 Y -1 Y 2 Y -2 Y
 1 X 1 Y -2 Y 1 Y 1 1 d -1 Y 1 Y -1 Y 1 Y -2 Y 2 Y -2 Y 2 Y -2 Y 3 Y -2 Y 1 1 d -1 Y 2 Y -2 Y 1 Y -1 Y 1 Y -1 Y 1 X 2 Y -2 Y 1 Y -1 Y 1 Y -2 Y 2 Y -2 Y 2 Y -1 Y 1 X -2 Y 2 Y -1 Y 2 Y -1 Y 1 Y -1 Y 1 Y 1 -1 d -1 Y 2 Y -2 Y 3 Y -2 Y 1 Y -2 Y 2 Y -2 Y 2
 Y -1 Y 1 X 1 Y -2 Y 2 Y -1 Y 2 Y -2 Y 1 Y -1 Y 1 X 1 Y -1 Y 1 Y -1 Y 1 X 1 Y -2 Y 2 Y 1 X -1 Y 1 Y -2 Y 1 Y 1 1 d -1 Y 1 Y -2 Y 2 Y -2 Y 2 Y -2 Y 1 2 d -1 Y 1 Y -1 Y 2 Y -1 Y 1 Y -2 Y 1 X 1 Y -2 Y 3 Y -2 Y 1 Y -2 Y 2 Y 1 -1 d 1 Y -1 Y 1 Y -2 Y 2 Y
 -1 Y 1 X 1 Y -1 Y 1 Y -2 Y 2 Y -2 Y 2 Y -2 Y 2 Y -1 Y 1 Y -1 Y 1 X 1 Y -1 Y 1 Y -1 Y 2 Y -2 Y 2 Y -2 Y 1 Y -1 Y 1 1 d -1 Y 1 Y -1 Y 2 Y -2 Y 2 Y -2 Y 1 Y 1 X -1 Y 1 Y -1 Y 1 X 1 Y -2 Y 2 Y -1 Y 1 X 1 Y -1 Y 1 Y -1 Y 1 X 1 Y -1 Y 1 Y -2 Y 2 Y -1 Y 1
 Y -1 Y 1 X 1 Y -1 Y 1 Y -1 Y 1 1 d -1 Y 1 Y -2 Y 2 Y -1 Y 1 X 1 Y -1 Y 2 Y -2 Y 1 Y -2 Y 2 Y 1 -1 d 1 Y -1 Y 1 Y -1 Y 1 Y -1 Y 1 X 1 Y -1 Y 1 Y -1 Y 1 Y -1 Y 1 Y -2 Y 2 Y 1 -1 d 1 Y -2 Y 3 Y -2 Y 1 Y -1 Y 1 Y -1 Y 1 Y 1 -1 d 1 Y -1 Y 1 Y -2 Y 2 Y -1
 Y 1 Y 1 -1 d 1 Y -2 Y 2 Y -1 Y 1 Y -2 Y 2 Y -1 Y 1 X 1 Y -1 Y 1 Y -1 Y 1 X 1 Y -1 Y 1 Y -1 Y 1 Y -1 Y 1 Y -1 Y 1 X 2 Y -2 Y 1 Y -2 Y 1 Y 1 X 1 Y -1 Y 1 Y -2 Y 2 Y -2 Y 2 Y -2 Y 2 Y -1 Y 1 1 d -1 Y 1 Y -2 Y 1 Y -1 Y 2 Y -1 Y 1 X 2 Y -2 Y 1 Y -2 Y 2 Y
 -2 Y 2 Y -2 Y 2 Y -1 Y 2 Y -2 Y 1 X 1 Y -1 Y 1 Y -1 Y 1 Y -2 Y 1 Y 1 X 1 Y -1 Y 1 Y -1 Y 1 Y -1 Y 1 Y 1 -1 d -1 Y 2 Y -1 Y 2 Y -2 Y 1 Y -2 Y 1 Y -1 Y 1 Y 1 -1 d 2 Y -2 Y 2 Y -1 Y 1 Y 1 -1 d 2 Y -2 Y 1 Y -1 Y 1 Y -1 Y 1 Y -2 Y 2 Y -1 Y 1 X -1 Y 3 Y
 -3 Y 3 Y 1 -1 d 1 Y -2 Y 1 Y -1 Y 1 Y -1 Y 1 Y 1 -1 d 1 Y -1 Y 1 Y -1 Y 1 Y -2 Y 1 1 d 1 Y -1 Y 1 Y -1 Y 1 Y -2 Y 2 Y -2 Y 2 Y -1 Y 1 X -1 Y 3 Y -2 Y 1 Y -1 Y 1 Y -1 Y 1 X 2 Y -2 Y 1 Y -1 Y 2 Y -2 Y 1 Y -1 Y 2 Y -2 Y 1 Y 1 -1 d -1 Y 2 Y -1 Y 1 Y -2
 Y 2 Y 1 -1 d 1 Y -1 Y 1 Y -2 Y 2 Y -1 Y 1 Y -2 Y 2 Y -1 Y 1 X 1 Y -1 Y 1 Y -1 Y 2 Y -2 Y 1 Y -2 Y 2 Y -2 Y 2 Y -1 Y 1 X -1 Y 3 Y -2 Y 1 Y -1 Y 1 Y -1 Y 2 Y -2 Y 1 X 1 Y -1 Y 1 Y -1 Y 1 Y -2 Y 2 Y -1 Y 1 X 1 Y -1 Y 1 Y -1 Y 1 Y -1 Y 2 Y -2 Y 1 Y -1 Y
 1 X 1 Y -2 Y 1 Y -1 Y 1 Y -1 Y 2 Y -1 Y 1 Y -2 Y 1 2 d -2 Y 2 Y -1 Y 1 Y -1 Y 1 Y -1 Y 1 X 1 Y -1 Y 1 Y -2 Y 1 Y 1 X 1 Y -2 Y 2 Y -1 Y 1 Y -1 Y 1 Y -1 Y 1 Y -1 Y 2 Y -3 Y 2 Y -1 Y 1 1 d -1 Y 2 Y -2 Y 1 Y -2 Y 2 Y -2 Y 2 Y -1 Y 1 X 1 Y -2 Y 3 Y -2 Y
 2 Y -2 Y 1 X 1 Y -2 Y 2 Y -1 Y 1 X 1 Y -1 Y 1 Y -1 Y 1 Y -2 Y 1 1 d 1 Y -2 Y 2 Y -2 Y 2 Y -1 Y 1 Y 1 -1 d 1 Y -2 Y 2 Y -1 Y 1 X -1 Y 2 Y -2 Y 1 Y 1 X 1 Y -1 Y 1 Y -2 Y 2 Y -2 Y 2 Y -1 Y 1 Y -1 Y 1 X 1 Y -1 Y 1 Y -1 Y 1 Y -1 Y 1 Y -1 Y 1 1 d -1 Y 1 Y
 -2 Y 1 1 d 1 Y -1 Y 1 Y -1 Y 1 Y -1 Y 1 Y -2 Y 2 Y -2 Y 2 Y 1 -1 d 2 Y -3 Y 2 Y -1 Y 2 Y -3 Y 1 Y 1 X 1 Y -2 Y 2 Y -1 Y 1 Y -1 Y 1 Y -1 Y 1 X 1 Y -1 Y 1 Y -1 Y 1 Y -1 Y 1 X 1 Y -1 Y 1 1 d -2 Y 2 Y -2 Y 2 Y -1 Y 1 Y -1 Y 1 Y 1 -1 d 1 Y -1 Y 1 Y -2 Y
 1 Y -1 Y 2 Y -1 Y 1 Y -1 Y 1 1 d -2 Y 1 Y -1 Y 1 X 2 Y -2 Y 2 Y -1 Y 1 Y -1 Y 1 X 1 Y -1 Y 1 Y -2 Y 2 Y -2 Y 2 Y -1 Y 1 1 d -2 Y 2 Y -1 Y 2 Y -2 Y 2 Y -2 Y 1 Y -1 Y 1 X 1 Y -1 Y 1 Y -1 Y 1 1 d -1 Y 1 Y -1 Y 1 Y -1 Y 1 X 1 Y -2 Y 2 Y -1 Y 1 Y 1 -1 d
 1 Y -1 Y 1 1 d -1 Y 1 Y -1 Y 1 Y -2 Y 2 Y -2 Y 2 Y -2 Y 3 Y -2 Y 2 Y -2 Y 1 X 2 Y -3 Y 2 Y -2 Y 2 Y -1 Y 1 1 d -2 Y 3 Y -2 Y 1 Y -1 Y 1 Y 1 -1 d 1 Y -2 Y 2 Y -1 Y 1 1 d -2 Y 2 Y -1 Y 2 Y -3 Y 2 Y -1 Y 1 Y 1 X -2 Y 2 Y -1 Y 1 Y -1 Y 1 Y -1 Y 1 X 1 Y
 -2 Y 2 Y -1 Y 1 Y -1 Y 2 Y -2 Y 1 1 d -1 Y 1 Y -1 Y 1 Y -1 Y 1 Y -1 Y 1 X 1 Y -2 Y 2 Y -1 Y 1 Y -2 Y 2 Y -1 Y 1 X 1 Y -1 Y 1 Y -1 Y 1 X 1 Y -1 Y 1 Y -1 Y 1 Y -1 Y 1 Y -1 Y 1 X 1 Y -1 Y 1 Y -1 Y 2 Y -2 Y 1 Y -1 Y 1 Y -1 Y 1 Y 1 -1 d 1 Y -1 Y 1 Y -1 Y
 1 Y -1 Y 1 Y -1 Y 1 X 1 Y -1 Y 1 Y -1 Y 1 X 1 Y -2 Y 2 Y -1 Y 1 X -1 Y 2 Y -1 Y 1 1 d -2 Y 2 Y -1 Y 1 X -1 Y 2 Y -1 Y 1 Y -2 Y 3 Y -2 Y 1 1 d -1 Y 1 Y -1 Y 2 Y -2 Y 1 Y -2 Y 2 Y -1 Y 1 X 1 Y -1 Y 1 Y -1 Y 1 X 1 Y -1 Y 1 Y -1 Y 1 Y -1 Y 1 1 d -2 Y 3
 Y -2 Y 1 Y -2 Y 2 Y -2 Y 2 Y -1 Y 1 Y -1 Y 1 Y -1 Y 1 X 2 Y -2 Y 1 Y -1 Y 1 Y 1 -1 d 1 Y -1 Y 1 Y -1 Y 1 X -1 Y 1 Y -1 Y 2 Y -1 Y 1 Y -2 Y 2 Y -2 Y 1 2 d -2 Y 2 Y -2 Y 2 Y -2 Y 2 Y -1 Y 1 Y -1 Y 1 1 d -1 Y 1 Y -1 Y 1 Y -1 Y 1 Y -2 Y 1 Y 1 X -1 Y 2 Y
 -1 Y 1 Y -2 Y 2 Y -1 Y 1 Y -1 Y 1 X 1 Y -1 Y 1 X 1 Y -1 Y 1 X -1 Y 2 Y -1 Y 1 Y -1 Y 2 Y -2 Y 1 X 1 Y -1 Y 1 Y 1 X -1 Y 2 Y -3 Y 2 Y -1 Y 1 X 1 Y -2 Y 2 Y -1 Y 1 X 1 Y -1 Y 1 Y -2 Y 2 Y -2 Y 2 Y -1 Y 1 Y -1 Y 1 X 1 Y -1 Y 1 Y -1 Y 1 Y -1 Y 1 Y 1 X
 -1 Y 1 Y -1 Y 2 Y -3 Y 2 Y 1 -1 d 1 Y -2 Y 2 Y -2 Y 2 Y -1 Y 1 Y -1 Y 1 X 1 Y -1 Y 1 Y -1 Y 1 X 1 Y -1 Y 1 X 1 Y -2 Y 2 Y -1 Y 1 Y 1 -1 d 2 Y -2 Y 2 Y -2 Y 1 -1 d 2 Y -1 Y 1 Y -1 Y 1 X -1 Y 2 Y -1 Y 1 Y -1 Y 2 Y -2 Y 1 Y -1 Y 1 X 1 Y -2 Y 2 Y -2 Y 2
 Y -1 Y 1 Y -1 Y 1 1 d -2 Y 2 Y -2 Y 3 Y -2 Y 1 Y -2 Y 2 Y -1 Y 1 X 1 Y -1 Y 2 Y -2 Y 1 Y -2 Y 2 Y -2 Y 3 Y -2 Y 2 Y -2 Y 1 -1 d 2 Y -2 Y 2 Y -1 Y 1 -1 d 2 Y -1 Y 1 Y -2 Y 2 Y -2 Y 2 Y -2 Y 2 Y -1 Y 2 Y -2 Y 1 Y 1 -1 d 1 Y 1 -1 d 1 Y -2 Y 2 Y -1 Y 1
 Y -1 Y 1 X 1 Y -2 Y 2 Y -1 Y 1 X 1 Y -2 Y 2 Y -1 Y 1 1 d -2 Y 2 Y -1 Y 1 Y -1 Y 1 Y -1 Y 1 X 2 Y -3 Y 2 Y -2 Y 2 Y -1 Y 1 Y -1 Y 1 X 1 Y -1 Y 1 Y -1 Y 1 Y -2 Y 2 Y -1 Y 1 1 d -1 Y 1 Y -2 Y 2 Y -2 Y 2 Y -1 Y 1 X -1 Y 2 Y -1 Y 1 Y -2 Y 2 Y -1 Y 1 Y 1
 -1 d 1 Y -1 Y 1 Y -2 Y 2 Y -2 Y 2 Y -1 Y 1 X -1 Y 2 Y -1 Y 1 Y -1 Y 1 Y -1 Y 1 X 1 Y -2 Y 2 Y -1 Y 1 X 1 Y -2 Y 2 Y -1 Y 1 Y 1 -1 d 1 Y -2 Y 2 Y -1 Y 1 Y -1 Y 1 X 1 Y -1 Y 1 Y -2 Y 2 Y -1 Y 1 1 d -2 Y 2 Y -2 Y 2 Y 1 1 d -2 Y 1 Y -1 Y 1 Y -1 Y 1 X 1
 Y -2 Y 3 Y -2 Y 1 Y -1 Y 1 1 d -1 Y 2 Y -3 Y 2 Y -2 Y 3 Y -2 Y 1 1 d -1 Y 1 Y -1 Y 1 Y -1 Y 1 X 1 Y -2 Y 2 Y -1 Y 1 Y -2 Y 2 Y -1 Y 1 Y 1 -2 d 2 Y -1 Y 1 Y -2 Y 3 Y -2 Y 2 Y -2 Y 1 X 1 Y -2 Y 2 Y -2 Y 2 Y -1 Y 1 Y -1 Y 1 X 1 Y -2 Y 1 Y -1 Y 2 Y -1 Y
 1 2 d -2 Y 1 Y -2 Y 2 Y -1 Y 1 Y -2 Y 1 Y 1 1 d -1 Y 1 Y -1 Y 2 Y -2 Y 1 1 d -1 Y 1 Y -1 Y 1 Y -1 Y 1 Y -1 Y 1 Y 1 -1 d 1 Y -2 Y 2 Y -1 Y 1 Y -1 Y 1 Y -1 Y 1 X -1 Y 2 Y -1 Y 1 Y -1 Y 1 Y -2 Y 2 Y -1 Y 1 X 1 Y -1 Y 1 Y -1 Y 1 X 1 Y -2 Y 2 Y -1 Y 1 Y
 -1 Y 1 X -1 Y 2 Y -2 Y 2 Y -1 Y 1 Y -1 Y 1 Y -2 Y 2 Y -1 Y 1 Y -1 Y 1 X 1 Y -1 Y 1 Y -1 Y 1 Y -1 Y 1 Y -2 Y 2 Y 1 -2 d 2 Y -2 Y 2 Y -1 Y 1 -1 d 2 Y -1 Y 1 Y -1 Y 1 X 1 Y -1 Y 1 X 1 Y -1 Y 1 X 1 Y -1 Y 2 Y -2 Y 2 Y -2 Y 1 X -1 Y 2 Y -2 Y 1 Y 1 2 d -2
 Y 1 Y -1 Y 1 Y -1 Y 1 Y -1 Y 1 X 1 Y -2 Y 2 Y -2 Y 2 Y -1 Y 1 X -1 Y 2 Y -1 Y 1 1 d -2 Y 2 Y -2 Y 2 Y -1 Y 1 X 1 Y -1 Y 1 Y -1 Y 1 Y -1 Y 1 X 1 Y -1 Y 1 Y -1 Y 1 Y -1 Y 1 2 d -2 Y 2 Y -2 Y 1 Y -1 Y 1 Y -1 Y 1 1 d -2 Y 2 Y -1 Y 1 Y -1 Y 1 Y -1 Y 1 X
 1 Y -1 Y 1 Y -2 Y 2 Y -1 Y 1 X 2 Y -3 Y 2 Y -1 Y 1 X -1 Y 2 Y -2 Y 2 Y -2 Y 2 Y -1 Y 1 Y -2 Y 2 Y -1 Y 1 Y 1 -2 d 2 Y -2 Y 2 Y -2 Y 1 Y 1 X 1 Y -1 Y 2 Y -2 Y 1 X -1 Y 2 Y -2 Y 2 Y -1 Y 1 Y -2 Y 2 Y -2 Y 3 Y -2 Y 1 Y -1 Y 1 X 1 Y -1 Y 1 Y -1 Y 2 Y -2
 Y 1 Y -1 Y 1 1 d -1 Y 1 Y -1 Y 1 Y -1 Y 1 Y -1 Y 2 Y -2 Y 1 1 d -1 Y 1 Y -2 Y 2 Y -1 Y 1 X -1 Y 2 Y -1 Y 1 Y -1 Y 1 Y -2 Y 2 Y -2 Y 2 Y -2 Y 2 Y -1 Y 1 Y 1 -1 d 1 Y -1 Y 1 Y -2 Y 2 Y 1 -1 d 1 Y -1 Y 1 Y -1 Y 2 Y -3 Y 2 Y -2 Y 2 Y -1 Y 1 X 2 Y -2 Y 1
 Y -1 Y 1 Y -2 Y 2 Y -1 Y 1 X 1 Y -1 Y 1 X 1 Y -1 Y 1 Y -1 Y 2 Y -2 Y 1 1 d -2 Y 2 Y -1 Y 1 Y -1 Y 1 Y -1 Y 1 X 1 Y -1 Y 1 Y -1 Y 1 Y 1 -1 d 1 Y -2 Y 2 Y -2 Y 1 Y -1 Y 2 Y -2 Y 2 Y -1 Y 1 X 1 Y -2 Y 2 Y -1 Y 1 Y -1 Y 1 Y -1 Y 1 X 1 Y -1 Y 1 Y -1 Y 1
 Y -2 Y 3 Y -2 Y 1 X 1 Y -1 Y 2 Y -2 Y 2 Y -3 Y 2 Y -1 Y 1 Y -1 Y 1 Y -2 Y 2 Y -2 Y 1 1 d -1 Y 2 Y -2 Y 2 Y -1 Y 2 X 1 Y -2 Y 2 Y -2 Y 2 Y -1 Y 1 X 1 Y -2 Y 2 Y -1 Y 1 X 1 Y -2 Y 2 Y -1 Y 1 X 1 Y -2 Y 2 Y -2 Y 2 Y -1 Y 1 Y -1 Y 1 X -1 Y 2 Y -1 Y 1 Y
 -1 Y 1 Y -2 Y 2 Y 1 -2 d 2 Y -1 Y 1 Y -1 Y 1 X 2 Y -2 Y 2 Y -3 Y 2 Y -1 Y 1 Y -2 Y 2 Y -2 Y 2 Y -1 Y 1 Y -2 Y 1 1 d 1 Y -1 Y 1 Y -1 Y 1 X 1 Y -1 Y 1 Y -2 Y 2 Y -1 Y 1 Y -1 Y 1 X 1 Y -2 Y 2 Y -1 Y 1 Y -2 Y 2 Y -2 Y 2 Y 1 -2 d 2 Y -2 Y 2 Y -2 Y 2 Y -1
 Y 1 1 d -2 Y 3 Y -2 Y 1 Y -1 Y 1 Y -2 Y 2 Y -1 Y 1 1 d -1 Y 1 Y -1 Y 1 Y -1 Y 1 Y 1 -1 d 1 Y -1 Y 2 Y -3 Y 2 Y -2 Y 2 Y -2 Y 1 1 d -1 Y 3 Y -2 Y 2 Y -2 Y 1 Y -1 Y 1 Y -1 Y 1 1 d -1 Y 1 Y -2 Y 2 Y -1 Y 1 Y -2 Y 1 Y 1 X -1 Y 2 Y -1 Y 1 Y -1 Y 1 1 d -2
 Y 2 Y -1 Y 1 Y -1 Y 1 Y -2 Y 2 Y -2 Y 1 Y 1 X 1 Y -1 Y 2 Y -2 Y 1 X 1 Y -2 Y 2 Y -2 Y 2 Y 1 -1 d 1 Y -1 Y 1 Y 1 X -1 Y 1 Y -2 Y 2 Y -1 Y 1 Y -1 Y 1 1 d -1 Y 1 Y -2 Y 2 Y -2 Y 1 Y 1 1 d -1 Y 1 Y -1 Y 1 Y -1 Y 1 Y -1 Y 1 Y -2 Y 2 Y -1 Y 1 Y -1 Y 1 1 d
 -2 Y 2 Y -1 Y 1 Y -1 Y 1 X 1 Y -1 Y 1 Y -1 Y 1 Y -2 Y 2 Y -1 Y 1 X 1 Y -1 Y 1 Y -1 Y 1 Y -2 Y 2 Y 1 -1 d -1 Y 3 Y -2 Y 1 Y -1 Y 1 1 d -1 Y 2 Y -3 Y 2 Y -2 Y 2 Y -1 Y 1 Y 1 -1 d 1 Y -1 Y 1 Y -1 Y 1 Y -2 Y 2 Y -1 Y 1 -1 d 2 Y -2 Y 2 Y -1 Y 1 X 2 Y -2
 Y 1 Y -1 Y 1 Y -1 Y 1 Y -1 Y 1 X 2 Y -2 Y 1 Y -2 Y 1 1 d 1 Y -1 Y 1 Y -1 Y 1 X 1 Y -1 Y 1 X -1 Y 2 Y -2 Y 2 Y -1 Y 1 Y -2 Y 2 Y -2 Y 2 Y -1 Y 1 X 1 Y -1 Y 1 Y -1 Y 1 -1 d 2 Y -1 Y 2 Y -2 Y 1 Y -2 Y 2 Y 1 X -1 Y 1 Y -1 Y 2 Y -2 Y 1 Y -1 Y 1 Y -2 Y 2
 Y -1 Y 1 X 1 1 d -1 Y 1 Y -1 Y 1 Y -2 Y 2 Y 1 X -1 Y 1 Y -1 Y 1 Y -1 Y 1 X 1 Y -1 Y 1 Y -1 Y 1 Y -1 Y 1 1 d -2 Y 2 Y -2 Y 2 Y -1 Y 1 Y -1 Y 1 Y -2 Y 2 Y 1 -1 d -1 Y 3 Y -3 Y 2 Y -1 Y 2 Y -2 Y 1 Y -2 Y 2 Y 1 -1 d 1 Y -1 Y 1 Y -1 Y 1 Y -2 Y 1 2 d -1 Y
 1 Y -2 Y 2 Y -1 Y 1 Y -2 Y 2 Y -1 Y 1 Y 1 -1 d 1 Y -1 Y 1 Y -1 Y 1 1 d -2 Y 2 Y -1 Y 1 Y -1 Y 2 Y -2 Y 1 X 1 Y -2 Y 2 Y -1 Y 1 Y -1 Y 1 X 1 Y -1 Y 1 Y -1 Y 1 X -1 Y 3 Y -2 Y 2 Y -2 Y 1 Y -1 Y 2 Y 1 -2 d 1 Y -2 Y 2 Y -1 Y 1 Y 1 -2 d 2 Y -2 Y 2 Y -2 Y
 2 Y -1 Y 2 Y -2 Y 1 X -1 Y 3 Y -2 Y 1 Y -1 Y 1 Y -1 Y 1 X 1 Y -2 Y 2 Y -1 Y 1 Y -1 Y 1 X 1 Y -2 Y 2 Y -2 Y 2 Y -1 Y 2 Y -2 Y 1 X 1 Y -2 Y 1 Y -1 Y 2 Y -2 Y 2 Y 1 -1 d 2 Y -2 Y 2 Y -2 Y 1 Y -1 Y 1 Y -1 Y 1 X 1 Y -2 Y 2 Y -1 Y 1 Y -1 Y 1 1 d -2 Y 2 Y
 -1 Y 1 Y -2 Y 2 Y 1 -1 d 1 Y -1 Y 1 Y -1 Y 1 Y -2 Y 2 Y -2 Y 2 Y -1 Y 1 Y 1 -1 d 1 Y -1 Y 1 Y -1 Y 1 X 1 Y -1 Y 1 Y -1 Y 1 Y 1 -1 d 1 Y -1 Y 1 Y -1 Y 2 Y -2 Y 1 Y -1 Y 1 Y -2 Y 2 Y -2 Y 1 Y 1 X -1 Y 2 Y -1 Y 1 Y -2 Y 2 Y -2 Y 2 Y -1 Y 1 Y 1 X -1 Y 2
 Y -2 Y 2 X -1 Y 1 Y -1 Y 1 Y 1 1 d -1 Y 1 Y -1 Y 1 Y -1 Y 1 Y 1 -1 d 1 Y -1 Y 1 Y -2 Y 2 Y -1 Y 2 Y -2 Y 1 1 d -2 Y 2 Y -2 Y 2 Y -1 Y 1 Y -2 Y 2 Y -1 Y 1 Y -2 Y 2 Y -1 Y 1 X 1 Y -2 Y 2 Y -2 Y 2 Y -1 Y 1 1 d 1 Y -2 Y 1 Y -1 Y 1 Y -1 Y 1 Y -2 Y 2 Y -1
 Y 1 Y 1 -1 d 1 Y -1 Y 1 Y -2 Y 2 Y -1 Y 1 1 d -2 Y 2 Y -2 Y 2 Y -1 Y 1 X 1 Y -1 Y 1 Y -2 Y 2 Y -2 Y 2 Y -2 Y 2 Y -1 Y 1 X 2 Y -2 Y 1 Y -2 Y 2 Y -1 Y 1 Y 1 -1 d -1 Y 3 Y -3 Y 2 Y -2 Y 2 Y -2 Y 2 Y 1 -1 d 1 Y -2 Y 2 Y -1 Y 1 Y -2 Y 2 Y -2 Y 2 Y -2 Y 2
 Y -1 Y 1 Y 1 -1 d -1 Y 2 Y -1 Y 1 Y -1 Y 1 1 d -2 Y 2 Y -1 Y 2 Y -2 Y 2 Y -2 Y 1 X 1 Y -2 Y 2 Y -2 Y 2 Y -2 Y 2 Y -1 Y 1 Y 1 -1 d 1 Y -1 Y 1 Y -1 Y 1 Y -1 Y 1 Y 1 -1 d 1 Y -2 Y 2 Y -2 Y 2 Y -1 Y 1 Y -2 Y 2 Y -2 Y 1 2 d -2 Y 2 Y -2 Y 2 Y 1 -1 d -1 Y
 3 Y -2 Y 1 X 1 Y -2 Y 2 Y -2 Y 2 Y -1 Y 2 Y -2 Y 1 X 1 Y -1 Y 1 Y -2 Y 2 Y -1 Y 1 X -1 Y 2 Y -1 Y 2 Y -3 Y 2 Y 1 -1 d 1 Y 1 -1 d 1 Y -2 Y 2 Y -2 Y 2 Y -1 Y 1 Y -2 Y 2 Y -1 Y 1 X 1 Y -2 Y 2 Y -1 Y 1 Y 1 -1 d 1 Y -1 Y 1 Y -2 Y 2 Y -2 Y 1 Y 1 X 1 Y -1
 Y 2 Y -2 Y 1 Y -1 Y 1 X 1 Y -1 Y 1 Y -1 Y 1 Y -1 Y 1 Y -1 Y 1 Y -1 Y 1 Y -1 Y 1 X -1 Y 2 Y -2 Y 2 Y -2 Y 2 Y -1 Y 1 Y 1 -1 d 1 Y -1 Y 1 Y -1 Y 1 X 1 Y -2 Y 2 Y -1 Y 1 Y -1 Y 1 Y -2 Y 2 Y -1 Y 1 X 1 Y -1 Y 1 Y -2 Y 2 Y -2 Y 2 Y -1 Y 1 Y -1 Y 1 1 d -2
 Y 2 Y -2 Y 1 Y 1 1 d -1 Y 1 Y -2 Y 2 Y -1 Y 1 X 1 Y -2 Y 2 Y -2 Y 2 Y -2 Y 2 Y -1 Y 1 X 1 Y -1 Y 1 Y -2 Y 3 Y -2 Y 2 Y -2 Y 1 1 d -1 Y 1 Y -2 Y 2 Y -2 Y 2 Y -1 Y 1 Y -1 Y 1 X 1 Y -1 Y 1 1 d -1 Y 1 Y -1 Y 2 Y -2 Y 1 Y -1 Y 1 X 1 Y -1 Y 1 Y -1 Y 1 1 d
 -2 Y 2 Y -1 Y 1 Y -1 Y 1 Y -1 Y 1 Y -2 Y 1 1 d -1 Y 1 Y -1 Y 2 Y -1 Y 1 Y -1 Y 1 Y -1 Y 1 X 5 Y -3 Y 76 Y 1 1 d 113 Y 1 3 d 20 Y -6 Y 3 X -1 Y 1 Y 1 -1 d 2 Y -2 Y 2 Y -1 Y 2 Y -3 Y 1 Y -1 Y 1 Y 1 X -1 Y 1 Y 1 X 1 Y -2 Y 2 Y -2 Y 1 Y -1 Y 2 Y -2 Y 1
 1 d -1 Y 2 Y -2 Y 1 Y -1 Y 1 1 d -1 Y 1 Y -1 Y 2 Y -2 Y 1 Y -1 Y 1 1 d -1 Y 1 Y 1 X -1 Y 2 Y -2 Y 2 Y -2 Y 2 Y -2 Y 2 Y -2 Y 2 Y -2 Y 1 Y 1 X -1 Y 2 Y -2 Y 1 Y 1 X -1 Y 1 Y -1 Y 2 Y -2 Y 1 Y 1 X -1 Y 2 Y -1 Y 1 Y -2 Y 2 Y -1 Y 1 X 1 Y -2 Y 2 Y -2 Y
 2 Y -1 Y 1 Y -1 Y 1 -1 d 1 Y -1 Y 1 Y 1 X -1 Y 2 Y -2 Y 2 Y -1 Y 1 X -1 Y 1 Y -1 Y 1 Y 1 X -1 Y 1 Y 1 X -1 Y 1 Y 2 X 1 Y -2 Y 2 Y -2 Y 1 Y 2 X -1 Y 2 Y -2 Y 1 Y 1 X -1 Y 2 Y -1 Y 1 X 1 Y -1 Y 1 Y -2 Y 2 Y -2 Y 1 Y 1 1 d -2 Y 1 Y -1 Y 1 X 2 Y -1 Y 1
 Y -1 Y 1 Y -1 Y 1 X 1 Y -1 Y 1 Y -2 Y 1 Y 1 1 d -2 Y 1 Y -1 Y 1 Y 1 X -1 Y 2 Y -2 Y 2 Y -1 Y 1 X -1 Y 2 Y -1 Y 1 X -1 Y 1 Y -1 Y 1 Y 1 1 d -2 Y 1 Y -1 Y 2 Y -2 Y 2 Y -2 Y 2 Y -2 Y 1 Y 1 X -1 Y 1 Y -1 Y 2 Y -2 Y 2 Y -1 Y 1 X -1 Y 1 Y 1 1 d -1 Y 1 Y
 -2 Y 2 Y -1 Y 1 X -1 Y 1 Y -1 Y 1 Y 1 X 1 Y -2 Y 1 Y 1 X -1 Y 3 Y -2 Y 1 X 1 Y -1 Y 1 X -1 Y 1 Y -1 Y 1 Y -1 Y 2 Y -2 Y 1 Y 1 X -1 Y 2 Y -2 Y 2 Y -2 Y 2 Y -2 Y 2 Y -2 Y 1 Y 1 X -1 Y 1 Y -1 Y 1 Y -1 Y 2 Y 1 -1 d 1 X 1 Y -1 Y 1 Y 1 X -2 Y 1 Y 1 X -1 Y
 2 Y -2 Y 2 Y -2 Y 1 Y 1 X -1 Y 1 Y -1 Y 2 Y 1 -2 d 1 Y -1 Y 1 Y -1 Y 2 Y -2 Y 1 X 2 Y -2 Y 1 Y -1 Y 1 1 d 1 Y -1 Y 2 Y -2 Y 1 Y -1 Y 1 X -1 Y 2 Y -2 Y 2 Y -2 Y 1 Y -1 Y 1 Y 1 X 1 Y -1 Y 1 X 1 Y -2 Y 2 Y -1 Y 2 X -1 Y 2 Y -2 Y 1 Y 2 X -1 Y 2 Y -2 Y 1
 Y -1 Y 1 Y -1 Y 1 Y 1 X -1 Y 2 Y -2 Y 2 Y 1 -1 d 1 Y -1 Y 1 1 d -2 Y 1 Y 1 X -1 Y 2 Y -1 Y 1 -1 d 1 Y -2 Y 3 Y -1 Y 4 X -16 Y 4 Y -1 Y 6 Y 1 -2 d 2 Y -2 Y 4 Y -2 Y 2 Y -2 Y 4 Y -1 Y 1 Y -1 Y 4 Y -2 Y 2 Y -3 Y 3 Y -2 Y 2 Y -2 Y 2 Y -2 Y 2 Y -2 Y 2 Y
 -2 Y 2 Y -1 Y 2 Y -2 Y 1 1 d -1 Y 2 Y -2 Y 2 Y -2 Y 2 Y -2 Y 1 Y -1 Y 2 Y -2 Y 2 Y -2 Y 2 Y -2 Y 2 Y -2 Y 2 Y -1 Y 1 1 d -2 Y 2 Y -2 Y 2 Y -2 Y 2 Y -2 Y 2 Y -2 Y 2 Y -2 Y 2 Y -2 Y 2 Y -2 Y 2 Y -2 Y 2 Y -2 Y 2 Y -2 Y 2 Y -2 Y 1 X 1 Y -1 Y 2 Y -2 Y 2
 Y -2 Y 2 Y -2 Y 2 Y -2 Y 2 Y -2 Y 2 Y -2 Y 2 Y -2 Y 2 Y -2 Y 2 Y -2 Y 2 Y 1 -2 d 2 Y -2 Y 2 Y -2 Y 2 Y -2 Y 2 Y -2 Y 1 Y -1 Y 2 Y -2 Y 2 Y -2 Y 2 Y 1 -2 d 2 Y -2 Y 2 Y -2 Y 2 Y -2 Y 2 Y -2 Y 2 Y -2 Y 2 Y -2 Y 2 Y -2 Y 2 Y -2 Y 2 Y -2 Y 2 Y -1 Y 1 X
 1 Y -2 Y 2 Y -2 Y 2 Y -2 Y 3 Y -2 Y 1 Y -2 Y 2 Y -2 Y 2 Y 1 -2 d 2 Y -2 Y 2 Y -2 Y 2 Y -2 Y 2 Y -2 Y 2 Y -2 Y 2 Y -2 Y 2 Y -2 Y 2 Y -2 Y 2 Y -2 Y 2 Y -2 Y 2 Y -2 Y 2 Y -2 Y 2 Y -2 Y 3 Y -2 Y 1 -1 d 2 Y -2 Y 2 Y -2 Y 3 Y -2 Y 1 Y -2 Y 2 Y -2 Y 2 Y -2
 Y 2 Y -2 Y 2 Y -2 Y 2 Y -2 Y 2 Y -2 Y 2 Y -2 Y 2 Y -2 Y 2 Y -2 Y 2 Y 1 -2 d 2 Y -2 Y 2 Y -2 Y 2 Y -2 Y 2 Y -2 Y 2 Y -2 Y 2 Y -2 Y 2 Y -2 Y 2 Y -2 Y 2 Y -2 Y 2 Y -2 Y 2 Y -2 Y 2 Y -2 Y 2 Y -2 Y 3 Y -2 Y 1 X -1 Y 2 Y -2 Y 2 Y -2 Y 2 Y -2 Y 2 Y -2 Y 2
 Y -2 Y 2 Y -2 Y 2 Y -2 Y 2 Y -1 Y 1 1 d -2 Y 2 Y -2 Y 2 Y -2 Y 2 Y -2 Y 2 Y -2 Y 2 Y -2 Y 2 Y -1 Y 1 X -1 Y 2 Y -2 Y 1 Y -1 Y 2 Y -2 Y 2 Y -2 Y 2 Y -2 Y 2 Y -2 Y 2 Y -2 Y 2 Y -2 Y 2 Y -2 Y 2 Y -2 Y 1 2 d -2 Y 2 Y -2 Y 2 Y -2 Y 2 Y -2 Y 2 Y -2 Y 2 Y
 -2 Y 2 Y -2 Y 2 Y -2 Y 2 Y -2 Y 2 Y -2 Y 2 Y -1 Y 1 X 1 Y -2 Y 2 Y -2 Y 2 Y -2 Y 2 Y -2 Y 2 Y -2 Y 2 Y -2 Y 2 Y -2 Y 2 Y -2 Y 2 Y -2 Y 2 Y -2 Y 1 2 d -2 Y 2 Y -1 Y 1 Y -2 Y 2 Y -2 Y 2 Y -2 Y 2 Y -2 Y 2 Y -2 Y 2 Y -2 Y 2 Y -2 Y 2 Y -2 Y 2 Y -2 Y 2 Y
 1 -2 d 2 Y -2 Y 2 Y -2 Y 2 Y -2 Y 2 Y -2 Y 2 Y -2 Y 2 Y -1 Y 1 Y -2 Y 1 Y 1 X 2 Y -3 Y 2 Y -2 Y 2 Y -2 Y 2 Y -2 Y 2 Y -2 Y 1 2 d -2 Y 2 Y -2 Y 2 Y -2 Y 2 Y -2 Y 2 Y -2 Y 2 Y -2 Y 2 Y -2 Y 2 Y -2 Y 2 Y -2 Y 2 Y -2 Y 2 Y -2 Y 2 Y -2 Y 2 Y -2 Y 2 Y -2
 Y 2 Y -2 Y 2 Y -2 Y 1 2 d -2 Y 2 Y -1 Y 1 Y -2 Y 2 Y -2 Y 2 Y -2 Y 2 Y -2 Y 2 Y -2 Y 1 Y 1 1 d -2 Y 2 Y -2 Y 2 Y -2 Y 2 Y -2 Y 2 Y -2 Y 2 Y -1 Y 1 Y -2 Y 2 Y 1 -1 d -1 Y 2 Y -2 Y 2 Y -2 Y 2 Y -2 Y 2 Y -2 Y 2 Y -2 Y 2 Y -2 Y 2 Y -2 Y 2 Y 1 -2 d 2 Y
 -2 Y 2 Y -2 Y 2 Y -2 Y 2 Y -2 Y 2 Y -2 Y 2 Y -2 Y 2 Y -2 Y 2 Y -2 Y 2 Y -2 Y 2 Y -2 Y 2 Y -2 Y 1 Y 1 X 1 Y -2 Y 2 Y -2 Y 2 Y -2 Y 2 Y -2 Y 2 Y -2 Y 2 Y -2 Y 2 Y -1 Y 1 X -1 Y 2 Y -2 Y 1 Y -1 Y 1 Y -1 Y 1 Y -1 Y 2 Y -2 Y 2 Y -2 Y 1 2 d -2 Y 2 Y -2 Y
 2 Y -1 Y 1 Y -2 Y 2 Y -1 Y 2 Y -2 Y 1 Y -1 Y 1 Y -2 Y 2 Y -2 Y 2 Y -2 Y 2 Y 1 -2 d 2 Y -2 Y 2 Y -2 Y 2 Y -2 Y 2 Y -2 Y 2 Y -2 Y 2 Y -2 Y 2 Y -2 Y 2 Y -2 Y 2 Y -2 Y 2 Y -2 Y 2 Y -1 Y 1 -1 d 2 Y -2 Y 2 Y -2 Y 2 Y -2 Y 2 Y -2 Y 2 Y -2 Y 2 Y -2 Y 2 Y -2
 Y 2 Y -2 Y 1 Y 1 X 1 Y -1 Y 1 Y -2 Y 2 Y -2 Y 2 Y -2 Y 2 Y -2 Y 2 Y -2 Y 2 Y -2 Y 2 Y -2 Y 2 Y -2 Y 2 Y -2 Y 2 Y -2 Y 2 Y -2 Y 2 Y -2 Y 1 2 d -2 Y 2 Y -1 Y 1 Y -2 Y 2 Y -2 Y 2 Y -2 Y 2 Y -2 Y 2 Y -2 Y 2 Y -1 Y 1 X -1 Y 2 Y -2 Y 2 Y -2 Y 2 Y -2 Y 2 Y
 -2 Y 1 2 d -2 Y 2 Y -2 Y 2 Y -1 Y 1 Y -2 Y 2 Y -2 Y 1 Y -1 Y 2 Y -2 Y 2 Y -1 Y 1 X -1 Y 2 Y -2 Y 2 Y -2 Y 2 Y -2 Y 2 Y -1 Y 1 X 1 Y -2 Y 2 Y -2 Y 2 Y -2 Y 2 Y -2 Y 2 Y -2 Y 2 Y -2 Y 2 Y -2 Y 2 Y -1 Y 1 Y -2 Y 2 Y 1 -2 d 2 Y -2 Y 2 Y -2 Y 2 Y -2 Y 2
 Y -2 Y 2 Y -2 Y 2 Y -2 Y 2 Y -2 Y 2 Y -1 Y 1 Y -2 Y 2 Y -2 Y 2 Y -2 Y 2 Y -2 Y 2 Y -2 Y 2 Y 1 -2 d 2 Y -2 Y 2 Y -2 Y 2 Y -2 Y 2 Y -2 Y 2 Y -2 Y 2 Y -2 Y 2 Y -2 Y 2 Y -2 Y 2 Y -2 Y 2 Y -2 Y 2 Y -1 Y 1 Y 1 -2 d 2 Y -2 Y 2 Y -2 Y 2 Y -2 Y 1 Y -1 Y 2 Y
 -2 Y 2 Y -2 Y 2 Y -2 Y 2 Y -2 Y 2 Y -2 Y 2 Y -2 Y 2 Y -2 Y 2 Y -2 Y 1 Y 1 X -1 Y 3 Y -2 Y 1 Y -2 Y 2 Y -2 Y 2 Y -1 Y 1 Y -2 Y 2 Y -2 Y 2 Y -1 Y 1 X 2 Y -3 Y 2 Y -2 Y 2 Y -1 Y 1 Y 1 -2 d 2 Y -2 Y 2 Y -2 Y 2 Y -2 Y 2 Y -2 Y 2 Y -2 Y 3 Y -3 Y 2 Y -2 Y
 2 Y -2 Y 2 Y -2 Y 2 Y -2 Y 1 2 d -2 Y 2 Y -2 Y 2 Y -1 Y 1 Y -2 Y 2 Y -2 Y 2 Y -2 Y 2 Y -1 Y 1 X 1 Y -2 Y 2 Y -2 Y 2 Y -2 Y 2 Y -2 Y 2 Y -2 Y 2 Y -2 Y 1 Y 1 -1 d 2 Y -2 Y 2 Y -2 Y 2 Y -2 Y 2 Y -2 Y 2 Y -2 Y 2 Y -1 Y 1 -1 d 2 Y -2 Y 2 Y -2 Y 2 Y -2 Y
 2 Y -2 Y 2 Y -2 Y 2 Y -2 Y 2 Y -2 Y 2 Y -1 Y 1 X -1 Y 2 Y -2 Y 2 Y -2 Y 2 Y -2 Y 2 Y -2 Y 2 Y -2 Y 2 Y -2 Y 2 Y -2 Y 2 Y -2 Y 2 Y -1 Y 1 X 1 Y -2 Y 2 Y -2 Y 2 Y -2 Y 2 Y -2 Y 2 Y -2 Y 2 Y -2 Y 3 Y -2 Y 1 X -1 Y 2 Y -2 Y 2 Y -2 Y 2 Y -2 Y 2 Y 1 -2 d
 2 Y -2 Y 2 Y -2 Y 2 Y -2 Y 2 Y -1 Y 1 Y -2 Y 2 Y -2 Y 2 Y -1 Y 1 Y -2 Y 2 Y -2 Y 2 Y -2 Y 2 Y -1 Y 1 X -1 Y 2 Y -2 Y 2 Y -2 Y 2 Y -2 Y 2 Y -2 Y 1 1 d 1 Y -2 Y 2 Y -2 Y 2 Y -2 Y 2 Y -2 Y 2 Y -2 Y 2 Y -2 Y 1 Y 1 X 1 Y -2 Y 2 Y -2 Y 2 Y -2 Y 2 Y -2 Y 2
 Y -2 Y 2 Y -2 Y 2 Y -1 Y 1 X -1 Y 2 Y -2 Y 2 Y -2 Y 2 Y -2 Y 2 Y -2 Y 2 Y -2 Y 2 Y -2 Y 2 Y -2 Y 2 Y -2 Y 2 Y -1 Y 1 X -1 Y 2 Y -2 Y 2 Y -2 Y 1 Y 1 X 1 Y -2 Y 2 Y -2 Y 2 Y -2 Y 2 Y -2 Y 2 Y -2 Y 2 Y -2 Y 2 Y -2 Y 2 Y -2 Y 2 Y 1 -2 d 2 Y -2 Y 2 Y -2
 Y 2 Y -2 Y 2 Y -2 Y 1 Y -1 Y 2 Y -2 Y 2 Y -2 Y 2 Y -2 Y 1 2 d -2 Y 2 Y -2 Y 2 Y -2 Y 2 Y -2 Y 2 Y -2 Y 2 Y -2 Y 2 Y -2 Y 2 Y -2 Y 1 2 d -2 Y 2 Y -2 Y 2 Y -2 Y 2 Y -2 Y 2 Y -2 Y 2 Y -1 Y 1 Y -2 Y 1 Y 1 X -1 Y 2 Y -2 Y 2 Y -2 Y 2 Y -1 Y 1 Y -2 Y 2 Y
 -1 Y 1 Y -2 Y 2 Y -2 Y 2 Y -2 Y 2 Y -1 Y 1 -1 d 2 Y -2 Y 2 Y -2 Y 2 Y -2 Y 2 Y -2 Y 2 Y -1 Y 1 Y -2 Y 2 Y -2 Y 2 Y -2 Y 2 Y -2 Y 2 Y -2 Y 2 Y 1 -2 d 2 Y -2 Y 1 Y -1 Y 2 Y -2 Y 2 Y -2 Y 2 Y -2 Y 2 Y -2 Y 2 Y -2 Y 2 Y -2 Y 2 Y 1 -2 d 2 Y -2 Y 2 Y -2 Y
 2 Y -2 Y 2 Y -1 Y 1 Y -2 Y 2 Y -2 Y 2 Y -2 Y 2 Y -2 Y 2 Y -2 Y 2 Y -2 Y 1 2 d -2 Y 1 Y 1 X 1 Y -1 Y 1 Y -2 Y 1 Y -1 Y 2 Y -2 Y 2 Y -1 Y 1 X 1 Y -2 Y 2 Y -2 Y 2 Y -2 Y 2 Y -2 Y 2 Y -1 Y 1 X 1 Y -2 Y 2 Y -1 Y 1 Y -2 Y 2 Y -2 Y 2 Y -2 Y 2 Y -1 Y 1 1 d
 -2 Y 2 Y -2 Y 2 Y -2 Y 2 Y -2 Y 2 Y -2 Y 2 Y -2 Y 2 Y -2 Y 2 Y -2 Y 2 Y -2 Y 2 Y 1 -2 d 2 Y -2 Y 2 Y -2 Y 2 Y -2 Y 2 Y -2 Y 2 Y -2 Y 2 Y -2 Y 2 Y -2 Y 2 Y -2 Y 2 Y -2 Y 2 Y -2 Y 2 Y -2 Y 2 Y 1 -2 d 2 Y -2 Y 2 Y -2 Y 2 Y -2 Y 2 Y -2 Y 2 Y -2 Y 2 Y -2
 Y 2 Y -2 Y 2 Y -2 Y 2 Y -2 Y 2 Y -2 Y 2 Y -2 Y 2 Y -2 Y 2 Y -2 Y 1 Y 1 X -1 Y 3 Y -2 Y 1 Y -2 Y 2 Y -2 Y 2 Y -2 Y 2 Y -2 Y 2 Y -2 Y 2 Y -2 Y 2 Y -2 Y 2 Y -2 Y 2 Y -2 Y 2 Y -2 Y 2 Y -2 Y 2 Y -2 Y 2 Y -2 Y 2 Y -2 Y 2 Y -2 Y 2 Y -2 Y 2 Y 1 -2 d 2 Y -2
 Y 2 Y -2 Y 2 Y -2 Y 2 Y -2 Y 2 Y -2 Y 2 Y -2 Y 2 Y -2 Y 2 Y -2 Y 2 Y -2 Y 2 Y -2 Y 2 Y -2 Y 2 Y -2 Y 2 Y -2 Y 2 Y -2 Y 1 2 d -2 Y 2 Y -2 Y 2 Y -2 Y 2 Y -2 Y 2 Y -2 Y 2 Y -1 Y 1 1 d -2 Y 2 Y -2 Y 2 Y -2 Y 2 Y -2 Y 2 Y -2 Y 2 Y -1 Y 1 Y -2 Y 2 Y -2 Y
 2 Y -2 Y 2 Y -2 Y 2 Y -2 Y 1 2 d -1 Y 1 Y -2 Y 2 Y -2 Y 2 Y -2 Y 2 Y -2 Y 2 Y -2 Y 2 Y -2 Y 2 Y -2 Y 2 Y -2 Y 2 Y -2 Y 1 1 d 1 Y -2 Y 2 Y -2 Y 2 Y -2 Y 2 Y -2 Y 2 Y -2 Y 2 Y -2 Y 2 Y -1 Y 1 -1 d 2 Y -2 Y 2 Y -2 Y 2 Y -2 Y 2 Y -2 Y 2 Y -2 Y 2 Y -2 Y
 2 Y -2 Y 2 Y -2 Y 2 Y -2 Y 2 Y 1 -2 d 2 Y -2 Y 2 Y -2 Y 2 Y -2 Y 2 Y -2 Y 2 Y -2 Y 2 Y -2 Y 2 Y -2 Y 2 Y -2 Y 2 Y -2 Y 2 Y -2 Y 2 Y -2 Y 1 2 d -2 Y 2 Y -2 Y 2 Y -2 Y 2 Y -2 Y 2 Y -2 Y 2 Y -2 Y 2 Y -2 Y 2 Y -2 Y 2 Y -1 Y 1 X -1 Y 2 Y -2 Y 2 Y -2 Y 2
 Y -2 Y 2 Y -2 Y 2 Y -2 Y 2 Y 1 -1 d -1 Y 2 Y -2 Y 2 Y -2 Y 2 Y -2 Y 2 Y -2 Y 2 Y -2 Y 2 Y -2 Y 2 Y -2 Y 2 Y -2 Y 2 Y -2 Y 1 2 d -2 Y 2 Y -2 Y 2 Y -2 Y 2 Y -2 Y 2 Y -2 Y 2 Y -2 Y 2 Y -2 Y 2 Y -2 Y 2 Y -2 Y 2 Y -2 Y 2 Y -2 Y 2 Y -2 Y 1 2 d -2 Y 2 Y -2
 Y 1 Y -1 Y 2 Y -2 Y 2 Y -2 Y 2 Y -2 Y 2 Y -2 Y 2 Y -2 Y 2 Y 1 -2 d 2 Y -2 Y 2 Y -1 Y 1 Y -2 Y 2 Y -2 Y 2 Y -2 Y 2 Y -2 Y 2 Y -2 Y 2 Y -2 Y 1 1 d 1 Y -1 Y 1 Y -2 Y 2 Y -2 Y 2 Y -1 Y 1 Y -1 Y 1 X 1 Y -2 Y 2 Y -2 Y 2 Y -2 Y 2 Y -2 Y 2 Y -2 Y 2 Y -2 Y 2
 Y -2 Y 2 Y -2 Y 2 Y -2 Y 2 Y -2 Y 2 Y -2 Y 1 2 d -2 Y 2 Y -2 Y 2 Y -2 Y 2 Y -2 Y 2 Y -2 Y 2 Y -2 Y 2 Y -2 Y 2 Y -2 Y 2 Y -2 Y 2 Y -2 Y 2 Y -2 Y 1 2 d -2 Y 1 Y -1 Y 2 Y -2 Y 2 Y -2 Y 2 Y -2 Y 2 Y -2 Y 2 Y -2 Y 2 Y -2 Y 2 Y -2 Y 2 Y -1 Y 1 X -1 Y 2 Y
 -2 Y 2 Y -2 Y 2 Y -2 Y 2 Y -2 Y 2 Y -2 Y 2 Y -2 Y 2 Y -2 Y 2 Y -2 Y 2 Y -2 Y 2 Y -2 Y 2 Y -2 Y 2 Y -2 Y 2 Y -2 Y 2 Y 1 -2 d 2 Y -2 Y 2 Y -2 Y 2 Y -2 Y 2 Y -2 Y 1 2 d -2 Y 2 Y -2 Y 2 Y -2 Y 2 Y -2 Y 2 Y -2 Y 2 Y -2 Y 2 Y -2 Y 2 Y -2 Y 2 Y -2 Y 2 Y -2
 Y 2 Y -2 Y 1 2 d -2 Y 2 Y -2 Y 2 Y -1 Y 1 Y -2 Y 2 Y -2 Y 2 Y -2 Y 2 Y -2 Y 2 Y -2 Y 2 Y -2 Y 2 Y -2 Y 2 Y -2 Y 2 Y -2 Y 2 Y 1 -2 d 2 Y -2 Y 2 Y -2 Y 2 Y -2 Y 2 Y -2 Y 2 Y -2 Y 2 Y -2 Y 2 Y -2 Y 2 Y -2 Y 2 Y 1 -2 d 1 Y -1 Y 2 Y -2 Y 3 Y -2 Y 1 Y -2
 Y 1 2 d -2 Y 2 Y -2 Y 2 Y -1 Y 1 Y -2 Y 2 Y -2 Y 2 Y -2 Y 2 Y -2 Y 2 Y -2 Y 2 Y -2 Y 2 Y -2 Y 2 Y -1 Y 1 X 1 Y -2 Y 2 Y -2 Y 2 Y -2 Y 2 Y -2 Y 2 Y -2 Y 2 Y -2 Y 1 Y -1 Y 2 Y -2 Y 2 Y -2 Y 2 Y -2 Y 2 Y -2 Y 2 Y -2 Y 2 Y 1 -1 d -1 Y 2 Y -2 Y 2 Y -2 Y
 2 Y -2 Y 3 Y -2 Y 1 Y -2 Y 2 Y -2 Y 2 Y -2 Y 2 Y -2 Y 2 Y -2 Y 2 Y -2 Y 2 Y -2 Y 2 Y -2 Y 2 Y 1 -1 d 1 Y -2 Y 2 Y -2 Y 2 Y -2 Y 2 Y -2 Y 2 Y -2 Y 2 Y -1 Y 1 1 d -2 Y 2 Y -2 Y 2 Y -2 Y 2 Y -2 Y 2 Y -2 Y 2 Y -2 Y 2 Y -2 Y 2 Y -1 Y 1 Y -2 Y 2 Y 1 -2 d
 2 Y -2 Y 2 Y -2 Y 2 Y -2 Y 3 Y -2 Y 1 Y -2 Y 1 Y 1 X -1 Y 2 Y -2 Y 2 Y -2 Y 2 Y -2 Y 2 Y -2 Y 2 Y -2 Y 2 Y -1 Y 1 Y -1 Y 1 X 1 Y -2 Y 2 Y -2 Y 2 Y -2 Y 2 Y -2 Y 2 Y -2 Y 2 Y -2 Y 2 Y -2 Y 1 Y 1 X 1 Y -2 Y 2 Y -2 Y 2 Y -2 Y 2 Y 1 -2 d 2 Y -2 Y 2 Y -2
 Y 2 Y -2 Y 2 Y -2 Y 2 Y -2 Y 2 Y -2 Y 2 Y -2 Y 2 Y -1 Y 1 X 1 Y -2 Y 1 Y -1 Y 2 Y -1 Y 1 -1 d 2 Y -2 Y 2 Y -1 Y 1 Y -2 Y 2 Y -1 Y 1 X 1 Y -2 Y 1 Y -1 Y 2 Y -2 Y 2 Y -2 Y 2 Y -2 Y 2 Y -2 Y 2 Y -2 Y 2 Y -2 Y 2 Y -2 Y 2 Y -1 Y 1 Y -2 Y 2 Y 1 -2 d 2 Y
 -2 Y 2 Y -2 Y 2 Y -2 Y 2 Y -2 Y 2 Y -2 Y 2 Y -1 Y 1 X 1 Y -2 Y 2 Y -2 Y 2 Y 1 -2 d 2 Y -2 Y 2 Y -2 Y 2 Y -2 Y 1 Y -1 Y 2 Y -2 Y 2 Y -2 Y 2 Y -1 Y 1 Y -2 Y 2 Y 1 -1 d 1 Y -2 Y 2 Y -2 Y 2 Y -1 Y 1 X -1 Y 2 Y -2 Y 1 Y -1 Y 2 Y -2 Y 2 Y -1 Y 1 X 2 Y -2
 Y 1 Y -2 Y 2 Y -2 Y 2 Y -1 Y 1 X -1 Y 1 Y -1 Y 2 Y -2 Y 2 Y -2 Y 2 Y -2 Y 2 Y -2 Y 2 Y -2 Y 2 Y 1 -2 d 1 Y -1 Y 2 Y -2 Y 2 Y -1 Y 1 Y -2 Y 2 Y -2 Y 2 Y -2 Y 2 Y -2 Y 1 Y -1 Y 1 Y 1 1 d -2 Y 2 Y -2 Y 2 Y -2 Y 2 Y -2 Y 2 Y -2 Y 2 Y -1 Y 1 Y -2 Y 2 Y
 -2 Y 1 Y 1 1 d -2 Y 2 Y -2 Y 2 Y -2 Y 2 Y -2 Y 2 Y -1 Y 1 Y -2 Y 2 Y -2 Y 2 Y -2 Y 2 Y -2 Y 2 Y -2 Y 3 Y -2 Y 1 X -1 Y 2 Y -2 Y 2 Y -2 Y 2 Y -2 Y 2 Y -2 Y 2 Y -2 Y 2 Y -1 Y 1 X -1 Y 2 Y -1 Y 1 Y -2 Y 2 Y -1 Y 1 X 1 Y -2 Y 2 Y -2 Y 2 Y -2 Y 2 Y -2 Y
 2 Y -2 Y 2 Y -2 Y 1 Y 1 X -1 Y 2 Y -2 Y 2 Y -2 Y 2 Y -2 Y 2 Y -2 Y 2 Y -1 Y 1 Y -2 Y 2 Y -2 Y 1 2 d -2 Y 1 Y -1 Y 2 Y -1 Y 1 Y -2 Y 2 Y -1 Y 1 Y -2 Y 1 2 d -2 Y 2 Y -2 Y 2 Y -2 Y 2 Y -2 Y 2 Y -2 Y 2 Y -2 Y 2 Y -1 Y 1 Y -2 Y 2 Y -2 Y 2 Y -2 Y 1 Y 1
 -1 d 2 Y -2 Y 2 Y -2 Y 2 Y -2 Y 2 Y -2 Y 2 Y -2 Y 2 Y -2 Y 2 Y -1 Y 1 X -1 Y 2 Y -2 Y 2 Y -2 Y 1 Y -1 Y 2 Y -2 Y 2 Y -2 Y 2 Y -1 Y 1 X -1 Y 2 Y -2 Y 2 Y -2 Y 2 Y s 1 1 1 c black
 gsave  2222 521 23 553 C 1020.09 1050.43 t 0 r /Helvetica findfont 22.7995 sf 0 0 m 
 220 207 199 186 179 166 158 145 132 113 100 93 87 74 61 48 40 27 15
(Average temperatures) K NC gr [  ] 0 sd 1 1 1 c 2222 520 23 11 bf black 1 1 1 c 1778 416 245 63 bf black 1778 416 245 63 bl 1 1 1 c 1778 416 245 63 bf black 1778 416 245 63 bl 245 63 m 1778 X s[ 4 8] 0 sd 626 479 m -416 Y s 1234 479 m -416 Y s 1842
 479 m -416 Y s 626 479 m -416 Y s 1842 479 m -416 Y s[  ] 0 sd 245 63 m 416 Y s 245 63 m 1778 X s
 gsave  2222 520 23 11 C 1924.53 17.0648 t 0 r /Helvetica findfont 22.7995 sf 0 0 m (local time) show NC gr  626 75 m -12 Y s 713 69 m -6 Y s 800 69 m -6 Y s 887 69 m -6 Y s 974 69 m -6 Y s 1061 69 m -6 Y s 1147 69 m -6 Y s 1234 75 m -12 Y s 1321 69
 m -6 Y s 1408 69 m -6 Y s 1495 69 m -6 Y s 1582 69 m -6 Y s 1668 69 m -6 Y s 1755 69 m -6 Y s 1842 75 m -12 Y s 626 75 m -12 Y s 539 69 m -6 Y s 453 69 m -6 Y s 366 69 m -6 Y s 279 69 m -6 Y s 1842 75 m -12 Y s 1929 69 m -6 Y s 2016 69 m -6 Y s
 gsave  2222 520 23 11 C 587.786 37.9217 t 0 r /Helvetica findfont 26.5994 sf 0 0 m (12\25502 ) show NC gr 
 gsave  2222 520 23 11 C 1194.53 37.9217 t 0 r /Helvetica findfont 26.5994 sf 0 0 m (19\25502 ) show NC gr 
 gsave  2222 520 23 11 C 1803.18 37.9217 t 0 r /Helvetica findfont 26.5994 sf 0 0 m (26\25502 ) show NC gr  245 63 m 416 Y s
 gsave  2222 520 23 11 C 153.583 248.387 t 90 r /Helvetica findfont 22.7995 sf 0 0 m (Module Mean RMS \(K\)) show NC gr  263 63 m -18 X s 254 71 m -9 X s 254 80 m -9 X s 254 88 m -9 X s 254 96 m -9 X s 263 105 m -18 X s 254 113 m -9 X s 254 121 m -9
 X s 254 130 m -9 X s 254 138 m -9 X s 263 146 m -18 X s 254 155 m -9 X s 254 163 m -9 X s 254 171 m -9 X s 254 180 m -9 X s 263 188 m -18 X s 254 196 m -9 X s 254 205 m -9 X s 254 213 m -9 X s 254 221 m -9 X s 263 229 m -18 X s 254 238 m -9 X s 254
 246 m -9 X s 254 254 m -9 X s 254 263 m -9 X s 263 271 m -18 X s 254 279 m -9 X s 254 288 m -9 X s 254 296 m -9 X s 254 304 m -9 X s 263 313 m -18 X s 254 321 m -9 X s 254 329 m -9 X s 254 338 m -9 X s 254 346 m -9 X s 263 354 m -18 X s 254 363 m -9
 X s 254 371 m -9 X s 254 379 m -9 X s 254 388 m -9 X s 263 396 m -18 X s 254 404 m -9 X s 254 413 m -9 X s 254 421 m -9 X s 254 429 m -9 X s 263 438 m -18 X s 254 446 m -9 X s 254 454 m -9 X s 254 463 m -9 X s 254 471 m -9 X s 263 479 m -18 X s
 gsave  2222 520 23 11 C 218.05 54.9864 t 0 r /Helvetica findfont 26.5994 sf 0 0 m (0) show NC gr 
 gsave  2222 520 23 11 C 182.024 96.7003 t 0 r /Helvetica findfont 26.5994 sf 0 0 m (0.01) show NC gr 
 gsave  2222 520 23 11 C 182.024 138.414 t 0 r /Helvetica findfont 26.5994 sf 0 0 m (0.02) show NC gr 
 gsave  2222 520 23 11 C 182.024 180.128 t 0 r /Helvetica findfont 26.5994 sf 0 0 m (0.03) show NC gr 
 gsave  2222 520 23 11 C 182.024 221.842 t 0 r /Helvetica findfont 26.5994 sf 0 0 m (0.04) show NC gr 
 gsave  2222 520 23 11 C 182.024 261.66 t 0 r /Helvetica findfont 26.5994 sf 0 0 m (0.05) show NC gr 
 gsave  2222 520 23 11 C 182.024 303.373 t 0 r /Helvetica findfont 26.5994 sf 0 0 m (0.06) show NC gr 
 gsave  2222 520 23 11 C 182.024 345.087 t 0 r /Helvetica findfont 26.5994 sf 0 0 m (0.07) show NC gr 
 gsave  2222 520 23 11 C 182.024 386.801 t 0 r /Helvetica findfont 26.5994 sf 0 0 m (0.08) show NC gr 
 gsave  2222 520 23 11 C 182.024 428.515 t 0 r /Helvetica findfont 26.5994 sf 0 0 m (0.09) show NC gr 
 gsave  2222 520 23 11 C 197.193 470.229 t 0 r /Helvetica findfont 26.5994 sf 0 0 m (0.1) show NC gr  1 0.8 0 c black 617 93 639 127 597 149 426 63 891 148 1280 97 1513 134 1310 104 1154 130 1741 63 1113 63 1333 135 1651 119 1188 122 1766 170 1200
 102 1833 63 945 132 781 85 1680 132 979 141 396 88 22 { m22} R 1418 132 1855 63 1454 121 1035 87 1709 119 1043 284 471 144 528 85 719 131 1054 120 538 119 743 102 560 131 1220 95 1583 129 814 134 1077 187 1243 127 1259 69 934 63 20 { m22} R 1 0.8 0
 c 6 65 614 63 bf black 1 0.8 0 c 33 41 622 106 bf black 1 0.8 0 c 7 416 594 63 bf black 1 0.8 0 c 4 0 424 63 bf black 1 0.8 0 c 56 36 863 130 bf black 1 0.8 0 c 5 145 1278 63 bf black 1 0.8 0 c 73 26 1476 121 bf black 1 0.8 0 c 7 67 1307 71 bf black
 1 0.8 0 c 38 73 1135 94 bf black 1 0.8 0 c 3 0 1739 63 bf black 1 0.8 0 c 4 0 1111 63 bf black 1 0.8 0 c 35 40 1316 115 bf black 1 0.8 0 c 13 58 1645 90 bf black 1 0.8 0 c 14 50 1181 97 bf black 1 0.8 0 c 46 39 1743 151 bf black 1 0.8 0 c 8 62 1196
 71 bf black 1 0.8 0 c 6 0 1830 63 bf black 1 0.8 0 c 15 50 937 107 bf black 1 0.8 0 c 5 50 779 63 bf black 1 0.8 0 c 42 36 1659 114 bf black 1 0.8 0 c 52 48 953 117 bf black 1 0.8 0 c 6 55 393 63 bf black 1 0.8 0 c 53 35 1391 114 bf black 1 0.8 0 c
 39 0 1836 63 bf black 1 0.8 0 c 18 50 1445 96 bf black 1 0.8 0 c 6 50 1032 63 bf black 1 0.8 0 c 11 62 1703 88 bf black 1 0.8 0 c 9 416 1039 63 bf black 1 0.8 0 c 25 90 458 99 bf black 1 0.8 0 c 5 58 526 63 bf black 1 0.8 0 c 37 35 700 113 bf black
 1 0.8 0 c 12 60 1048 90 bf black 1 0.8 0 c 13 58 531 90 bf black 1 0.8 0 c 9 64 739 70 bf black 1 0.8 0 c 19 68 550 97 bf black 1 0.8 0 c 6 53 1217 68 bf black 1 0.8 0 c 65 29 1551 115 bf black 1 0.8 0 c 55 29 787 119 bf black 1 0.8 0 c 29 416 1062
 63 bf black 1 0.8 0 c 24 38 1231 108 bf black 1 0.8 0 c 5 25 1256 63 bf black 1 0.8 0 c 4 0 932 63 bf black 1 0.8 0 c 6 65 614 63 bf black 1 0.8 0 c 33 41 622 106 bf black 1 0.8 0 c 7 416 594 63 bf black 1 0.8 0 c 4 0 424 63 bf black 1 0.8 0 c 56 36
 863 130 bf black 1 0.8 0 c 5 145 1278 63 bf black 1 0.8 0 c 73 26 1476 121 bf black 1 0.8 0 c 7 67 1307 71 bf black 1 0.8 0 c 38 73 1135 94 bf black 1 0.8 0 c 3 0 1739 63 bf black 1 0.8 0 c 4 0 1111 63 bf black 1 0.8 0 c 35 40 1316 115 bf black 1
 0.8 0 c 13 58 1645 90 bf black 1 0.8 0 c 14 50 1181 97 bf black 1 0.8 0 c 46 39 1743 151 bf black 1 0.8 0 c 8 62 1196 71 bf black 1 0.8 0 c 6 0 1830 63 bf black 1 0.8 0 c 15 50 937 107 bf black 1 0.8 0 c 5 50 779 63 bf black 1 0.8 0 c 42 36 1659 114
 bf black 1 0.8 0 c 52 48 953 117 bf black 1 0.8 0 c 6 55 393 63 bf black 1 0.8 0 c 53 35 1391 114 bf black 1 0.8 0 c 39 0 1836 63 bf black 1 0.8 0 c 18 50 1445 96 bf black 1 0.8 0 c 6 50 1032 63 bf black 1 0.8 0 c 11 62 1703 88 bf black 1 0.8 0 c 9
 416 1039 63 bf black 1 0.8 0 c 25 90 458 99 bf black 1 0.8 0 c 5 58 526 63 bf black 1 0.8 0 c 37 35 700 113 bf black 1 0.8 0 c 12 60 1048 90 bf black 1 0.8 0 c 13 58 531 90 bf black 1 0.8 0 c 9 64 739 70 bf black 1 0.8 0 c 19 68 550 97 bf black 1
 0.8 0 c 6 53 1217 68 bf black 1 0.8 0 c 65 29 1551 115 bf black 1 0.8 0 c 55 29 787 119 bf black 1 0.8 0 c 29 416 1062 63 bf black 1 0.8 0 c 24 38 1231 108 bf black 1 0.8 0 c 5 25 1256 63 bf black 1 0.8 0 c 4 0 932 63 bf black 1 0.8 0 c black 617 93
 639 127 597 149 426 63 891 148 1280 97 1513 134 1310 104 1154 130 1741 63 1113 63 1333 135 1651 119 1188 122 1766 170 1200 102 1833 63 945 132 781 85 1680 132 979 141 396 88 22 { m22} R 1418 132 1855 63 1454 121 1035 87 1709 119 1043 284 471 144 528
 85 719 131 1054 120 538 119 743 102 560 131 1220 95 1583 129 814 134 1077 187 1243 127 1259 69 934 63 20 { m22} R
 gsave  2222 520 23 11 C 624.595 105.957 t 90 r /Helvetica-Bold findfont 18.9996 sf 0 0 m (251663) show NC gr 
 gsave  2222 520 23 11 C 646.375 139.19 t 90 r /Helvetica-Bold findfont 18.9996 sf 0 0 m (251667) show NC gr 
 gsave  2222 520 23 11 C 604.986 161.389 t 90 r /Helvetica-Bold findfont 18.9996 sf 0 0 m (251542) show NC gr 
 gsave  2222 520 23 11 C 433.913 75.3986 t 90 r /Helvetica-Bold findfont 18.9996 sf 0 0 m (251033) show NC gr 
 gsave  2222 520 23 11 C 898.588 160.602 t 90 r /Helvetica-Bold findfont 18.9996 sf 0 0 m (252194) show NC gr 
 gsave  2222 520 23 11 C 1288.08 109.155 t 90 r /Helvetica-Bold findfont 18.9996 sf 0 0 m (252712) show NC gr 
 gsave  2222 520 23 11 C 1520.22 146.292 t 90 r /Helvetica-Bold findfont 18.9996 sf 0 0 m (253020) show NC gr 
 gsave  2222 520 23 11 C 1317.65 116.57 t 90 r /Helvetica-Bold findfont 18.9996 sf 0 0 m (252844) show NC gr 
 gsave  2222 520 23 11 C 1161.81 142.955 t 90 r /Helvetica-Bold findfont 18.9996 sf 0 0 m (252589) show NC gr 
 gsave  2222 520 23 11 C 1748.11 75.3986 t 90 r /Helvetica-Bold findfont 18.9996 sf 0 0 m (253230) show NC gr 
 gsave  2222 520 23 11 C 1120.24 75.3986 t 90 r /Helvetica-Bold findfont 18.9996 sf 0 0 m (252466) show NC gr 
 gsave  2222 520 23 11 C 1341.03 147.264 t 90 r /Helvetica-Bold findfont 18.9996 sf 0 0 m (252854) show NC gr 
 gsave  2222 520 23 11 C 1659.04 131.33 t 90 r /Helvetica-Bold findfont 18.9996 sf 0 0 m 
 53 42 32 21 11
(253115) K NC gr 
 gsave  2222 520 23 11 C 1195.66 134.111 t 90 r /Helvetica-Bold findfont 18.9996 sf 0 0 m (252604) show NC gr 
 gsave  2222 520 23 11 C 1773.51 182.964 t 90 r /Helvetica-Bold findfont 18.9996 sf 0 0 m (253247) show NC gr 
 gsave  2222 520 23 11 C 1207.29 114.391 t 90 r /Helvetica-Bold findfont 18.9996 sf 0 0 m (252608) show NC gr 
 gsave  2222 520 23 11 C 1840.31 75.3986 t 90 r /Helvetica-Bold findfont 18.9996 sf 0 0 m (253377) show NC gr 
 gsave  2222 520 23 11 C 952.146 144.653 t 90 r /Helvetica-Bold findfont 18.9996 sf 0 0 m (252226) show NC gr 
 gsave  2222 520 23 11 C 789.01 97.8732 t 90 r /Helvetica-Bold findfont 18.9996 sf 0 0 m (252099) show NC gr 
 gsave  2222 520 23 11 C 1687.81 144.089 t 90 r /Helvetica-Bold findfont 18.9996 sf 0 0 m (253124) show NC gr 
 gsave  2222 520 23 11 C 986.442 153.623 t 90 r /Helvetica-Bold findfont 18.9996 sf 0 0 m (252233) show NC gr 
 gsave  2222 520 23 11 C 403.467 100.992 t 90 r /Helvetica-Bold findfont 18.9996 sf 0 0 m (250827) show NC gr 
 gsave  2222 520 23 11 C 1816.28 1423.02 t 90 r /Helvetica-Bold findfont 18.9996 sf 0 0 m (253307) show NC gr 
 gsave  2222 520 23 11 C 1425.39 144.145 t 90 r /Helvetica-Bold findfont 18.9996 sf 0 0 m (253010) show NC gr 
 gsave  2222 520 23 11 C 1863.03 75.3986 t 90 r /Helvetica-Bold findfont 18.9996 sf 0 0 m (253395) show NC gr 
 gsave  2222 520 23 11 C 1461.49 133.133 t 90 r /Helvetica-Bold findfont 18.9996 sf 0 0 m (253014) show NC gr 
 gsave  2222 520 23 11 C 1042.74 99.5177 t 90 r /Helvetica-Bold findfont 18.9996 sf 0 0 m (252376) show NC gr 
 gsave  2222 520 23 11 C 1716.51 131.544 t 90 r /Helvetica-Bold findfont 18.9996 sf 0 0 m (253147) show NC gr 
 gsave  2222 520 23 11 C 1050.78 296.15 t 90 r /Helvetica-Bold findfont 18.9996 sf 0 0 m (252380) show NC gr 
 gsave  2222 520 23 11 C 478.209 156.388 t 90 r /Helvetica-Bold findfont 18.9996 sf 0 0 m 
 53 42 31 21 11
(251106) K NC gr 
 gsave  2222 520 23 11 C 535.826 97.7609 t 90 r /Helvetica-Bold findfont 18.9996 sf 0 0 m (251363) show NC gr 
 gsave  2222 520 23 11 C 726.342 143.242 t 90 r /Helvetica-Bold findfont 18.9996 sf 0 0 m (251876) show NC gr 
 gsave  2222 520 23 11 C 1061.75 132.642 t 90 r /Helvetica-Bold findfont 18.9996 sf 0 0 m (252390) show NC gr 
 gsave  2222 520 23 11 C 545.09 131.513 t 90 r /Helvetica-Bold findfont 18.9996 sf 0 0 m (251367) show NC gr 
 gsave  2222 520 23 11 C 750.668 114.366 t 90 r /Helvetica-Bold findfont 18.9996 sf 0 0 m (251880) show NC gr 
 gsave  2222 520 23 11 C 567.324 143.701 t 90 r /Helvetica-Bold findfont 18.9996 sf 0 0 m (251371) show NC gr 
 gsave  2222 520 23 11 C 1227.56 107.002 t 90 r /Helvetica-Bold findfont 18.9996 sf 0 0 m (252657) show NC gr 
 gsave  2222 520 23 11 C 1590.99 141.959 t 90 r /Helvetica-Bold findfont 18.9996 sf 0 0 m (253042) show NC gr 
 gsave  2222 520 23 11 C 822.076 146.046 t 90 r /Helvetica-Bold findfont 18.9996 sf 0 0 m 
 53 42 32 21 11
(252115) K NC gr 
 gsave  2222 520 23 11 C 1084.33 199.441 t 90 r /Helvetica-Bold findfont 18.9996 sf 0 0 m (252404) show NC gr 
 gsave  2222 520 23 11 C 1250.63 139.744 t 90 r /Helvetica-Bold findfont 18.9996 sf 0 0 m (252663) show NC gr 
 gsave  2222 520 23 11 C 1266.48 81.629 t 90 r /Helvetica-Bold findfont 18.9996 sf 0 0 m (252664) show NC gr 
 gsave  2222 520 23 11 C 941.31 75.3986 t 90 r /Helvetica-Bold findfont 18.9996 sf 0 0 m (252223) show NC gr 
 gsave  2222 520 23 11 C 941.31 75.3986 t 90 r /Helvetica-Bold findfont 18.9996 sf 0 0 m (252223) show NC gr  1 0 0 c[ 12 12] 0 sd black 1 0 0 c 366 271 m 1563 X s 1 1 1 c black
 gsave  2222 520 23 11 C 1063.7 508.151 t 0 r /Helvetica findfont 22.7995 sf 0 0 m 
 130 110 93 87 74 61 48 40 27 15
(Average RMS) K NC gr 
 gr  gr showpage
end
%%EOF
